ISO-10303-21;
HEADER;
FILE_DESCRIPTION (( 'STEP AP214' ),
    '1' );
FILE_NAME ('FPF1320UCX.STEP',
    '2021-05-20T01:01:51',
    ( '' ),
    ( '' ),
    'SwSTEP 2.0',
    'SolidWorks 2017',
    '' );
FILE_SCHEMA (( 'AUTOMOTIVE_DESIGN' ));
ENDSEC;

DATA;
#1 = DIRECTION ( 'NONE',  ( 0.0000000000000000000, 0.0000000000000000000, 1.000000000000000000 ) ) ;
#2 = FACE_OUTER_BOUND ( 'NONE', #839, .T. ) ;
#3 = DIRECTION ( 'NONE',  ( 0.0000000000000000000, -1.000000000000000000, -1.224646799147353200E-016 ) ) ;
#4 = EDGE_LOOP ( 'NONE', ( #452, #323, #784, #810 ) ) ;
#5 = ORIENTED_EDGE ( 'NONE', *, *, #190, .T. ) ;
#6 = AXIS2_PLACEMENT_3D ( 'NONE', #603, #463, #21 ) ;
#7 =( LENGTH_UNIT ( ) NAMED_UNIT ( * ) SI_UNIT ( .MILLI., .METRE. ) );
#8 = FACE_OUTER_BOUND ( 'NONE', #421, .T. ) ;
#9 = CARTESIAN_POINT ( 'NONE',  ( 0.2500000000000001700, 0.1575000000000000000, 0.5000000000000000000 ) ) ;
#10 = CYLINDRICAL_SURFACE ( 'NONE', #31, 0.1000000000000001000 ) ;
#11 = EDGE_CURVE ( 'NONE', #308, #722, #56, .T. ) ;
#12 = FILL_AREA_STYLE ('',( #20 ) ) ;
#13 = STYLED_ITEM ( 'NONE', ( #230 ), #717 ) ;
#14 = ORIENTED_EDGE ( 'NONE', *, *, #346, .F. ) ;
#15 = PLANE ( 'NONE',  #42 ) ;
#16 = VERTEX_POINT ( 'NONE', #364 ) ;
#17 = VERTEX_POINT ( 'NONE', #705 ) ;
#18 = SURFACE_STYLE_USAGE ( .BOTH. , #94 ) ;
#19 = EDGE_CURVE ( 'NONE', #16, #439, #734, .T. ) ;
#20 = FILL_AREA_STYLE_COLOUR ( '', #847 ) ;
#21 = DIRECTION ( 'NONE',  ( 0.0000000000000000000, 0.0000000000000000000, -1.000000000000000000 ) ) ;
#22 = SURFACE_SIDE_STYLE ('',( #680 ) ) ;
#23 = SPHERICAL_SURFACE ( 'NONE', #166, 0.1575000000000000300 ) ;
#24 = DIRECTION ( 'NONE',  ( 0.0000000000000000000, 0.0000000000000000000, 1.000000000000000000 ) ) ;
#25 = LINE ( 'NONE', #711, #629 ) ;
#26 = FACE_BOUND ( 'NONE', #70, .T. ) ;
#27 = CIRCLE ( 'NONE', #517, 0.1000000000000001000 ) ;
#28 = AXIS2_PLACEMENT_3D ( 'NONE', #518, #158, #578 ) ;
#29 = EDGE_LOOP ( 'NONE', ( #209, #383 ) ) ;
#30 = PLANE ( 'NONE',  #748 ) ;
#31 = AXIS2_PLACEMENT_3D ( 'NONE', #533, #747, #601 ) ;
#32 = CARTESIAN_POINT ( 'NONE',  ( -0.4799999999999999800, 0.2750000000000000200, 0.7299999999999999800 ) ) ;
#33 = ORIENTED_EDGE ( 'NONE', *, *, #334, .T. ) ;
#34 = CARTESIAN_POINT ( 'NONE',  ( 0.2500000000000001700, 0.1575000000000000000, 0.0000000000000000000 ) ) ;
#35 = CARTESIAN_POINT ( 'NONE',  ( 0.2500000000000001700, 0.1575000000000000000, 0.0000000000000000000 ) ) ;
#36 = FILL_AREA_STYLE ('',( #182 ) ) ;
#37 = CARTESIAN_POINT ( 'NONE',  ( 0.4799999999999999800, 0.6250000000000000000, 0.7299999999999999800 ) ) ;
#38 = CIRCLE ( 'NONE', #494, 0.1575000000000000300 ) ;
#39 = CARTESIAN_POINT ( 'NONE',  ( -0.4074999999999998600, 0.1575000000000000000, -0.5000000000000000000 ) ) ;
#40 = DIRECTION ( 'NONE',  ( 0.0000000000000000000, 0.0000000000000000000, 1.000000000000000000 ) ) ;
#41 = EDGE_LOOP ( 'NONE', ( #735, #74 ) ) ;
#42 = AXIS2_PLACEMENT_3D ( 'NONE', #103, #608, #327 ) ;
#43 = EDGE_LOOP ( 'NONE', ( #574, #393 ) ) ;
#44 = VERTEX_POINT ( 'NONE', #213 ) ;
#45 =( GEOMETRIC_REPRESENTATION_CONTEXT ( 3 ) GLOBAL_UNCERTAINTY_ASSIGNED_CONTEXT ( ( #940 ) ) GLOBAL_UNIT_ASSIGNED_CONTEXT ( ( #551, #498, #503 ) ) REPRESENTATION_CONTEXT ( 'NONE', 'WORKASPACE' ) );
#46 = CARTESIAN_POINT ( 'NONE',  ( 0.4799999999999999800, 0.2750000000000000200, -0.7299999999999999800 ) ) ;
#47 = DIRECTION ( 'NONE',  ( -0.0000000000000000000, -1.000000000000000000, -0.0000000000000000000 ) ) ;
#48 = DIRECTION ( 'NONE',  ( 0.0000000000000000000, 0.0000000000000000000, 1.000000000000000000 ) ) ;
#49 = EDGE_CURVE ( 'NONE', #407, #84, #823, .T. ) ;
#50 = AXIS2_PLACEMENT_3D ( 'NONE', #197, #762, #901 ) ;
#51 =( NAMED_UNIT ( * ) SI_UNIT ( $, .STERADIAN. ) SOLID_ANGLE_UNIT ( ) );
#52 = DIRECTION ( 'NONE',  ( -1.000000000000000000, 0.0000000000000000000, 0.0000000000000000000 ) ) ;
#53 = LINE ( 'NONE', #567, #862 ) ;
#54 = CIRCLE ( 'NONE', #761, 0.1575000000000000300 ) ;
#55 = FACE_OUTER_BOUND ( 'NONE', #541, .T. ) ;
#56 = CIRCLE ( 'NONE', #266, 0.1575000000000000300 ) ;
#57 = DIRECTION ( 'NONE',  ( 0.0000000000000000000, -0.0000000000000000000, -1.000000000000000000 ) ) ;
#58 = SURFACE_STYLE_USAGE ( .BOTH. , #699 ) ;
#59 = ORIENTED_EDGE ( 'NONE', *, *, #604, .T. ) ;
#60 = EDGE_LOOP ( 'NONE', ( #814, #378, #88, #622 ) ) ;
#61 = UNCERTAINTY_MEASURE_WITH_UNIT (LENGTH_MEASURE( 1.000000000000000100E-005 ), #508, 'distance_accuracy_value', 'NONE');
#62 = DIRECTION ( 'NONE',  ( 0.0000000000000000000, 0.0000000000000000000, -1.000000000000000000 ) ) ;
#63 = DIRECTION ( 'NONE',  ( -0.0000000000000000000, 1.000000000000000000, -0.0000000000000000000 ) ) ;
#64 = PRODUCT_CONTEXT ( 'NONE', #434, 'mechanical' ) ;
#65 = CARTESIAN_POINT ( 'NONE',  ( -0.4799999999999999800, 0.6250000000000000000, -0.7299999999999999800 ) ) ;
#66 = ADVANCED_FACE ( 'NONE', ( #382, #179 ), #753, .T. ) ;
#67 = AXIS2_PLACEMENT_3D ( 'NONE', #611, #395, #173 ) ;
#68 = DIRECTION ( 'NONE',  ( -0.0000000000000000000, 1.000000000000000000, -0.0000000000000000000 ) ) ;
#69 = CLOSED_SHELL ( 'NONE', ( #713, #701, #717, #376 ) ) ;
#70 = EDGE_LOOP ( 'NONE', ( #548, #208 ) ) ;
#71 = ADVANCED_FACE ( 'NONE', ( #607 ), #935, .T. ) ;
#72 = FILL_AREA_STYLE ('',( #933 ) ) ;
#73 = EDGE_CURVE ( 'NONE', #196, #695, #27, .T. ) ;
#74 = ORIENTED_EDGE ( 'NONE', *, *, #765, .T. ) ;
#75 =( GEOMETRIC_REPRESENTATION_CONTEXT ( 3 ) GLOBAL_UNCERTAINTY_ASSIGNED_CONTEXT ( ( #380 ) ) GLOBAL_UNIT_ASSIGNED_CONTEXT ( ( #256, #249, #666 ) ) REPRESENTATION_CONTEXT ( 'NONE', 'WORKASPACE' ) );
#76 = MANIFOLD_SOLID_BREP ( 'Housing', #172 ) ;
#77 = CARTESIAN_POINT ( 'NONE',  ( -0.2799999999999999700, 0.5250000000000000200, -0.5300000000000000300 ) ) ;
#78 = DIRECTION ( 'NONE',  ( -1.000000000000000000, -0.0000000000000000000, -0.0000000000000000000 ) ) ;
#79 = SURFACE_STYLE_FILL_AREA ( #791 ) ;
#80 = LINE ( 'NONE', #251, #450 ) ;
#81 = DIRECTION ( 'NONE',  ( 0.0000000000000000000, -1.000000000000000000, 0.0000000000000000000 ) ) ;
#82 = EDGE_LOOP ( 'NONE', ( #138, #587 ) ) ;
#83 = ORIENTED_EDGE ( 'NONE', *, *, #184, .F. ) ;
#84 = VERTEX_POINT ( 'NONE', #360 ) ;
#85 = LINE ( 'NONE', #481, #739 ) ;
#86 = EDGE_CURVE ( 'NONE', #903, #245, #584, .T. ) ;
#87 = FACE_OUTER_BOUND ( 'NONE', #469, .T. ) ;
#88 = ORIENTED_EDGE ( 'NONE', *, *, #362, .T. ) ;
#89 = ORIENTED_EDGE ( 'NONE', *, *, #91, .T. ) ;
#90 = ORIENTED_EDGE ( 'NONE', *, *, #109, .F. ) ;
#91 = EDGE_CURVE ( 'NONE', #245, #903, #655, .T. ) ;
#92 = AXIS2_PLACEMENT_3D ( 'NONE', #171, #399, #531 ) ;
#93 = AXIS2_PLACEMENT_3D ( 'NONE', #628, #344, #125 ) ;
#94 = SURFACE_SIDE_STYLE ('',( #165 ) ) ;
#95 = CARTESIAN_POINT ( 'NONE',  ( 0.09250000000000013800, 0.1575000000000000000, -0.5000000000000000000 ) ) ;
#96 = FACE_OUTER_BOUND ( 'NONE', #868, .T. ) ;
#97 = PRESENTATION_STYLE_ASSIGNMENT (( #546 ) ) ;
#98 = AXIS2_PLACEMENT_3D ( 'NONE', #686, #775, #339 ) ;
#99 = VECTOR ( 'NONE', #883, 1000.000000000000000 ) ;
#100 = ORIENTED_EDGE ( 'NONE', *, *, #643, .T. ) ;
#101 = ORIENTED_EDGE ( 'NONE', *, *, #736, .T. ) ;
#102 = FILL_AREA_STYLE_COLOUR ( '', #389 ) ;
#103 = CARTESIAN_POINT ( 'NONE',  ( 0.0000000000000000000, 0.6250000000000000000, 0.0000000000000000000 ) ) ;
#104 = CARTESIAN_POINT ( 'NONE',  ( 0.4799999999999999800, 0.2750000000000000200, 0.7299999999999999800 ) ) ;
#105 = DIRECTION ( 'NONE',  ( 0.0000000000000000000, 1.000000000000000000, 0.0000000000000000000 ) ) ;
#106 = DIRECTION ( 'NONE',  ( -0.0000000000000000000, -1.000000000000000000, -0.0000000000000000000 ) ) ;
#107 = CARTESIAN_POINT ( 'NONE',  ( -0.4074999999999998600, 0.1575000000000000000, 0.5000000000000000000 ) ) ;
#108 = CYLINDRICAL_SURFACE ( 'NONE', #67, 0.1000000000000001000 ) ;
#109 = EDGE_CURVE ( 'NONE', #478, #281, #489, .T. ) ;
#110 = AXIS2_PLACEMENT_3D ( 'NONE', #424, #694, #920 ) ;
#111 = VERTEX_POINT ( 'NONE', #942 ) ;
#112 = DIRECTION ( 'NONE',  ( -0.0000000000000000000, 1.000000000000000000, -0.0000000000000000000 ) ) ;
#113 = DIRECTION ( 'NONE',  ( 1.000000000000000000, 0.0000000000000000000, -0.0000000000000000000 ) ) ;
#114 = UNCERTAINTY_MEASURE_WITH_UNIT (LENGTH_MEASURE( 1.000000000000000100E-005 ), #262, 'distance_accuracy_value', 'NONE');
#115 = EDGE_CURVE ( 'NONE', #196, #269, #122, .T. ) ;
#116 =( GEOMETRIC_REPRESENTATION_CONTEXT ( 3 ) GLOBAL_UNCERTAINTY_ASSIGNED_CONTEXT ( ( #534 ) ) GLOBAL_UNIT_ASSIGNED_CONTEXT ( ( #136, #121, #556 ) ) REPRESENTATION_CONTEXT ( 'NONE', 'WORKASPACE' ) );
#117 = DIRECTION ( 'NONE',  ( -0.0000000000000000000, -1.000000000000000000, -0.0000000000000000000 ) ) ;
#118 = CARTESIAN_POINT ( 'NONE',  ( -0.4799999999999999800, 0.6250000000000000000, 0.7299999999999999800 ) ) ;
#119 = PRESENTATION_STYLE_ASSIGNMENT (( #930 ) ) ;
#120 = FILL_AREA_STYLE_COLOUR ( '', #403 ) ;
#121 =( NAMED_UNIT ( * ) PLANE_ANGLE_UNIT ( ) SI_UNIT ( $, .RADIAN. ) );
#122 = LINE ( 'NONE', #139, #876 ) ;
#123 = STYLED_ITEM ( 'NONE', ( #900 ), #470 ) ;
#124 = ORIENTED_EDGE ( 'NONE', *, *, #604, .F. ) ;
#125 = DIRECTION ( 'NONE',  ( 1.000000000000000000, 0.0000000000000000000, 0.0000000000000000000 ) ) ;
#126 = CARTESIAN_POINT ( 'NONE',  ( 0.2500000000000001700, 0.2750000000000000200, -0.1048808848170152000 ) ) ;
#127 = AXIS2_PLACEMENT_3D ( 'NONE', #589, #661, #229 ) ;
#128 = ADVANCED_FACE ( 'NONE', ( #321, #354 ), #405, .T. ) ;
#129 = PRESENTATION_LAYER_ASSIGNMENT (  '', '', ( #433 ) ) ;
#130 = CARTESIAN_POINT ( 'NONE',  ( 0.0000000000000000000, 0.2750000000000000200, 0.0000000000000000000 ) ) ;
#131 = LINE ( 'NONE', #524, #730 ) ;
#132 = LINE ( 'NONE', #37, #464 ) ;
#133 = DIRECTION ( 'NONE',  ( 0.0000000000000000000, 0.0000000000000000000, -1.000000000000000000 ) ) ;
#134 = CIRCLE ( 'NONE', #235, 0.1575000000000000800 ) ;
#135 = FILL_AREA_STYLE ('',( #120 ) ) ;
#136 =( LENGTH_UNIT ( ) NAMED_UNIT ( * ) SI_UNIT ( .MILLI., .METRE. ) );
#137 = ORIENTED_EDGE ( 'NONE', *, *, #838, .T. ) ;
#138 = ORIENTED_EDGE ( 'NONE', *, *, #19, .F. ) ;
#139 = CARTESIAN_POINT ( 'NONE',  ( -0.2799999999999999700, 0.5250000000000000200, -0.6300000000000001200 ) ) ;
#140 = MANIFOLD_SOLID_BREP ( 'Pin A3', #683 ) ;
#141 = EDGE_CURVE ( 'NONE', #513, #598, #353, .T. ) ;
#142 = DIRECTION ( 'NONE',  ( 0.0000000000000000000, 0.0000000000000000000, -1.000000000000000000 ) ) ;
#143 = FACE_OUTER_BOUND ( 'NONE', #532, .T. ) ;
#144 = AXIS2_PLACEMENT_3D ( 'NONE', #767, #274, #841 ) ;
#145 = DIRECTION ( 'NONE',  ( 0.0000000000000000000, 0.0000000000000000000, -1.000000000000000000 ) ) ;
#146 = FACE_OUTER_BOUND ( 'NONE', #4, .T. ) ;
#147 =( NAMED_UNIT ( * ) SI_UNIT ( $, .STERADIAN. ) SOLID_ANGLE_UNIT ( ) );
#148 = VERTEX_POINT ( 'NONE', #725 ) ;
#149 = CARTESIAN_POINT ( 'NONE',  ( 0.2500000000000001700, 0.2750000000000000200, 0.6048808848170153000 ) ) ;
#150 = EDGE_CURVE ( 'NONE', #308, #722, #381, .T. ) ;
#151 = ORIENTED_EDGE ( 'NONE', *, *, #846, .F. ) ;
#152 = ADVANCED_FACE ( 'NONE', ( #55 ), #311, .F. ) ;
#153 = CARTESIAN_POINT ( 'NONE',  ( -0.2499999999999998300, 0.2750000000000000200, -0.5000000000000000000 ) ) ;
#154 = EDGE_CURVE ( 'NONE', #281, #148, #642, .T. ) ;
#155 = VECTOR ( 'NONE', #627, 1000.000000000000000 ) ;
#156 = LINE ( 'NONE', #186, #510 ) ;
#157 = ORIENTED_EDGE ( 'NONE', *, *, #523, .F. ) ;
#158 = DIRECTION ( 'NONE',  ( -0.0000000000000000000, 1.000000000000000000, -0.0000000000000000000 ) ) ;
#159 = ORIENTED_EDGE ( 'NONE', *, *, #870, .T. ) ;
#160 = PRESENTATION_LAYER_ASSIGNMENT (  '', '', ( #483 ) ) ;
#161 = STYLED_ITEM ( 'NONE', ( #240 ), #701 ) ;
#162 = CARTESIAN_POINT ( 'NONE',  ( -0.09249999999999980500, 0.1575000000000000000, -0.5000000000000000000 ) ) ;
#163 = SPHERICAL_SURFACE ( 'NONE', #678, 0.1575000000000000300 ) ;
#164 =( NAMED_UNIT ( * ) PLANE_ANGLE_UNIT ( ) SI_UNIT ( $, .RADIAN. ) );
#165 = SURFACE_STYLE_FILL_AREA ( #897 ) ;
#166 = AXIS2_PLACEMENT_3D ( 'NONE', #295, #305, #145 ) ;
#167 = CARTESIAN_POINT ( 'NONE',  ( 0.2500000000000001700, 0.1575000000000000000, -0.5000000000000000000 ) ) ;
#168 = SPHERICAL_SURFACE ( 'NONE', #580, 0.1575000000000000300 ) ;
#169 = ORIENTED_EDGE ( 'NONE', *, *, #91, .F. ) ;
#170 = DIRECTION ( 'NONE',  ( 0.0000000000000000000, 0.0000000000000000000, -1.000000000000000000 ) ) ;
#171 = CARTESIAN_POINT ( 'NONE',  ( -0.2799999999999999700, 0.6250000000000000000, -0.5300000000000000300 ) ) ;
#172 = CLOSED_SHELL ( 'NONE', ( #211, #875, #287, #430, #710, #577, #215, #652, #71 ) ) ;
#173 = DIRECTION ( 'NONE',  ( 0.0000000000000000000, 0.0000000000000000000, 1.000000000000000000 ) ) ;
#174 = CARTESIAN_POINT ( 'NONE',  ( -0.2799999999999999700, 0.6250000000000000000, -0.4299999999999998800 ) ) ;
#175 = CARTESIAN_POINT ( 'NONE',  ( -0.4799999999999999800, 0.2750000000000000200, -0.7299999999999999800 ) ) ;
#176 = DIRECTION ( 'NONE',  ( 0.0000000000000000000, 0.0000000000000000000, 1.000000000000000000 ) ) ;
#177 = VECTOR ( 'NONE', #68, 1000.000000000000000 ) ;
#178 = DIRECTION ( 'NONE',  ( -1.000000000000000000, 0.0000000000000000000, -0.0000000000000000000 ) ) ;
#179 = FACE_BOUND ( 'NONE', #343, .T. ) ;
#180 = DIRECTION ( 'NONE',  ( 0.0000000000000000000, 0.0000000000000000000, 1.000000000000000000 ) ) ;
#181 = EDGE_LOOP ( 'NONE', ( #169, #917 ) ) ;
#182 = FILL_AREA_STYLE_COLOUR ( '', #201 ) ;
#183 = DIRECTION ( 'NONE',  ( 0.0000000000000000000, 0.0000000000000000000, -1.000000000000000000 ) ) ;
#184 = EDGE_CURVE ( 'NONE', #658, #111, #924, .T. ) ;
#185 = CARTESIAN_POINT ( 'NONE',  ( 0.2500000000000001700, 0.2750000000000000200, 0.5000000000000000000 ) ) ;
#186 = CARTESIAN_POINT ( 'NONE',  ( 0.4799999999999999800, 0.2750000000000000200, 0.7299999999999999800 ) ) ;
#187 = DIRECTION ( 'NONE',  ( 0.0000000000000000000, 0.0000000000000000000, -1.000000000000000000 ) ) ;
#188 = FACE_OUTER_BOUND ( 'NONE', #493, .T. ) ;
#189 = CARTESIAN_POINT ( 'NONE',  ( -0.2799999999999999700, 0.5250000000000000200, -0.6300000000000001200 ) ) ;
#190 = EDGE_CURVE ( 'NONE', #504, #278, #286, .T. ) ;
#191 = AXIS2_PLACEMENT_3D ( 'NONE', #616, #330, #180 ) ;
#192 = CARTESIAN_POINT ( 'NONE',  ( -0.2499999999999998300, 0.2750000000000000200, 0.6048808848170153000 ) ) ;
#193 = STYLED_ITEM ( 'NONE', ( #821 ), #590 ) ;
#194 = DIRECTION ( 'NONE',  ( 0.0000000000000000000, 0.0000000000000000000, -1.000000000000000000 ) ) ;
#195 = ORIENTED_EDGE ( 'NONE', *, *, #109, .T. ) ;
#196 = VERTEX_POINT ( 'NONE', #538 ) ;
#197 = CARTESIAN_POINT ( 'NONE',  ( 0.2500000000000001700, 0.1575000000000000000, 0.5000000000000000000 ) ) ;
#198 = DIRECTION ( 'NONE',  ( 0.0000000000000000000, 0.0000000000000000000, 1.000000000000000000 ) ) ;
#199 = PRESENTATION_LAYER_ASSIGNMENT (  '', '', ( #161 ) ) ;
#200 = PLANE ( 'NONE',  #110 ) ;
#201 = COLOUR_RGB ( '',0.7921568627450980000, 0.8196078431372548800, 0.9333333333333333500 ) ;
#202 =( LENGTH_UNIT ( ) NAMED_UNIT ( * ) SI_UNIT ( .MILLI., .METRE. ) );
#203 = ADVANCED_FACE ( 'NONE', ( #834 ), #257, .F. ) ;
#204 = CARTESIAN_POINT ( 'NONE',  ( -0.2799999999999999700, 0.5250000000000000200, -0.4299999999999998800 ) ) ;
#205 = EDGE_CURVE ( 'NONE', #374, #269, #436, .T. ) ;
#206 = SPHERICAL_SURFACE ( 'NONE', #687, 0.1575000000000000300 ) ;
#207 = CLOSED_SHELL ( 'NONE', ( #368, #128, #152 ) ) ;
#208 = ORIENTED_EDGE ( 'NONE', *, *, #618, .F. ) ;
#209 = ORIENTED_EDGE ( 'NONE', *, *, #141, .F. ) ;
#210 = CARTESIAN_POINT ( 'NONE',  ( -0.2799999999999999700, 0.5250000000000000200, -0.5300000000000000300 ) ) ;
#211 = ADVANCED_FACE ( 'NONE', ( #331 ), #267, .F. ) ;
#212 = AXIS2_PLACEMENT_3D ( 'NONE', #35, #263, #194 ) ;
#213 = CARTESIAN_POINT ( 'NONE',  ( 0.2500000000000001700, 0.2750000000000000200, -0.3951191151829848100 ) ) ;
#214 = MECHANICAL_DESIGN_GEOMETRIC_PRESENTATION_REPRESENTATION (  '', ( #13 ), #75 ) ;
#215 = ADVANCED_FACE ( 'NONE', ( #26, #902 ), #15, .F. ) ;
#216 = DIRECTION ( 'NONE',  ( 0.0000000000000000000, -1.000000000000000000, -1.224646799147353200E-016 ) ) ;
#217 = CIRCLE ( 'NONE', #373, 0.1575000000000000800 ) ;
#218 = CARTESIAN_POINT ( 'NONE',  ( -0.4799999999999999800, 0.2750000000000000200, 0.7299999999999999800 ) ) ;
#219 = EDGE_LOOP ( 'NONE', ( #14, #521 ) ) ;
#220 = EDGE_CURVE ( 'NONE', #439, #16, #851, .T. ) ;
#221 = ORIENTED_EDGE ( 'NONE', *, *, #638, .T. ) ;
#222 = MECHANICAL_DESIGN_GEOMETRIC_PRESENTATION_REPRESENTATION (  '', ( #894 ), #537 ) ;
#223 = VERTEX_POINT ( 'NONE', #162 ) ;
#224 = DIRECTION ( 'NONE',  ( -0.0000000000000000000, 1.000000000000000000, -0.0000000000000000000 ) ) ;
#225 = DIRECTION ( 'NONE',  ( 0.0000000000000000000, 1.000000000000000000, 0.0000000000000000000 ) ) ;
#226 = ADVANCED_FACE ( 'NONE', ( #87, #500 ), #465, .T. ) ;
#227 = PLANE ( 'NONE',  #509 ) ;
#228 = PRESENTATION_LAYER_ASSIGNMENT (  '', '', ( #123 ) ) ;
#229 = DIRECTION ( 'NONE',  ( 0.0000000000000000000, 0.0000000000000000000, -1.000000000000000000 ) ) ;
#230 = PRESENTATION_STYLE_ASSIGNMENT (( #404 ) ) ;
#231 = DIRECTION ( 'NONE',  ( 0.0000000000000000000, -0.0000000000000000000, -1.000000000000000000 ) ) ;
#232 = FACE_OUTER_BOUND ( 'NONE', #375, .T. ) ;
#233 = PRESENTATION_STYLE_ASSIGNMENT (( #932 ) ) ;
#234 = ORIENTED_EDGE ( 'NONE', *, *, #774, .T. ) ;
#235 = AXIS2_PLACEMENT_3D ( 'NONE', #824, #600, #667 ) ;
#236 = UNCERTAINTY_MEASURE_WITH_UNIT (LENGTH_MEASURE( 1.000000000000000100E-005 ), #202, 'distance_accuracy_value', 'NONE');
#237 =( GEOMETRIC_REPRESENTATION_CONTEXT ( 3 ) GLOBAL_UNCERTAINTY_ASSIGNED_CONTEXT ( ( #793 ) ) GLOBAL_UNIT_ASSIGNED_CONTEXT ( ( #563, #644, #866 ) ) REPRESENTATION_CONTEXT ( 'NONE', 'WORKASPACE' ) );
#238 =( NAMED_UNIT ( * ) SI_UNIT ( $, .STERADIAN. ) SOLID_ANGLE_UNIT ( ) );
#239 = MECHANICAL_DESIGN_GEOMETRIC_PRESENTATION_REPRESENTATION (  '', ( #123 ), #325 ) ;
#240 = PRESENTATION_STYLE_ASSIGNMENT (( #893 ) ) ;
#241 = ORIENTED_EDGE ( 'NONE', *, *, #294, .F. ) ;
#242 = DIRECTION ( 'NONE',  ( -0.0000000000000000000, -1.000000000000000000, -0.0000000000000000000 ) ) ;
#243 = ORIENTED_EDGE ( 'NONE', *, *, #456, .F. ) ;
#244 = EDGE_CURVE ( 'NONE', #585, #359, #134, .T. ) ;
#245 = VERTEX_POINT ( 'NONE', #744 ) ;
#246 = AXIS2_PLACEMENT_3D ( 'NONE', #273, #907, #899 ) ;
#247 = CARTESIAN_POINT ( 'NONE',  ( -0.2799999999999999700, 0.5250000000000000200, -0.5300000000000000300 ) ) ;
#248 =( NAMED_UNIT ( * ) PLANE_ANGLE_UNIT ( ) SI_UNIT ( $, .RADIAN. ) );
#249 =( NAMED_UNIT ( * ) PLANE_ANGLE_UNIT ( ) SI_UNIT ( $, .RADIAN. ) );
#250 =( GEOMETRIC_REPRESENTATION_CONTEXT ( 3 ) GLOBAL_UNCERTAINTY_ASSIGNED_CONTEXT ( ( #685 ) ) GLOBAL_UNIT_ASSIGNED_CONTEXT ( ( #536, #826, #400 ) ) REPRESENTATION_CONTEXT ( 'NONE', 'WORKASPACE' ) );
#251 = CARTESIAN_POINT ( 'NONE',  ( -0.4799999999999999800, 0.2750000000000000200, 0.7299999999999999800 ) ) ;
#252 = LINE ( 'NONE', #630, #155 ) ;
#253 = CIRCLE ( 'NONE', #6, 0.1048808848170152000 ) ;
#254 = ORIENTED_EDGE ( 'NONE', *, *, #774, .F. ) ;
#255 = ORIENTED_EDGE ( 'NONE', *, *, #638, .F. ) ;
#256 =( LENGTH_UNIT ( ) NAMED_UNIT ( * ) SI_UNIT ( .MILLI., .METRE. ) );
#257 = PLANE ( 'NONE',  #676 ) ;
#258 = ORIENTED_EDGE ( 'NONE', *, *, #591, .T. ) ;
#259 = EDGE_CURVE ( 'NONE', #598, #513, #253, .T. ) ;
#260 = CARTESIAN_POINT ( 'NONE',  ( 0.0000000000000000000, 0.2750000000000000200, 0.0000000000000000000 ) ) ;
#261 = DIRECTION ( 'NONE',  ( 0.0000000000000000000, 1.000000000000000000, 0.0000000000000000000 ) ) ;
#262 =( LENGTH_UNIT ( ) NAMED_UNIT ( * ) SI_UNIT ( .MILLI., .METRE. ) );
#263 = DIRECTION ( 'NONE',  ( -0.0000000000000000000, -1.000000000000000000, -0.0000000000000000000 ) ) ;
#264 = EDGE_CURVE ( 'NONE', #269, #374, #300, .T. ) ;
#265 = CIRCLE ( 'NONE', #776, 0.1048808848170151900 ) ;
#266 = AXIS2_PLACEMENT_3D ( 'NONE', #288, #721, #929 ) ;
#267 = CYLINDRICAL_SURFACE ( 'NONE', #780, 0.1000000000000001000 ) ;
#268 =( GEOMETRIC_REPRESENTATION_CONTEXT ( 3 ) GLOBAL_UNCERTAINTY_ASSIGNED_CONTEXT ( ( #341 ) ) GLOBAL_UNIT_ASSIGNED_CONTEXT ( ( #315, #248, #677 ) ) REPRESENTATION_CONTEXT ( 'NONE', 'WORKASPACE' ) );
#269 = VERTEX_POINT ( 'NONE', #461 ) ;
#270 = SURFACE_SIDE_STYLE ('',( #425 ) ) ;
#271 = PRESENTATION_LAYER_ASSIGNMENT (  '', '', ( #473 ) ) ;
#272 = DIRECTION ( 'NONE',  ( 0.0000000000000000000, 0.0000000000000000000, -1.000000000000000000 ) ) ;
#273 = CARTESIAN_POINT ( 'NONE',  ( -0.2799999999999999700, 0.6250000000000000000, -0.5300000000000000300 ) ) ;
#274 = DIRECTION ( 'NONE',  ( 1.000000000000000000, -0.0000000000000000000, 0.0000000000000000000 ) ) ;
#275 = COLOUR_RGB ( '',0.7921568627450980000, 0.8196078431372548800, 0.9333333333333333500 ) ;
#276 =( NAMED_UNIT ( * ) SI_UNIT ( $, .STERADIAN. ) SOLID_ANGLE_UNIT ( ) );
#277 = CYLINDRICAL_SURFACE ( 'NONE', #827, 0.1000000000000001000 ) ;
#278 = VERTEX_POINT ( 'NONE', #95 ) ;
#279 = DIRECTION ( 'NONE',  ( 0.0000000000000000000, 0.0000000000000000000, -1.000000000000000000 ) ) ;
#280 = CARTESIAN_POINT ( 'NONE',  ( -0.4799999999999999800, 0.2750000000000000200, -0.7299999999999999800 ) ) ;
#281 = VERTEX_POINT ( 'NONE', #174 ) ;
#282 = AXIS2_PLACEMENT_3D ( 'NONE', #153, #442, #573 ) ;
#283 = CARTESIAN_POINT ( 'NONE',  ( -0.2499999999999998300, 0.1575000000000000000, -0.5000000000000000000 ) ) ;
#284 = DIRECTION ( 'NONE',  ( -0.0000000000000000000, -1.000000000000000000, -0.0000000000000000000 ) ) ;
#285 = CARTESIAN_POINT ( 'NONE',  ( -0.2499999999999998300, 0.1575000000000000000, 0.0000000000000000000 ) ) ;
#286 = CIRCLE ( 'NONE', #632, 0.1575000000000000800 ) ;
#287 = ADVANCED_FACE ( 'NONE', ( #691 ), #318, .T. ) ;
#288 = CARTESIAN_POINT ( 'NONE',  ( 0.2500000000000001700, 0.1575000000000000000, 0.0000000000000000000 ) ) ;
#289 = ORIENTED_EDGE ( 'NONE', *, *, #572, .F. ) ;
#290 = EDGE_LOOP ( 'NONE', ( #771, #520 ) ) ;
#291 = ORIENTED_EDGE ( 'NONE', *, *, #392, .F. ) ;
#292 = CARTESIAN_POINT ( 'NONE',  ( -0.2499999999999998300, 0.2750000000000000200, 0.5000000000000000000 ) ) ;
#293 = UNCERTAINTY_MEASURE_WITH_UNIT (LENGTH_MEASURE( 1.000000000000000100E-005 ), #822, 'distance_accuracy_value', 'NONE');
#294 = EDGE_CURVE ( 'NONE', #333, #854, #156, .T. ) ;
#295 = CARTESIAN_POINT ( 'NONE',  ( -0.2499999999999998300, 0.1575000000000000000, 0.5000000000000000000 ) ) ;
#296 = AXIS2_PLACEMENT_3D ( 'NONE', #9, #740, #24 ) ;
#297 = AXIS2_PLACEMENT_3D ( 'NONE', #130, #919, #57 ) ;
#298 = DIRECTION ( 'NONE',  ( 0.0000000000000000000, -1.000000000000000000, -1.224646799147353200E-016 ) ) ;
#299 = ADVANCED_FACE ( 'NONE', ( #703, #807 ), #733, .T. ) ;
#300 = CIRCLE ( 'NONE', #528, 0.1000000000000001000 ) ;
#301 = COLOUR_RGB ( '',0.2509803921568627400, 0.2509803921568627400, 0.2509803921568627400 ) ;
#302 = ORIENTED_EDGE ( 'NONE', *, *, #150, .T. ) ;
#303 = AXIS2_PLACEMENT_3D ( 'NONE', #654, #794, #1 ) ;
#304 = EDGE_LOOP ( 'NONE', ( #310, #312 ) ) ;
#305 = DIRECTION ( 'NONE',  ( -0.0000000000000000000, -1.000000000000000000, -0.0000000000000000000 ) ) ;
#306 = FILL_AREA_STYLE_COLOUR ( '', #672 ) ;
#307 = SURFACE_STYLE_FILL_AREA ( #751 ) ;
#308 = VERTEX_POINT ( 'NONE', #845 ) ;
#309 = MECHANICAL_DESIGN_GEOMETRIC_PRESENTATION_REPRESENTATION (  '', ( #483 ), #727 ) ;
#310 = ORIENTED_EDGE ( 'NONE', *, *, #141, .T. ) ;
#311 = PLANE ( 'NONE',  #458 ) ;
#312 = ORIENTED_EDGE ( 'NONE', *, *, #259, .T. ) ;
#313 = MECHANICAL_DESIGN_GEOMETRIC_PRESENTATION_REPRESENTATION (  '', ( #193 ), #45 ) ;
#314 = DIRECTION ( 'NONE',  ( 0.0000000000000000000, 1.000000000000000000, 0.0000000000000000000 ) ) ;
#315 =( LENGTH_UNIT ( ) NAMED_UNIT ( * ) SI_UNIT ( .MILLI., .METRE. ) );
#316 = MECHANICAL_DESIGN_GEOMETRIC_PRESENTATION_REPRESENTATION (  '', ( #473 ), #250 ) ;
#317 = FACE_OUTER_BOUND ( 'NONE', #43, .T. ) ;
#318 = PLANE ( 'NONE',  #885 ) ;
#319 = SURFACE_SIDE_STYLE ('',( #766 ) ) ;
#320 = SPHERICAL_SURFACE ( 'NONE', #592, 0.1575000000000000300 ) ;
#321 = FACE_OUTER_BOUND ( 'NONE', #505, .T. ) ;
#322 = DIRECTION ( 'NONE',  ( 0.0000000000000000000, 1.000000000000000000, 0.0000000000000000000 ) ) ;
#323 = ORIENTED_EDGE ( 'NONE', *, *, #838, .F. ) ;
#324 = EDGE_LOOP ( 'NONE', ( #291, #5 ) ) ;
#325 =( GEOMETRIC_REPRESENTATION_CONTEXT ( 3 ) GLOBAL_UNCERTAINTY_ASSIGNED_CONTEXT ( ( #554 ) ) GLOBAL_UNIT_ASSIGNED_CONTEXT ( ( #928, #855, #276 ) ) REPRESENTATION_CONTEXT ( 'NONE', 'WORKASPACE' ) );
#326 = DIRECTION ( 'NONE',  ( 0.0000000000000000000, -0.0000000000000000000, -1.000000000000000000 ) ) ;
#327 = DIRECTION ( 'NONE',  ( 0.0000000000000000000, -0.0000000000000000000, -1.000000000000000000 ) ) ;
#328 = AXIS2_PLACEMENT_3D ( 'NONE', #453, #3, #586 ) ;
#329 = DIRECTION ( 'NONE',  ( 0.0000000000000000000, -1.000000000000000000, 0.0000000000000000000 ) ) ;
#330 = DIRECTION ( 'NONE',  ( 0.0000000000000000000, 1.000000000000000000, -0.0000000000000000000 ) ) ;
#331 = FACE_OUTER_BOUND ( 'NONE', #427, .T. ) ;
#332 = VERTEX_POINT ( 'NONE', #189 ) ;
#333 = VERTEX_POINT ( 'NONE', #482 ) ;
#334 = EDGE_CURVE ( 'NONE', #754, #333, #80, .T. ) ;
#335 = DIRECTION ( 'NONE',  ( 0.0000000000000000000, 1.000000000000000000, 0.0000000000000000000 ) ) ;
#336 = CARTESIAN_POINT ( 'NONE',  ( 0.2500000000000001700, 0.1575000000000000000, -0.5000000000000000000 ) ) ;
#337 = PLANE ( 'NONE',  #144 ) ;
#338 = AXIS2_PLACEMENT_3D ( 'NONE', #773, #261, #755 ) ;
#339 = DIRECTION ( 'NONE',  ( 0.0000000000000000000, 0.0000000000000000000, 1.000000000000000000 ) ) ;
#340 = CIRCLE ( 'NONE', #662, 0.1048808848170152400 ) ;
#341 = UNCERTAINTY_MEASURE_WITH_UNIT (LENGTH_MEASURE( 1.000000000000000100E-005 ), #315, 'distance_accuracy_value', 'NONE');
#342 = CARTESIAN_POINT ( 'NONE',  ( 0.2500000000000001700, 0.2750000000000000200, -0.5000000000000000000 ) ) ;
#343 = EDGE_LOOP ( 'NONE', ( #709, #817 ) ) ;
#344 = DIRECTION ( 'NONE',  ( 0.0000000000000000000, 0.0000000000000000000, 1.000000000000000000 ) ) ;
#345 = ORIENTED_EDGE ( 'NONE', *, *, #294, .T. ) ;
#346 = EDGE_CURVE ( 'NONE', #394, #44, #671, .T. ) ;
#347 = MECHANICAL_DESIGN_GEOMETRIC_PRESENTATION_REPRESENTATION (  '', ( #161 ), #268 ) ;
#348 =( LENGTH_UNIT ( ) NAMED_UNIT ( * ) SI_UNIT ( .MILLI., .METRE. ) );
#349 = CARTESIAN_POINT ( 'NONE',  ( -0.09249999999999980500, 0.1575000000000000000, 0.5000000000000000000 ) ) ;
#350 = FILL_AREA_STYLE_COLOUR ( '', #275 ) ;
#351 = LINE ( 'NONE', #476, #497 ) ;
#352 = ADVANCED_FACE ( 'NONE', ( #606 ), #320, .T. ) ;
#353 = CIRCLE ( 'NONE', #861, 0.1048808848170152000 ) ;
#354 = FACE_BOUND ( 'NONE', #82, .T. ) ;
#355 = SURFACE_STYLE_USAGE ( .BOTH. , #857 ) ;
#356 = PRODUCT_DEFINITION_SHAPE ( 'NONE', 'NONE',  #397 ) ;
#357 = CARTESIAN_POINT ( 'NONE',  ( -0.2499999999999998300, 0.1575000000000000000, -0.5000000000000000000 ) ) ;
#358 = ORIENTED_EDGE ( 'NONE', *, *, #736, .F. ) ;
#359 = VERTEX_POINT ( 'NONE', #107 ) ;
#360 = CARTESIAN_POINT ( 'NONE',  ( 0.4799999999999999800, 0.6250000000000000000, -0.7299999999999999800 ) ) ;
#361 = DIRECTION ( 'NONE',  ( 0.0000000000000000000, 0.0000000000000000000, -1.000000000000000000 ) ) ;
#362 = EDGE_CURVE ( 'NONE', #695, #374, #782, .T. ) ;
#363 = CARTESIAN_POINT ( 'NONE',  ( 0.2500000000000001700, 0.2750000000000000200, 0.3951191151829848100 ) ) ;
#364 = CARTESIAN_POINT ( 'NONE',  ( -0.2499999999999998300, 0.2750000000000000200, -0.1048808848170152000 ) ) ;
#365 = UNCERTAINTY_MEASURE_WITH_UNIT (LENGTH_MEASURE( 1.000000000000000100E-005 ), #348, 'distance_accuracy_value', 'NONE');
#366 = PRODUCT_DEFINITION_FORMATION_WITH_SPECIFIED_SOURCE ( 'ANY', '', #370, .NOT_KNOWN. ) ;
#367 = CARTESIAN_POINT ( 'NONE',  ( -0.2799999999999999700, 0.5250000000000000200, -0.6300000000000001200 ) ) ;
#368 = ADVANCED_FACE ( 'NONE', ( #457 ), #206, .T. ) ;
#369 = SPHERICAL_SURFACE ( 'NONE', #887, 0.1575000000000000300 ) ;
#370 = PRODUCT ( 'FPF1320UCX', 'FPF1320UCX', '', ( #64 ) ) ;
#371 = CARTESIAN_POINT ( 'NONE',  ( -0.2799999999999999700, 0.6250000000000000000, -0.5300000000000000300 ) ) ;
#372 = DIRECTION ( 'NONE',  ( -0.0000000000000000000, -1.000000000000000000, -0.0000000000000000000 ) ) ;
#373 = AXIS2_PLACEMENT_3D ( 'NONE', #357, #216, #445 ) ;
#374 = VERTEX_POINT ( 'NONE', #909 ) ;
#375 = EDGE_LOOP ( 'NONE', ( #83, #101 ) ) ;
#376 = ADVANCED_FACE ( 'NONE', ( #752 ), #477, .T. ) ;
#377 = DIRECTION ( 'NONE',  ( -0.0000000000000000000, 1.000000000000000000, -0.0000000000000000000 ) ) ;
#378 = ORIENTED_EDGE ( 'NONE', *, *, #73, .T. ) ;
#379 = DIRECTION ( 'NONE',  ( 0.0000000000000000000, 0.0000000000000000000, 1.000000000000000000 ) ) ;
#380 = UNCERTAINTY_MEASURE_WITH_UNIT (LENGTH_MEASURE( 1.000000000000000100E-005 ), #256, 'distance_accuracy_value', 'NONE');
#381 = CIRCLE ( 'NONE', #328, 0.1575000000000000300 ) ;
#382 = FACE_OUTER_BOUND ( 'NONE', #41, .T. ) ;
#383 = ORIENTED_EDGE ( 'NONE', *, *, #259, .F. ) ;
#384 = DIRECTION ( 'NONE',  ( 0.0000000000000000000, 1.000000000000000000, 0.0000000000000000000 ) ) ;
#385 = MECHANICAL_DESIGN_GEOMETRIC_PRESENTATION_REPRESENTATION (  '', ( #635 ), #116 ) ;
#386 = ORIENTED_EDGE ( 'NONE', *, *, #11, .T. ) ;
#387 =( NAMED_UNIT ( * ) PLANE_ANGLE_UNIT ( ) SI_UNIT ( $, .RADIAN. ) );
#388 = PRESENTATION_STYLE_ASSIGNMENT (( #829 ) ) ;
#389 = COLOUR_RGB ( '',1.000000000000000000, 1.000000000000000000, 1.000000000000000000 ) ;
#390 = DIRECTION ( 'NONE',  ( 0.0000000000000000000, -1.000000000000000000, -1.224646799147353200E-016 ) ) ;
#391 = PRESENTATION_STYLE_ASSIGNMENT (( #871 ) ) ;
#392 = EDGE_CURVE ( 'NONE', #504, #278, #913, .T. ) ;
#393 = ORIENTED_EDGE ( 'NONE', *, *, #564, .T. ) ;
#394 = VERTEX_POINT ( 'NONE', #419 ) ;
#395 = DIRECTION ( 'NONE',  ( 0.0000000000000000000, 1.000000000000000000, 0.0000000000000000000 ) ) ;
#396 = EDGE_LOOP ( 'NONE', ( #837, #905 ) ) ;
#397 = PRODUCT_DEFINITION ( 'UNKNOWN', '', #366, #757 ) ;
#398 = DIRECTION ( 'NONE',  ( 0.0000000000000000000, -0.0000000000000000000, -1.000000000000000000 ) ) ;
#399 = DIRECTION ( 'NONE',  ( 0.0000000000000000000, 1.000000000000000000, 0.0000000000000000000 ) ) ;
#400 =( NAMED_UNIT ( * ) SI_UNIT ( $, .STERADIAN. ) SOLID_ANGLE_UNIT ( ) );
#401 = AXIS2_PLACEMENT_3D ( 'NONE', #760, #47, #272 ) ;
#402 = CARTESIAN_POINT ( 'NONE',  ( -0.2799999999999999700, 0.6250000000000000000, -0.5300000000000000300 ) ) ;
#403 = COLOUR_RGB ( '',0.7921568627450980000, 0.8196078431372548800, 0.9333333333333333500 ) ;
#404 = SURFACE_STYLE_USAGE ( .BOTH. , #22 ) ;
#405 = SPHERICAL_SURFACE ( 'NONE', #127, 0.1575000000000000300 ) ;
#406 = DIRECTION ( 'NONE',  ( 0.0000000000000000000, 0.0000000000000000000, 1.000000000000000000 ) ) ;
#407 = VERTEX_POINT ( 'NONE', #46 ) ;
#408 = EDGE_CURVE ( 'NONE', #695, #196, #568, .T. ) ;
#409 = VERTEX_POINT ( 'NONE', #411 ) ;
#410 =( NAMED_UNIT ( * ) SI_UNIT ( $, .STERADIAN. ) SOLID_ANGLE_UNIT ( ) );
#411 = CARTESIAN_POINT ( 'NONE',  ( -0.2499999999999998300, 0.2750000000000000200, -0.6048808848170153000 ) ) ;
#412 = CARTESIAN_POINT ( 'NONE',  ( 0.4799999999999999800, 0.6250000000000000000, 0.7299999999999999800 ) ) ;
#413 = EDGE_CURVE ( 'NONE', #854, #84, #132, .T. ) ;
#414 = MECHANICAL_DESIGN_GEOMETRIC_PRESENTATION_REPRESENTATION (  '', ( #558 ), #704 ) ;
#415 = CARTESIAN_POINT ( 'NONE',  ( 0.2500000000000001700, 0.2750000000000000200, 0.5000000000000000000 ) ) ;
#416 = DIRECTION ( 'NONE',  ( -0.0000000000000000000, -1.000000000000000000, -0.0000000000000000000 ) ) ;
#417 = CIRCLE ( 'NONE', #575, 0.1575000000000000300 ) ;
#418 = ORIENTED_EDGE ( 'NONE', *, *, #718, .T. ) ;
#419 = CARTESIAN_POINT ( 'NONE',  ( 0.2500000000000001700, 0.2750000000000000200, -0.6048808848170153000 ) ) ;
#420 = ORIENTED_EDGE ( 'NONE', *, *, #818, .F. ) ;
#421 = EDGE_LOOP ( 'NONE', ( #358, #896 ) ) ;
#422 = FILL_AREA_STYLE_COLOUR ( '', #487 ) ;
#423 = FACE_OUTER_BOUND ( 'NONE', #825, .T. ) ;
#424 = CARTESIAN_POINT ( 'NONE',  ( 0.0000000000000000000, 0.2750000000000000200, 0.0000000000000000000 ) ) ;
#425 = SURFACE_STYLE_FILL_AREA ( #763 ) ;
#426 = VERTEX_POINT ( 'NONE', #118 ) ;
#427 = EDGE_LOOP ( 'NONE', ( #157, #59, #479, #90 ) ) ;
#428 = APPLICATION_PROTOCOL_DEFINITION ( 'draft international standard', 'automotive_design', 1998, #700 ) ;
#429 = VERTEX_POINT ( 'NONE', #850 ) ;
#430 = ADVANCED_FACE ( 'NONE', ( #146 ), #624, .T. ) ;
#431 = DIRECTION ( 'NONE',  ( 0.0000000000000000000, 0.0000000000000000000, -1.000000000000000000 ) ) ;
#432 = AXIS2_PLACEMENT_3D ( 'NONE', #805, #653, #133 ) ;
#433 = STYLED_ITEM ( 'NONE', ( #391 ), #633 ) ;
#434 = APPLICATION_CONTEXT ( 'automotive_design' ) ;
#435 = CARTESIAN_POINT ( 'NONE',  ( -0.2499999999999998300, 0.1575000000000000000, 0.0000000000000000000 ) ) ;
#436 = CIRCLE ( 'NONE', #92, 0.1000000000000001000 ) ;
#437 = ADVANCED_FACE ( 'NONE', ( #232 ), #168, .T. ) ;
#438 = PLANE ( 'NONE',  #615 ) ;
#439 = VERTEX_POINT ( 'NONE', #485 ) ;
#440 = ORIENTED_EDGE ( 'NONE', *, *, #523, .T. ) ;
#441 = VERTEX_POINT ( 'NONE', #280 ) ;
#442 = DIRECTION ( 'NONE',  ( -0.0000000000000000000, 1.000000000000000000, -0.0000000000000000000 ) ) ;
#443 = FILL_AREA_STYLE_COLOUR ( '', #301 ) ;
#444 = AXIS2_PLACEMENT_3D ( 'NONE', #34, #106, #187 ) ;
#445 = DIRECTION ( 'NONE',  ( 0.0000000000000000000, 1.720955829342069700E-016, -1.000000000000000000 ) ) ;
#446 = CARTESIAN_POINT ( 'NONE',  ( -0.2799999999999999700, 0.5250000000000000200, -0.5300000000000000300 ) ) ;
#447 = CARTESIAN_POINT ( 'NONE',  ( 0.0000000000000000000, 0.2750000000000000200, 0.0000000000000000000 ) ) ;
#448 =( GEOMETRIC_REPRESENTATION_CONTEXT ( 3 ) GLOBAL_UNCERTAINTY_ASSIGNED_CONTEXT ( ( #877 ) ) GLOBAL_UNIT_ASSIGNED_CONTEXT ( ( #830, #612, #620 ) ) REPRESENTATION_CONTEXT ( 'NONE', 'WORKASPACE' ) );
#449 = LINE ( 'NONE', #367, #177 ) ;
#450 = VECTOR ( 'NONE', #471, 1000.000000000000000 ) ;
#451 = AXIS2_PLACEMENT_3D ( 'NONE', #247, #749, #889 ) ;
#452 = ORIENTED_EDGE ( 'NONE', *, *, #870, .F. ) ;
#453 = CARTESIAN_POINT ( 'NONE',  ( 0.2500000000000001700, 0.1575000000000000000, 0.0000000000000000000 ) ) ;
#454 = EDGE_CURVE ( 'NONE', #754, #426, #252, .T. ) ;
#455 = CARTESIAN_POINT ( 'NONE',  ( 0.2500000000000001700, 0.2750000000000000200, 0.0000000000000000000 ) ) ;
#456 = EDGE_CURVE ( 'NONE', #17, #429, #417, .T. ) ;
#457 = FACE_OUTER_BOUND ( 'NONE', #813, .T. ) ;
#458 = AXIS2_PLACEMENT_3D ( 'NONE', #809, #880, #732 ) ;
#459 = VERTEX_POINT ( 'NONE', #65 ) ;
#460 = ORIENTED_EDGE ( 'NONE', *, *, #408, .T. ) ;
#461 = CARTESIAN_POINT ( 'NONE',  ( -0.2799999999999999700, 0.6250000000000000000, -0.6300000000000001200 ) ) ;
#462 = PLANE ( 'NONE',  #451 ) ;
#463 = DIRECTION ( 'NONE',  ( -0.0000000000000000000, 1.000000000000000000, -0.0000000000000000000 ) ) ;
#464 = VECTOR ( 'NONE', #431, 1000.000000000000000 ) ;
#465 = SPHERICAL_SURFACE ( 'NONE', #796, 0.1575000000000000300 ) ;
#466 = ORIENTED_EDGE ( 'NONE', *, *, #873, .T. ) ;
#467 = SURFACE_STYLE_USAGE ( .BOTH. , #674 ) ;
#468 = CARTESIAN_POINT ( 'NONE',  ( -0.2499999999999998300, 0.2750000000000000200, 0.0000000000000000000 ) ) ;
#469 = EDGE_LOOP ( 'NONE', ( #786, #925 ) ) ;
#470 = MANIFOLD_SOLID_BREP ( 'Pin A1', #512 ) ;
#471 = DIRECTION ( 'NONE',  ( 1.000000000000000000, 0.0000000000000000000, 0.0000000000000000000 ) ) ;
#472 = AXIS2_PLACEMENT_3D ( 'NONE', #468, #828, #594 ) ;
#473 = STYLED_ITEM ( 'NONE', ( #806 ), #713 ) ;
#474 = DIRECTION ( 'NONE',  ( 0.0000000000000000000, 0.0000000000000000000, -1.000000000000000000 ) ) ;
#475 = SPHERICAL_SURFACE ( 'NONE', #401, 0.1575000000000000300 ) ;
#476 = CARTESIAN_POINT ( 'NONE',  ( -0.4799999999999999800, 0.2750000000000000200, -0.7299999999999999800 ) ) ;
#477 = PLANE ( 'NONE',  #246 ) ;
#478 = VERTEX_POINT ( 'NONE', #204 ) ;
#479 = ORIENTED_EDGE ( 'NONE', *, *, #618, .T. ) ;
#480 = EDGE_LOOP ( 'NONE', ( #915, #100 ) ) ;
#481 = CARTESIAN_POINT ( 'NONE',  ( -0.4799999999999999800, 0.6250000000000000000, 0.7299999999999999800 ) ) ;
#482 = CARTESIAN_POINT ( 'NONE',  ( 0.4799999999999999800, 0.2750000000000000200, 0.7299999999999999800 ) ) ;
#483 = STYLED_ITEM ( 'NONE', ( #891 ), #140 ) ;
#484 = DIRECTION ( 'NONE',  ( 0.0000000000000000000, 1.720955829342070200E-016, -1.000000000000000000 ) ) ;
#485 = CARTESIAN_POINT ( 'NONE',  ( -0.2499999999999998300, 0.2750000000000000200, 0.1048808848170152000 ) ) ;
#486 = FACE_OUTER_BOUND ( 'NONE', #396, .T. ) ;
#487 = COLOUR_RGB ( '',0.7921568627450980000, 0.8196078431372548800, 0.9333333333333333500 ) ;
#488 = COLOUR_RGB ( '',1.000000000000000000, 1.000000000000000000, 1.000000000000000000 ) ;
#489 = LINE ( 'NONE', #790, #99 ) ;
#490 = DIRECTION ( 'NONE',  ( 0.0000000000000000000, 1.000000000000000000, -0.0000000000000000000 ) ) ;
#491 = ORIENTED_EDGE ( 'NONE', *, *, #413, .F. ) ;
#492 = MECHANICAL_DESIGN_GEOMETRIC_PRESENTATION_REPRESENTATION (  '', ( #646 ), #448 ) ;
#493 = EDGE_LOOP ( 'NONE', ( #491, #241, #418, #746 ) ) ;
#494 = AXIS2_PLACEMENT_3D ( 'NONE', #772, #688, #484 ) ;
#495 = FILL_AREA_STYLE ('',( #639 ) ) ;
#496 = DIRECTION ( 'NONE',  ( 0.0000000000000000000, 1.000000000000000000, 0.0000000000000000000 ) ) ;
#497 = VECTOR ( 'NONE', #335, 1000.000000000000000 ) ;
#498 =( NAMED_UNIT ( * ) PLANE_ANGLE_UNIT ( ) SI_UNIT ( $, .RADIAN. ) );
#499 = ADVANCED_FACE ( 'NONE', ( #849 ), #200, .F. ) ;
#500 = FACE_BOUND ( 'NONE', #219, .T. ) ;
#501 = CARTESIAN_POINT ( 'NONE',  ( 0.4799999999999999800, 0.2750000000000000200, -0.7299999999999999800 ) ) ;
#502 = ORIENTED_EDGE ( 'NONE', *, *, #205, .T. ) ;
#503 =( NAMED_UNIT ( * ) SI_UNIT ( $, .STERADIAN. ) SOLID_ANGLE_UNIT ( ) );
#504 = VERTEX_POINT ( 'NONE', #562 ) ;
#505 = EDGE_LOOP ( 'NONE', ( #289, #696 ) ) ;
#506 = CARTESIAN_POINT ( 'NONE',  ( 0.2500000000000001700, 0.2750000000000000200, -0.5000000000000000000 ) ) ;
#507 = MANIFOLD_SOLID_BREP ( 'Pin 1 Mark - Top', #69 ) ;
#508 =( LENGTH_UNIT ( ) NAMED_UNIT ( * ) SI_UNIT ( .MILLI., .METRE. ) );
#509 = AXIS2_PLACEMENT_3D ( 'NONE', #651, #657, #726 ) ;
#510 = VECTOR ( 'NONE', #769, 1000.000000000000000 ) ;
#511 = DIRECTION ( 'NONE',  ( -0.0000000000000000000, -0.0000000000000000000, 1.000000000000000000 ) ) ;
#512 = CLOSED_SHELL ( 'NONE', ( #802, #650, #941 ) ) ;
#513 = VERTEX_POINT ( 'NONE', #126 ) ;
#514 = ORIENTED_EDGE ( 'NONE', *, *, #873, .F. ) ;
#515 = EDGE_CURVE ( 'NONE', #426, #854, #25, .T. ) ;
#516 = SPHERICAL_SURFACE ( 'NONE', #444, 0.1575000000000000300 ) ;
#517 = AXIS2_PLACEMENT_3D ( 'NONE', #446, #225, #716 ) ;
#518 = CARTESIAN_POINT ( 'NONE',  ( -0.2499999999999998300, 0.2750000000000000200, 0.5000000000000000000 ) ) ;
#519 = PRESENTATION_LAYER_ASSIGNMENT (  '', '', ( #635 ) ) ;
#520 = ORIENTED_EDGE ( 'NONE', *, *, #588, .T. ) ;
#521 = ORIENTED_EDGE ( 'NONE', *, *, #588, .F. ) ;
#522 = DIRECTION ( 'NONE',  ( 0.0000000000000000000, 0.0000000000000000000, -1.000000000000000000 ) ) ;
#523 = EDGE_CURVE ( 'NONE', #332, #478, #595, .T. ) ;
#524 = CARTESIAN_POINT ( 'NONE',  ( -0.4799999999999999800, 0.2750000000000000200, -0.7299999999999999800 ) ) ;
#525 = LINE ( 'NONE', #104, #860 ) ;
#526 = DIRECTION ( 'NONE',  ( 0.0000000000000000000, 0.0000000000000000000, 1.000000000000000000 ) ) ;
#527 = FACE_OUTER_BOUND ( 'NONE', #706, .T. ) ;
#528 = AXIS2_PLACEMENT_3D ( 'NONE', #402, #314, #176 ) ;
#529 = FILL_AREA_STYLE ('',( #742 ) ) ;
#530 = VECTOR ( 'NONE', #792, 1000.000000000000000 ) ;
#531 = DIRECTION ( 'NONE',  ( 0.0000000000000000000, 0.0000000000000000000, 1.000000000000000000 ) ) ;
#532 = EDGE_LOOP ( 'NONE', ( #882, #302 ) ) ;
#533 = CARTESIAN_POINT ( 'NONE',  ( -0.2799999999999999700, 0.5250000000000000200, -0.5300000000000000300 ) ) ;
#534 = UNCERTAINTY_MEASURE_WITH_UNIT (LENGTH_MEASURE( 1.000000000000000100E-005 ), #136, 'distance_accuracy_value', 'NONE');
#535 = AXIS2_PLACEMENT_3D ( 'NONE', #636, #52, #48 ) ;
#536 =( LENGTH_UNIT ( ) NAMED_UNIT ( * ) SI_UNIT ( .MILLI., .METRE. ) );
#537 =( GEOMETRIC_REPRESENTATION_CONTEXT ( 3 ) GLOBAL_UNCERTAINTY_ASSIGNED_CONTEXT ( ( #293 ) ) GLOBAL_UNIT_ASSIGNED_CONTEXT ( ( #822, #164, #539 ) ) REPRESENTATION_CONTEXT ( 'NONE', 'WORKASPACE' ) );
#538 = CARTESIAN_POINT ( 'NONE',  ( -0.2799999999999999700, 0.5250000000000000200, -0.6300000000000001200 ) ) ;
#539 =( NAMED_UNIT ( * ) SI_UNIT ( $, .STERADIAN. ) SOLID_ANGLE_UNIT ( ) );
#540 = PRESENTATION_STYLE_ASSIGNMENT (( #58 ) ) ;
#541 = EDGE_LOOP ( 'NONE', ( #664, #745 ) ) ;
#542 = EDGE_LOOP ( 'NONE', ( #549, #631, #33, #345 ) ) ;
#543 = CARTESIAN_POINT ( 'NONE',  ( -0.2799999999999999700, 0.5250000000000000200, -0.4299999999999998800 ) ) ;
#544 = AXIS2_PLACEMENT_3D ( 'NONE', #342, #617, #836 ) ;
#545 =( GEOMETRIC_REPRESENTATION_CONTEXT ( 3 ) GLOBAL_UNCERTAINTY_ASSIGNED_CONTEXT ( ( #236 ) ) GLOBAL_UNIT_ASSIGNED_CONTEXT ( ( #202, #853, #785 ) ) REPRESENTATION_CONTEXT ( 'NONE', 'WORKASPACE' ) );
#546 = SURFACE_STYLE_USAGE ( .BOTH. , #270 ) ;
#547 = CARTESIAN_POINT ( 'NONE',  ( -0.2499999999999998300, 0.1575000000000000000, 0.5000000000000000000 ) ) ;
#548 = ORIENTED_EDGE ( 'NONE', *, *, #154, .F. ) ;
#549 = ORIENTED_EDGE ( 'NONE', *, *, #515, .F. ) ;
#550 = SURFACE_STYLE_USAGE ( .BOTH. , #859 ) ;
#551 =( LENGTH_UNIT ( ) NAMED_UNIT ( * ) SI_UNIT ( .MILLI., .METRE. ) );
#552 = FACE_OUTER_BOUND ( 'NONE', #926, .T. ) ;
#553 = SURFACE_STYLE_FILL_AREA ( #495 ) ;
#554 = UNCERTAINTY_MEASURE_WITH_UNIT (LENGTH_MEASURE( 1.000000000000000100E-005 ), #928, 'distance_accuracy_value', 'NONE');
#555 = SURFACE_STYLE_FILL_AREA ( #803 ) ;
#556 =( NAMED_UNIT ( * ) SI_UNIT ( $, .STERADIAN. ) SOLID_ANGLE_UNIT ( ) );
#557 = ORIENTED_EDGE ( 'NONE', *, *, #244, .F. ) ;
#558 = STYLED_ITEM ( 'NONE', ( #233 ), #76 ) ;
#559 = EDGE_LOOP ( 'NONE', ( #502, #720 ) ) ;
#560 = DIRECTION ( 'NONE',  ( 0.0000000000000000000, 0.0000000000000000000, -1.000000000000000000 ) ) ;
#561 = PLANE ( 'NONE',  #297 ) ;
#562 = CARTESIAN_POINT ( 'NONE',  ( 0.4075000000000002000, 0.1575000000000000000, -0.5000000000000000000 ) ) ;
#563 =( LENGTH_UNIT ( ) NAMED_UNIT ( * ) SI_UNIT ( .MILLI., .METRE. ) );
#564 = EDGE_CURVE ( 'NONE', #223, #797, #217, .T. ) ;
#565 = FACE_BOUND ( 'NONE', #835, .T. ) ;
#566 = FACE_OUTER_BOUND ( 'NONE', #770, .T. ) ;
#567 = CARTESIAN_POINT ( 'NONE',  ( -0.4799999999999999800, 0.6250000000000000000, -0.7299999999999999800 ) ) ;
#568 = CIRCLE ( 'NONE', #338, 0.1000000000000001000 ) ;
#569 = CARTESIAN_POINT ( 'NONE',  ( -0.2799999999999999700, 0.5250000000000000200, -0.5300000000000000300 ) ) ;
#570 = ORIENTED_EDGE ( 'NONE', *, *, #115, .T. ) ;
#571 = ORIENTED_EDGE ( 'NONE', *, *, #413, .T. ) ;
#572 = EDGE_CURVE ( 'NONE', #17, #429, #54, .T. ) ;
#573 = DIRECTION ( 'NONE',  ( 0.0000000000000000000, 0.0000000000000000000, -1.000000000000000000 ) ) ;
#574 = ORIENTED_EDGE ( 'NONE', *, *, #765, .F. ) ;
#575 = AXIS2_PLACEMENT_3D ( 'NONE', #285, #490, #198 ) ;
#576 = STYLED_ITEM ( 'NONE', ( #119 ), #927 ) ;
#577 = ADVANCED_FACE ( 'NONE', ( #423 ), #438, .T. ) ;
#578 = DIRECTION ( 'NONE',  ( 0.0000000000000000000, 0.0000000000000000000, -1.000000000000000000 ) ) ;
#579 = DIRECTION ( 'NONE',  ( 0.0000000000000000000, 0.0000000000000000000, 1.000000000000000000 ) ) ;
#580 = AXIS2_PLACEMENT_3D ( 'NONE', #788, #777, #62 ) ;
#581 = FILL_AREA_STYLE ('',( #306 ) ) ;
#582 = CIRCLE ( 'NONE', #602, 0.1000000000000001000 ) ;
#583 = VECTOR ( 'NONE', #105, 1000.000000000000000 ) ;
#584 = CIRCLE ( 'NONE', #758, 0.1048808848170151900 ) ;
#585 = VERTEX_POINT ( 'NONE', #349 ) ;
#586 = DIRECTION ( 'NONE',  ( 0.0000000000000000000, 1.720955829342070200E-016, -1.000000000000000000 ) ) ;
#587 = ORIENTED_EDGE ( 'NONE', *, *, #220, .F. ) ;
#588 = EDGE_CURVE ( 'NONE', #44, #394, #340, .T. ) ;
#589 = CARTESIAN_POINT ( 'NONE',  ( -0.2499999999999998300, 0.1575000000000000000, 0.0000000000000000000 ) ) ;
#590 = ADVANCED_BREP_SHAPE_REPRESENTATION ( 'FPF1320UCX', ( #470, #697, #140, #843, #927, #633, #76, #507, #93 ), #545 ) ;
#591 = EDGE_CURVE ( 'NONE', #478, #332, #874, .T. ) ;
#592 = AXIS2_PLACEMENT_3D ( 'NONE', #336, #416, #183 ) ;
#593 = COLOUR_RGB ( '',0.7921568627450980000, 0.8196078431372548800, 0.9333333333333333500 ) ;
#594 = DIRECTION ( 'NONE',  ( 0.0000000000000000000, 0.0000000000000000000, -1.000000000000000000 ) ) ;
#595 = CIRCLE ( 'NONE', #864, 0.1000000000000001000 ) ;
#596 = AXIS2_PLACEMENT_3D ( 'NONE', #865, #787, #279 ) ;
#597 = VERTEX_POINT ( 'NONE', #363 ) ;
#598 = VERTEX_POINT ( 'NONE', #800 ) ;
#599 = CARTESIAN_POINT ( 'NONE',  ( 0.09250000000000013800, 0.1575000000000000000, -9.644093543285408300E-018 ) ) ;
#600 = DIRECTION ( 'NONE',  ( 0.0000000000000000000, 1.000000000000000000, -0.0000000000000000000 ) ) ;
#601 = DIRECTION ( 'NONE',  ( 0.0000000000000000000, 0.0000000000000000000, 1.000000000000000000 ) ) ;
#602 = AXIS2_PLACEMENT_3D ( 'NONE', #371, #879, #579 ) ;
#603 = CARTESIAN_POINT ( 'NONE',  ( 0.2500000000000001700, 0.2750000000000000200, 0.0000000000000000000 ) ) ;
#604 = EDGE_CURVE ( 'NONE', #332, #148, #449, .T. ) ;
#605 = FILL_AREA_STYLE_COLOUR ( '', #593 ) ;
#606 = FACE_OUTER_BOUND ( 'NONE', #324, .T. ) ;
#607 = FACE_OUTER_BOUND ( 'NONE', #610, .T. ) ;
#608 = DIRECTION ( 'NONE',  ( 0.0000000000000000000, -1.000000000000000000, 0.0000000000000000000 ) ) ;
#609 = ORIENTED_EDGE ( 'NONE', *, *, #244, .T. ) ;
#610 = EDGE_LOOP ( 'NONE', ( #258, #440 ) ) ;
#611 = CARTESIAN_POINT ( 'NONE',  ( -0.2799999999999999700, 0.5250000000000000200, -0.5300000000000000300 ) ) ;
#612 =( NAMED_UNIT ( * ) PLANE_ANGLE_UNIT ( ) SI_UNIT ( $, .RADIAN. ) );
#613 = AXIS2_PLACEMENT_3D ( 'NONE', #283, #372, #142 ) ;
#614 = DIRECTION ( 'NONE',  ( 0.0000000000000000000, 0.0000000000000000000, -1.000000000000000000 ) ) ;
#615 = AXIS2_PLACEMENT_3D ( 'NONE', #447, #81, #231 ) ;
#616 = CARTESIAN_POINT ( 'NONE',  ( 0.2500000000000001700, 0.1575000000000000000, -0.5000000000000000000 ) ) ;
#617 = DIRECTION ( 'NONE',  ( -0.0000000000000000000, 1.000000000000000000, -0.0000000000000000000 ) ) ;
#618 = EDGE_CURVE ( 'NONE', #148, #281, #582, .T. ) ;
#619 = DIRECTION ( 'NONE',  ( 0.0000000000000000000, 0.0000000000000000000, -1.000000000000000000 ) ) ;
#620 =( NAMED_UNIT ( * ) SI_UNIT ( $, .STERADIAN. ) SOLID_ANGLE_UNIT ( ) );
#621 = CLOSED_SHELL ( 'NONE', ( #789, #66, #724 ) ) ;
#622 = ORIENTED_EDGE ( 'NONE', *, *, #264, .F. ) ;
#623 = CARTESIAN_POINT ( 'NONE',  ( -0.4799999999999999800, 0.2750000000000000200, 0.7299999999999999800 ) ) ;
#624 = PLANE ( 'NONE',  #535 ) ;
#625 = EDGE_CURVE ( 'NONE', #441, #754, #795, .T. ) ;
#626 = PRESENTATION_LAYER_ASSIGNMENT (  '', '', ( #558 ) ) ;
#627 = DIRECTION ( 'NONE',  ( 0.0000000000000000000, 1.000000000000000000, 0.0000000000000000000 ) ) ;
#628 = CARTESIAN_POINT ( 'NONE',  ( 0.0000000000000000000, 0.0000000000000000000, 0.0000000000000000000 ) ) ;
#629 = VECTOR ( 'NONE', #637, 1000.000000000000000 ) ;
#630 = CARTESIAN_POINT ( 'NONE',  ( -0.4799999999999999800, 0.2750000000000000200, 0.7299999999999999800 ) ) ;
#631 = ORIENTED_EDGE ( 'NONE', *, *, #454, .F. ) ;
#632 = AXIS2_PLACEMENT_3D ( 'NONE', #895, #390, #816 ) ;
#633 = MANIFOLD_SOLID_BREP ( 'Pin B3', #939 ) ;
#634 = ORIENTED_EDGE ( 'NONE', *, *, #818, .T. ) ;
#635 = STYLED_ITEM ( 'NONE', ( #540 ), #507 ) ;
#636 = CARTESIAN_POINT ( 'NONE',  ( -0.4799999999999999800, 0.2750000000000000200, 0.7299999999999999800 ) ) ;
#637 = DIRECTION ( 'NONE',  ( 1.000000000000000000, 0.0000000000000000000, 0.0000000000000000000 ) ) ;
#638 = EDGE_CURVE ( 'NONE', #84, #459, #53, .T. ) ;
#639 = FILL_AREA_STYLE_COLOUR ( '', #731 ) ;
#640 = ADVANCED_FACE ( 'NONE', ( #833 ), #227, .F. ) ;
#641 = PRESENTATION_STYLE_ASSIGNMENT (( #18 ) ) ;
#642 = CIRCLE ( 'NONE', #738, 0.1000000000000001000 ) ;
#643 = EDGE_CURVE ( 'NONE', #878, #409, #912, .T. ) ;
#644 =( NAMED_UNIT ( * ) PLANE_ANGLE_UNIT ( ) SI_UNIT ( $, .RADIAN. ) );
#645 = VERTEX_POINT ( 'NONE', #149 ) ;
#646 = STYLED_ITEM ( 'NONE', ( #97 ), #376 ) ;
#647 = CLOSED_SHELL ( 'NONE', ( #437, #931, #203 ) ) ;
#648 = ORIENTED_EDGE ( 'NONE', *, *, #205, .F. ) ;
#649 = PRODUCT_RELATED_PRODUCT_CATEGORY ( 'part', '', ( #370 ) ) ;
#650 = ADVANCED_FACE ( 'NONE', ( #527, #715 ), #23, .T. ) ;
#651 = CARTESIAN_POINT ( 'NONE',  ( 0.0000000000000000000, 0.2750000000000000200, 0.0000000000000000000 ) ) ;
#652 = ADVANCED_FACE ( 'NONE', ( #890 ), #277, .F. ) ;
#653 = DIRECTION ( 'NONE',  ( -0.0000000000000000000, 1.000000000000000000, -0.0000000000000000000 ) ) ;
#654 = CARTESIAN_POINT ( 'NONE',  ( -0.2799999999999999700, 0.5250000000000000200, -0.5300000000000000300 ) ) ;
#655 = CIRCLE ( 'NONE', #28, 0.1048808848170151900 ) ;
#656 = EDGE_LOOP ( 'NONE', ( #799, #466 ) ) ;
#657 = DIRECTION ( 'NONE',  ( 0.0000000000000000000, -1.000000000000000000, 0.0000000000000000000 ) ) ;
#658 = VERTEX_POINT ( 'NONE', #712 ) ;
#659 = SURFACE_SIDE_STYLE ('',( #852 ) ) ;
#660 = CIRCLE ( 'NONE', #842, 0.1048808848170151900 ) ;
#661 = DIRECTION ( 'NONE',  ( -0.0000000000000000000, -1.000000000000000000, -0.0000000000000000000 ) ) ;
#662 = AXIS2_PLACEMENT_3D ( 'NONE', #506, #377, #804 ) ;
#663 = EDGE_LOOP ( 'NONE', ( #801, #386 ) ) ;
#664 = ORIENTED_EDGE ( 'NONE', *, *, #19, .T. ) ;
#665 = DIRECTION ( 'NONE',  ( 0.0000000000000000000, -1.000000000000000000, 0.0000000000000000000 ) ) ;
#666 =( NAMED_UNIT ( * ) SI_UNIT ( $, .STERADIAN. ) SOLID_ANGLE_UNIT ( ) );
#667 = DIRECTION ( 'NONE',  ( 0.0000000000000000000, 0.0000000000000000000, 1.000000000000000000 ) ) ;
#668 = PLANE ( 'NONE',  #848 ) ;
#669 = DIRECTION ( 'NONE',  ( -0.0000000000000000000, 1.000000000000000000, -0.0000000000000000000 ) ) ;
#670 = PRESENTATION_LAYER_ASSIGNMENT (  '', '', ( #576 ) ) ;
#671 = CIRCLE ( 'NONE', #544, 0.1048808848170152400 ) ;
#672 = COLOUR_RGB ( '',0.7921568627450980000, 0.8196078431372548800, 0.9333333333333333500 ) ;
#673 = ORIENTED_EDGE ( 'NONE', *, *, #591, .F. ) ;
#674 = SURFACE_SIDE_STYLE ('',( #307 ) ) ;
#675 = ORIENTED_EDGE ( 'NONE', *, *, #154, .T. ) ;
#676 = AXIS2_PLACEMENT_3D ( 'NONE', #898, #665, #326 ) ;
#677 =( NAMED_UNIT ( * ) SI_UNIT ( $, .STERADIAN. ) SOLID_ANGLE_UNIT ( ) );
#678 = AXIS2_PLACEMENT_3D ( 'NONE', #547, #117, #614 ) ;
#679 = DIRECTION ( 'NONE',  ( 0.0000000000000000000, 0.0000000000000000000, -1.000000000000000000 ) ) ;
#680 = SURFACE_STYLE_FILL_AREA ( #12 ) ;
#681 = SURFACE_SIDE_STYLE ('',( #921 ) ) ;
#682 = DIRECTION ( 'NONE',  ( -0.0000000000000000000, -1.000000000000000000, -0.0000000000000000000 ) ) ;
#683 = CLOSED_SHELL ( 'NONE', ( #856, #299, #499 ) ) ;
#684 = ORIENTED_EDGE ( 'NONE', *, *, #362, .F. ) ;
#685 = UNCERTAINTY_MEASURE_WITH_UNIT (LENGTH_MEASURE( 1.000000000000000100E-005 ), #536, 'distance_accuracy_value', 'NONE');
#686 = CARTESIAN_POINT ( 'NONE',  ( -0.2499999999999998300, 0.1575000000000000000, -0.5000000000000000000 ) ) ;
#687 = AXIS2_PLACEMENT_3D ( 'NONE', #904, #682, #474 ) ;
#688 = DIRECTION ( 'NONE',  ( 0.0000000000000000000, -1.000000000000000000, -1.224646799147353200E-016 ) ) ;
#689 = SURFACE_STYLE_FILL_AREA ( #135 ) ;
#690 = SURFACE_STYLE_FILL_AREA ( #918 ) ;
#691 = FACE_OUTER_BOUND ( 'NONE', #542, .T. ) ;
#692 = MECHANICAL_DESIGN_GEOMETRIC_PRESENTATION_REPRESENTATION (  '', ( #433 ), #237 ) ;
#693 = DIRECTION ( 'NONE',  ( -0.0000000000000000000, 1.000000000000000000, -0.0000000000000000000 ) ) ;
#694 = DIRECTION ( 'NONE',  ( 0.0000000000000000000, -1.000000000000000000, 0.0000000000000000000 ) ) ;
#695 = VERTEX_POINT ( 'NONE', #815 ) ;
#696 = ORIENTED_EDGE ( 'NONE', *, *, #456, .T. ) ;
#697 = MANIFOLD_SOLID_BREP ( 'Pin A2', #647 ) ;
#698 =( NAMED_UNIT ( * ) PLANE_ANGLE_UNIT ( ) SI_UNIT ( $, .RADIAN. ) );
#699 = SURFACE_SIDE_STYLE ('',( #553 ) ) ;
#700 = APPLICATION_CONTEXT ( 'automotive_design' ) ;
#701 = ADVANCED_FACE ( 'NONE', ( #820 ), #10, .T. ) ;
#702 = DIRECTION ( 'NONE',  ( 0.0000000000000000000, 0.0000000000000000000, 1.000000000000000000 ) ) ;
#703 = FACE_OUTER_BOUND ( 'NONE', #663, .T. ) ;
#704 =( GEOMETRIC_REPRESENTATION_CONTEXT ( 3 ) GLOBAL_UNCERTAINTY_ASSIGNED_CONTEXT ( ( #61 ) ) GLOBAL_UNIT_ASSIGNED_CONTEXT ( ( #508, #863, #147 ) ) REPRESENTATION_CONTEXT ( 'NONE', 'WORKASPACE' ) );
#705 = CARTESIAN_POINT ( 'NONE',  ( -0.09249999999999980500, 0.1575000000000000000, -9.644093543285408300E-018 ) ) ;
#706 = EDGE_LOOP ( 'NONE', ( #420, #609 ) ) ;
#707 = PRESENTATION_LAYER_ASSIGNMENT (  '', '', ( #729 ) ) ;
#708 = CARTESIAN_POINT ( 'NONE',  ( 0.2500000000000001700, 0.1575000000000000000, 0.5000000000000000000 ) ) ;
#709 = ORIENTED_EDGE ( 'NONE', *, *, #916, .F. ) ;
#710 = ADVANCED_FACE ( 'NONE', ( #96 ), #668, .T. ) ;
#711 = CARTESIAN_POINT ( 'NONE',  ( -0.4799999999999999800, 0.6250000000000000000, 0.7299999999999999800 ) ) ;
#712 = CARTESIAN_POINT ( 'NONE',  ( 0.4075000000000002000, 0.1575000000000000000, 0.5000000000000000000 ) ) ;
#713 = ADVANCED_FACE ( 'NONE', ( #566 ), #108, .T. ) ;
#714 = SURFACE_SIDE_STYLE ('',( #768 ) ) ;
#715 = FACE_BOUND ( 'NONE', #181, .T. ) ;
#716 = DIRECTION ( 'NONE',  ( 0.0000000000000000000, 0.0000000000000000000, 1.000000000000000000 ) ) ;
#717 = ADVANCED_FACE ( 'NONE', ( #486 ), #462, .F. ) ;
#718 = EDGE_CURVE ( 'NONE', #333, #407, #525, .T. ) ;
#719 = DIRECTION ( 'NONE',  ( 0.0000000000000000000, 1.720955829342070200E-016, -1.000000000000000000 ) ) ;
#720 = ORIENTED_EDGE ( 'NONE', *, *, #264, .T. ) ;
#721 = DIRECTION ( 'NONE',  ( 0.0000000000000000000, 1.000000000000000000, -0.0000000000000000000 ) ) ;
#722 = VERTEX_POINT ( 'NONE', #599 ) ;
#723 =( GEOMETRIC_REPRESENTATION_CONTEXT ( 3 ) GLOBAL_UNCERTAINTY_ASSIGNED_CONTEXT ( ( #365 ) ) GLOBAL_UNIT_ASSIGNED_CONTEXT ( ( #348, #698, #51 ) ) REPRESENTATION_CONTEXT ( 'NONE', 'WORKASPACE' ) );
#724 = ADVANCED_FACE ( 'NONE', ( #934 ), #30, .F. ) ;
#725 = CARTESIAN_POINT ( 'NONE',  ( -0.2799999999999999700, 0.6250000000000000000, -0.6300000000000001200 ) ) ;
#726 = DIRECTION ( 'NONE',  ( 0.0000000000000000000, -0.0000000000000000000, -1.000000000000000000 ) ) ;
#727 =( GEOMETRIC_REPRESENTATION_CONTEXT ( 3 ) GLOBAL_UNCERTAINTY_ASSIGNED_CONTEXT ( ( #759 ) ) GLOBAL_UNIT_ASSIGNED_CONTEXT ( ( #7, #387, #238 ) ) REPRESENTATION_CONTEXT ( 'NONE', 'WORKASPACE' ) );
#728 = SURFACE_STYLE_USAGE ( .BOTH. , #659 ) ;
#729 = STYLED_ITEM ( 'NONE', ( #388 ), #843 ) ;
#730 = VECTOR ( 'NONE', #831, 1000.000000000000000 ) ;
#731 = COLOUR_RGB ( '',0.7921568627450980000, 0.8196078431372548800, 0.9333333333333333500 ) ;
#732 = DIRECTION ( 'NONE',  ( 0.0000000000000000000, -0.0000000000000000000, -1.000000000000000000 ) ) ;
#733 = SPHERICAL_SURFACE ( 'NONE', #212, 0.1575000000000000300 ) ;
#734 = CIRCLE ( 'NONE', #432, 0.1048808848170152000 ) ;
#735 = ORIENTED_EDGE ( 'NONE', *, *, #564, .F. ) ;
#736 = EDGE_CURVE ( 'NONE', #658, #111, #764, .T. ) ;
#737 = ORIENTED_EDGE ( 'NONE', *, *, #334, .F. ) ;
#738 = AXIS2_PLACEMENT_3D ( 'NONE', #750, #322, #526 ) ;
#739 = VECTOR ( 'NONE', #844, 1000.000000000000000 ) ;
#740 = DIRECTION ( 'NONE',  ( 0.0000000000000000000, 1.000000000000000000, -0.0000000000000000000 ) ) ;
#741 = COLOUR_RGB ( '',1.000000000000000000, 1.000000000000000000, 1.000000000000000000 ) ;
#742 = FILL_AREA_STYLE_COLOUR ( '', #741 ) ;
#743 = ORIENTED_EDGE ( 'NONE', *, *, #718, .F. ) ;
#744 = CARTESIAN_POINT ( 'NONE',  ( -0.2499999999999998300, 0.2750000000000000200, 0.3951191151829848100 ) ) ;
#745 = ORIENTED_EDGE ( 'NONE', *, *, #220, .T. ) ;
#746 = ORIENTED_EDGE ( 'NONE', *, *, #49, .T. ) ;
#747 = DIRECTION ( 'NONE',  ( 0.0000000000000000000, 1.000000000000000000, 0.0000000000000000000 ) ) ;
#748 = AXIS2_PLACEMENT_3D ( 'NONE', #260, #329, #398 ) ;
#749 = DIRECTION ( 'NONE',  ( 0.0000000000000000000, 1.000000000000000000, 0.0000000000000000000 ) ) ;
#750 = CARTESIAN_POINT ( 'NONE',  ( -0.2799999999999999700, 0.6250000000000000000, -0.5300000000000000300 ) ) ;
#751 = FILL_AREA_STYLE ('',( #102 ) ) ;
#752 = FACE_OUTER_BOUND ( 'NONE', #559, .T. ) ;
#753 = SPHERICAL_SURFACE ( 'NONE', #613, 0.1575000000000000300 ) ;
#754 = VERTEX_POINT ( 'NONE', #623 ) ;
#755 = DIRECTION ( 'NONE',  ( 0.0000000000000000000, 0.0000000000000000000, 1.000000000000000000 ) ) ;
#756 = ORIENTED_EDGE ( 'NONE', *, *, #515, .T. ) ;
#757 = PRODUCT_DEFINITION_CONTEXT ( 'detailed design', #700, 'design' ) ;
#758 = AXIS2_PLACEMENT_3D ( 'NONE', #292, #63, #560 ) ;
#759 = UNCERTAINTY_MEASURE_WITH_UNIT (LENGTH_MEASURE( 1.000000000000000100E-005 ), #7, 'distance_accuracy_value', 'NONE');
#760 = CARTESIAN_POINT ( 'NONE',  ( -0.2499999999999998300, 0.1575000000000000000, -0.5000000000000000000 ) ) ;
#761 = AXIS2_PLACEMENT_3D ( 'NONE', #435, #298, #719 ) ;
#762 = DIRECTION ( 'NONE',  ( 0.0000000000000000000, -1.000000000000000000, -1.224646799147353200E-016 ) ) ;
#763 = FILL_AREA_STYLE ('',( #911 ) ) ;
#764 = CIRCLE ( 'NONE', #50, 0.1575000000000000300 ) ;
#765 = EDGE_CURVE ( 'NONE', #223, #797, #832, .T. ) ;
#766 = SURFACE_STYLE_FILL_AREA ( #529 ) ;
#767 = CARTESIAN_POINT ( 'NONE',  ( 0.4799999999999999800, 0.2750000000000000200, 0.7299999999999999800 ) ) ;
#768 = SURFACE_STYLE_FILL_AREA ( #72 ) ;
#769 = DIRECTION ( 'NONE',  ( 0.0000000000000000000, 1.000000000000000000, 0.0000000000000000000 ) ) ;
#770 = EDGE_LOOP ( 'NONE', ( #460, #570, #648, #684 ) ) ;
#771 = ORIENTED_EDGE ( 'NONE', *, *, #346, .T. ) ;
#772 = CARTESIAN_POINT ( 'NONE',  ( -0.2499999999999998300, 0.1575000000000000000, 0.5000000000000000000 ) ) ;
#773 = CARTESIAN_POINT ( 'NONE',  ( -0.2799999999999999700, 0.5250000000000000200, -0.5300000000000000300 ) ) ;
#774 = EDGE_CURVE ( 'NONE', #407, #441, #131, .T. ) ;
#775 = DIRECTION ( 'NONE',  ( 0.0000000000000000000, 1.000000000000000000, -0.0000000000000000000 ) ) ;
#776 = AXIS2_PLACEMENT_3D ( 'NONE', #185, #112, #619 ) ;
#777 = DIRECTION ( 'NONE',  ( -0.0000000000000000000, -1.000000000000000000, -0.0000000000000000000 ) ) ;
#778 = SURFACE_SIDE_STYLE ('',( #689 ) ) ;
#779 = SHAPE_DEFINITION_REPRESENTATION ( #356, #590 ) ;
#780 = AXIS2_PLACEMENT_3D ( 'NONE', #886, #669, #406 ) ;
#781 = VECTOR ( 'NONE', #511, 1000.000000000000000 ) ;
#782 = LINE ( 'NONE', #543, #583 ) ;
#783 = MECHANICAL_DESIGN_GEOMETRIC_PRESENTATION_REPRESENTATION (  '', ( #729 ), #881 ) ;
#784 = ORIENTED_EDGE ( 'NONE', *, *, #625, .T. ) ;
#785 =( NAMED_UNIT ( * ) SI_UNIT ( $, .STERADIAN. ) SOLID_ANGLE_UNIT ( ) );
#786 = ORIENTED_EDGE ( 'NONE', *, *, #190, .F. ) ;
#787 = DIRECTION ( 'NONE',  ( -0.0000000000000000000, 1.000000000000000000, -0.0000000000000000000 ) ) ;
#788 = CARTESIAN_POINT ( 'NONE',  ( 0.2500000000000001700, 0.1575000000000000000, 0.5000000000000000000 ) ) ;
#789 = ADVANCED_FACE ( 'NONE', ( #317 ), #475, .T. ) ;
#790 = CARTESIAN_POINT ( 'NONE',  ( -0.2799999999999999700, 0.5250000000000000200, -0.4299999999999998800 ) ) ;
#791 = FILL_AREA_STYLE ('',( #350 ) ) ;
#792 = DIRECTION ( 'NONE',  ( 0.0000000000000000000, 1.000000000000000000, 0.0000000000000000000 ) ) ;
#793 = UNCERTAINTY_MEASURE_WITH_UNIT (LENGTH_MEASURE( 1.000000000000000100E-005 ), #563, 'distance_accuracy_value', 'NONE');
#794 = DIRECTION ( 'NONE',  ( 0.0000000000000000000, 1.000000000000000000, 0.0000000000000000000 ) ) ;
#795 = LINE ( 'NONE', #218, #781 ) ;
#796 = AXIS2_PLACEMENT_3D ( 'NONE', #167, #242, #819 ) ;
#797 = VERTEX_POINT ( 'NONE', #39 ) ;
#798 = MECHANICAL_DESIGN_GEOMETRIC_PRESENTATION_REPRESENTATION (  '', ( #576 ), #723 ) ;
#799 = ORIENTED_EDGE ( 'NONE', *, *, #846, .T. ) ;
#800 = CARTESIAN_POINT ( 'NONE',  ( 0.2500000000000001700, 0.2750000000000000200, 0.1048808848170152000 ) ) ;
#801 = ORIENTED_EDGE ( 'NONE', *, *, #150, .F. ) ;
#802 = ADVANCED_FACE ( 'NONE', ( #552 ), #163, .T. ) ;
#803 = FILL_AREA_STYLE ('',( #443 ) ) ;
#804 = DIRECTION ( 'NONE',  ( 0.0000000000000000000, 0.0000000000000000000, -1.000000000000000000 ) ) ;
#805 = CARTESIAN_POINT ( 'NONE',  ( -0.2499999999999998300, 0.2750000000000000200, 0.0000000000000000000 ) ) ;
#806 = PRESENTATION_STYLE_ASSIGNMENT (( #467 ) ) ;
#807 = FACE_BOUND ( 'NONE', #29, .T. ) ;
#808 = EDGE_LOOP ( 'NONE', ( #124, #673, #195, #675 ) ) ;
#809 = CARTESIAN_POINT ( 'NONE',  ( 0.0000000000000000000, 0.2750000000000000200, 0.0000000000000000000 ) ) ;
#810 = ORIENTED_EDGE ( 'NONE', *, *, #454, .T. ) ;
#811 = AXIS2_PLACEMENT_3D ( 'NONE', #569, #869, #872 ) ;
#812 = DIRECTION ( 'NONE',  ( -0.0000000000000000000, 1.000000000000000000, -0.0000000000000000000 ) ) ;
#813 = EDGE_LOOP ( 'NONE', ( #243, #892 ) ) ;
#814 = ORIENTED_EDGE ( 'NONE', *, *, #115, .F. ) ;
#815 = CARTESIAN_POINT ( 'NONE',  ( -0.2799999999999999700, 0.5250000000000000200, -0.4299999999999998800 ) ) ;
#816 = DIRECTION ( 'NONE',  ( 0.0000000000000000000, 1.720955829342069700E-016, -1.000000000000000000 ) ) ;
#817 = ORIENTED_EDGE ( 'NONE', *, *, #643, .F. ) ;
#818 = EDGE_CURVE ( 'NONE', #585, #359, #38, .T. ) ;
#819 = DIRECTION ( 'NONE',  ( 0.0000000000000000000, 0.0000000000000000000, -1.000000000000000000 ) ) ;
#820 = FACE_OUTER_BOUND ( 'NONE', #60, .T. ) ;
#821 = PRESENTATION_STYLE_ASSIGNMENT (( #355 ) ) ;
#822 =( LENGTH_UNIT ( ) NAMED_UNIT ( * ) SI_UNIT ( .MILLI., .METRE. ) );
#823 = LINE ( 'NONE', #501, #530 ) ;
#824 = CARTESIAN_POINT ( 'NONE',  ( -0.2499999999999998300, 0.1575000000000000000, 0.5000000000000000000 ) ) ;
#825 = EDGE_LOOP ( 'NONE', ( #743, #737, #937, #254 ) ) ;
#826 =( NAMED_UNIT ( * ) PLANE_ANGLE_UNIT ( ) SI_UNIT ( $, .RADIAN. ) );
#827 = AXIS2_PLACEMENT_3D ( 'NONE', #77, #224, #379 ) ;
#828 = DIRECTION ( 'NONE',  ( -0.0000000000000000000, 1.000000000000000000, -0.0000000000000000000 ) ) ;
#829 = SURFACE_STYLE_USAGE ( .BOTH. , #681 ) ;
#830 =( LENGTH_UNIT ( ) NAMED_UNIT ( * ) SI_UNIT ( .MILLI., .METRE. ) );
#831 = DIRECTION ( 'NONE',  ( -1.000000000000000000, -0.0000000000000000000, -0.0000000000000000000 ) ) ;
#832 = CIRCLE ( 'NONE', #98, 0.1575000000000000300 ) ;
#833 = FACE_OUTER_BOUND ( 'NONE', #290, .T. ) ;
#834 = FACE_OUTER_BOUND ( 'NONE', #656, .T. ) ;
#835 = EDGE_LOOP ( 'NONE', ( #151, #514 ) ) ;
#836 = DIRECTION ( 'NONE',  ( 0.0000000000000000000, 0.0000000000000000000, -1.000000000000000000 ) ) ;
#837 = ORIENTED_EDGE ( 'NONE', *, *, #408, .F. ) ;
#838 = EDGE_CURVE ( 'NONE', #441, #459, #351, .T. ) ;
#839 = EDGE_LOOP ( 'NONE', ( #89, #867 ) ) ;
#840 = PRESENTATION_LAYER_ASSIGNMENT (  '', '', ( #646 ) ) ;
#841 = DIRECTION ( 'NONE',  ( 0.0000000000000000000, 0.0000000000000000000, -1.000000000000000000 ) ) ;
#842 = AXIS2_PLACEMENT_3D ( 'NONE', #415, #693, #908 ) ;
#843 = MANIFOLD_SOLID_BREP ( 'Pin A4', #207 ) ;
#844 = DIRECTION ( 'NONE',  ( -0.0000000000000000000, -0.0000000000000000000, 1.000000000000000000 ) ) ;
#845 = CARTESIAN_POINT ( 'NONE',  ( 0.4075000000000002000, 0.1575000000000000000, -9.644093543285408300E-018 ) ) ;
#846 = EDGE_CURVE ( 'NONE', #597, #645, #660, .T. ) ;
#847 = COLOUR_RGB ( '',1.000000000000000000, 1.000000000000000000, 1.000000000000000000 ) ;
#848 = AXIS2_PLACEMENT_3D ( 'NONE', #175, #170, #178 ) ;
#849 = FACE_OUTER_BOUND ( 'NONE', #304, .T. ) ;
#850 = CARTESIAN_POINT ( 'NONE',  ( -0.4074999999999998600, 0.1575000000000000000, -9.644093543285408300E-018 ) ) ;
#851 = CIRCLE ( 'NONE', #472, 0.1048808848170152000 ) ;
#852 = SURFACE_STYLE_FILL_AREA ( #581 ) ;
#853 =( NAMED_UNIT ( * ) PLANE_ANGLE_UNIT ( ) SI_UNIT ( $, .RADIAN. ) );
#854 = VERTEX_POINT ( 'NONE', #412 ) ;
#855 =( NAMED_UNIT ( * ) PLANE_ANGLE_UNIT ( ) SI_UNIT ( $, .RADIAN. ) );
#856 = ADVANCED_FACE ( 'NONE', ( #143 ), #516, .T. ) ;
#857 = SURFACE_SIDE_STYLE ('',( #79 ) ) ;
#858 = APPLICATION_PROTOCOL_DEFINITION ( 'draft international standard', 'automotive_design', 1998, #434 ) ;
#859 = SURFACE_SIDE_STYLE ('',( #690 ) ) ;
#860 = VECTOR ( 'NONE', #679, 1000.000000000000000 ) ;
#861 = AXIS2_PLACEMENT_3D ( 'NONE', #455, #812, #522 ) ;
#862 = VECTOR ( 'NONE', #78, 1000.000000000000000 ) ;
#863 =( NAMED_UNIT ( * ) PLANE_ANGLE_UNIT ( ) SI_UNIT ( $, .RADIAN. ) );
#864 = AXIS2_PLACEMENT_3D ( 'NONE', #210, #496, #702 ) ;
#865 = CARTESIAN_POINT ( 'NONE',  ( -0.2499999999999998300, 0.2750000000000000200, -0.5000000000000000000 ) ) ;
#866 =( NAMED_UNIT ( * ) SI_UNIT ( $, .STERADIAN. ) SOLID_ANGLE_UNIT ( ) );
#867 = ORIENTED_EDGE ( 'NONE', *, *, #86, .T. ) ;
#868 = EDGE_LOOP ( 'NONE', ( #255, #884, #234, #137 ) ) ;
#869 = DIRECTION ( 'NONE',  ( 0.0000000000000000000, 1.000000000000000000, 0.0000000000000000000 ) ) ;
#870 = EDGE_CURVE ( 'NONE', #459, #426, #85, .T. ) ;
#871 = SURFACE_STYLE_USAGE ( .BOTH. , #714 ) ;
#872 = DIRECTION ( 'NONE',  ( 0.0000000000000000000, -0.0000000000000000000, 1.000000000000000000 ) ) ;
#873 = EDGE_CURVE ( 'NONE', #645, #597, #265, .T. ) ;
#874 = CIRCLE ( 'NONE', #303, 0.1000000000000001000 ) ;
#875 = ADVANCED_FACE ( 'NONE', ( #188 ), #337, .T. ) ;
#876 = VECTOR ( 'NONE', #384, 1000.000000000000000 ) ;
#877 = UNCERTAINTY_MEASURE_WITH_UNIT (LENGTH_MEASURE( 1.000000000000000100E-005 ), #830, 'distance_accuracy_value', 'NONE');
#878 = VERTEX_POINT ( 'NONE', #914 ) ;
#879 = DIRECTION ( 'NONE',  ( 0.0000000000000000000, 1.000000000000000000, 0.0000000000000000000 ) ) ;
#880 = DIRECTION ( 'NONE',  ( 0.0000000000000000000, -1.000000000000000000, 0.0000000000000000000 ) ) ;
#881 =( GEOMETRIC_REPRESENTATION_CONTEXT ( 3 ) GLOBAL_UNCERTAINTY_ASSIGNED_CONTEXT ( ( #114 ) ) GLOBAL_UNIT_ASSIGNED_CONTEXT ( ( #262, #910, #410 ) ) REPRESENTATION_CONTEXT ( 'NONE', 'WORKASPACE' ) );
#882 = ORIENTED_EDGE ( 'NONE', *, *, #11, .F. ) ;
#883 = DIRECTION ( 'NONE',  ( -0.0000000000000000000, 1.000000000000000000, -0.0000000000000000000 ) ) ;
#884 = ORIENTED_EDGE ( 'NONE', *, *, #49, .F. ) ;
#885 = AXIS2_PLACEMENT_3D ( 'NONE', #32, #40, #113 ) ;
#886 = CARTESIAN_POINT ( 'NONE',  ( -0.2799999999999999700, 0.5250000000000000200, -0.5300000000000000300 ) ) ;
#887 = AXIS2_PLACEMENT_3D ( 'NONE', #708, #284, #361 ) ;
#888 = CIRCLE ( 'NONE', #596, 0.1048808848170152400 ) ;
#889 = DIRECTION ( 'NONE',  ( 0.0000000000000000000, -0.0000000000000000000, 1.000000000000000000 ) ) ;
#890 = FACE_OUTER_BOUND ( 'NONE', #808, .T. ) ;
#891 = PRESENTATION_STYLE_ASSIGNMENT (( #728 ) ) ;
#892 = ORIENTED_EDGE ( 'NONE', *, *, #572, .T. ) ;
#893 = SURFACE_STYLE_USAGE ( .BOTH. , #319 ) ;
#894 = STYLED_ITEM ( 'NONE', ( #641 ), #697 ) ;
#895 = CARTESIAN_POINT ( 'NONE',  ( 0.2500000000000001700, 0.1575000000000000000, -0.5000000000000000000 ) ) ;
#896 = ORIENTED_EDGE ( 'NONE', *, *, #184, .T. ) ;
#897 = FILL_AREA_STYLE ('',( #605 ) ) ;
#898 = CARTESIAN_POINT ( 'NONE',  ( 0.0000000000000000000, 0.2750000000000000200, 0.0000000000000000000 ) ) ;
#899 = DIRECTION ( 'NONE',  ( 0.0000000000000000000, -0.0000000000000000000, 1.000000000000000000 ) ) ;
#900 = PRESENTATION_STYLE_ASSIGNMENT (( #550 ) ) ;
#901 = DIRECTION ( 'NONE',  ( 0.0000000000000000000, 1.720955829342070200E-016, -1.000000000000000000 ) ) ;
#902 = FACE_OUTER_BOUND ( 'NONE', #906, .T. ) ;
#903 = VERTEX_POINT ( 'NONE', #192 ) ;
#904 = CARTESIAN_POINT ( 'NONE',  ( -0.2499999999999998300, 0.1575000000000000000, 0.0000000000000000000 ) ) ;
#905 = ORIENTED_EDGE ( 'NONE', *, *, #73, .F. ) ;
#906 = EDGE_LOOP ( 'NONE', ( #571, #221, #159, #756 ) ) ;
#907 = DIRECTION ( 'NONE',  ( 0.0000000000000000000, 1.000000000000000000, 0.0000000000000000000 ) ) ;
#908 = DIRECTION ( 'NONE',  ( 0.0000000000000000000, 0.0000000000000000000, -1.000000000000000000 ) ) ;
#909 = CARTESIAN_POINT ( 'NONE',  ( -0.2799999999999999700, 0.6250000000000000000, -0.4299999999999998800 ) ) ;
#910 =( NAMED_UNIT ( * ) PLANE_ANGLE_UNIT ( ) SI_UNIT ( $, .RADIAN. ) );
#911 = FILL_AREA_STYLE_COLOUR ( '', #488 ) ;
#912 = CIRCLE ( 'NONE', #282, 0.1048808848170152400 ) ;
#913 = CIRCLE ( 'NONE', #191, 0.1575000000000000300 ) ;
#914 = CARTESIAN_POINT ( 'NONE',  ( -0.2499999999999998300, 0.2750000000000000200, -0.3951191151829848100 ) ) ;
#915 = ORIENTED_EDGE ( 'NONE', *, *, #916, .T. ) ;
#916 = EDGE_CURVE ( 'NONE', #409, #878, #888, .T. ) ;
#917 = ORIENTED_EDGE ( 'NONE', *, *, #86, .F. ) ;
#918 = FILL_AREA_STYLE ('',( #422 ) ) ;
#919 = DIRECTION ( 'NONE',  ( 0.0000000000000000000, -1.000000000000000000, 0.0000000000000000000 ) ) ;
#920 = DIRECTION ( 'NONE',  ( 0.0000000000000000000, -0.0000000000000000000, -1.000000000000000000 ) ) ;
#921 = SURFACE_STYLE_FILL_AREA ( #36 ) ;
#922 = PRESENTATION_LAYER_ASSIGNMENT (  '', '', ( #13 ) ) ;
#923 = COLOUR_RGB ( '',0.7921568627450980000, 0.8196078431372548800, 0.9333333333333333500 ) ;
#924 = CIRCLE ( 'NONE', #296, 0.1575000000000000800 ) ;
#925 = ORIENTED_EDGE ( 'NONE', *, *, #392, .T. ) ;
#926 = EDGE_LOOP ( 'NONE', ( #557, #634 ) ) ;
#927 = MANIFOLD_SOLID_BREP ( 'Pin B2', #621 ) ;
#928 =( LENGTH_UNIT ( ) NAMED_UNIT ( * ) SI_UNIT ( .MILLI., .METRE. ) );
#929 = DIRECTION ( 'NONE',  ( 0.0000000000000000000, 0.0000000000000000000, 1.000000000000000000 ) ) ;
#930 = SURFACE_STYLE_USAGE ( .BOTH. , #778 ) ;
#931 = ADVANCED_FACE ( 'NONE', ( #8, #565 ), #369, .T. ) ;
#932 = SURFACE_STYLE_USAGE ( .BOTH. , #938 ) ;
#933 = FILL_AREA_STYLE_COLOUR ( '', #923 ) ;
#934 = FACE_OUTER_BOUND ( 'NONE', #480, .T. ) ;
#935 = PLANE ( 'NONE',  #811 ) ;
#936 = PRESENTATION_LAYER_ASSIGNMENT (  '', '', ( #193 ) ) ;
#937 = ORIENTED_EDGE ( 'NONE', *, *, #625, .F. ) ;
#938 = SURFACE_SIDE_STYLE ('',( #555 ) ) ;
#939 = CLOSED_SHELL ( 'NONE', ( #352, #226, #640 ) ) ;
#940 = UNCERTAINTY_MEASURE_WITH_UNIT (LENGTH_MEASURE( 1.000000000000000100E-005 ), #551, 'distance_accuracy_value', 'NONE');
#941 = ADVANCED_FACE ( 'NONE', ( #2 ), #561, .F. ) ;
#942 = CARTESIAN_POINT ( 'NONE',  ( 0.09250000000000013800, 0.1575000000000000000, 0.5000000000000000000 ) ) ;
#943 = PRESENTATION_LAYER_ASSIGNMENT (  '', '', ( #894 ) ) ;
ENDSEC;
END-ISO-10303-21;
