#VRML V2.0 utf8
DEF TXFM_1 Transform {
  center 0 0 0
  rotation 0 0 1 0
  scale 1 1 1
  scaleOrientation 0 0 1 0
  translation 0 0 0
 children [
DEF TXFM_2 Transform {
  center 0 0 0
  rotation 0 0 1 0
  scale 1 1 1
  scaleOrientation 0 0 1 0
  translation 0 0 0
 children [
DEF TXFM_3 Transform {
  center 0 0 0
  rotation 0 0 1 0
  scale 1 1 1
  scaleOrientation 0 0 1 0
  translation 0 0 0
 children [
DEF SHAPE_1 Shape {
 appearance DEF APP_1 Appearance {
  material Material {
   ambientIntensity 0.1
   diffuseColor 1 1 1
   emissiveColor 0 0 0
   shininess 0.1
   specularColor 0.12 0.12 0.12
   transparency 0
} }
 geometry DEF FACE_1 IndexedFaceSet {
  coord DEF COORD_1 Coordinate { point [
  0.035644947 0.39370079 -0.39370079,0.035644947 0 -0.39370079,
  0 0.39370079 -0.43289424,0.0011853223 0.39370079 -0.42330636,
  0.0046699158 0.39370079 -0.4142958,0.010243958 0.39370079 -0.40640514,
  0.017571811 0.39370079 -0.40010951,0.026212233 0.39370079 -0.39578798,
  0 0 -0.43289424,0.0011853223 0 -0.42330636,
  0.0046699158 0 -0.4142958,0.010243958 0 -0.40640514,
  0.017571811 0 -0.40010951,0.026212233 0 -0.39578798] }
 coordIndex [
  13,0,1,-1,13,7,0,-1,12,6,7,-1,12,7,13,-1,11,5,6,-1,11,6,12,-1,10,4,5,-1,10,5,11,-1,
  9,3,4,-1,9,4,10,-1,8,2,3,-1,8,3,9,-1]
  normalPerVertex TRUE
  normal DEF NORM_1 Normal { vector [
  0.21604612 0 -0.97638316,0.21604612 0 -0.97638316,
  0.99244466 0 -0.12269309,0.97909755 0 -0.20339122,
  0.90008737 0 -0.43570945,0.76687899 0 -0.64179172,
  0.58749348 0 -0.8092289,0.37273241 0 -0.92793887,
  0.99244466 0 -0.12269309,0.95904311 0 -0.28326014,
  0.86118606 0 -0.50828985,0.71147323 0 -0.7027132,
  0.51891948 0 -0.85482312,0.29511933 0 -0.9554604] }
}
}
DEF SHAPE_2 Shape {
 appearance USE APP_1
 geometry DEF FACE_2 IndexedFaceSet {
  coord DEF COORD_2 Coordinate { point [
  0 0.39370079 -0.43289424,0 0 -0.43289424,
  0 0.39370079 0.43289424,0 0 0.43289424] }
 coordIndex [
  0,3,2,-1,0,1,3,-1]
  normalPerVertex TRUE
  normal DEF NORM_2 Normal { vector [
  -1 0 0,-1 0 0,
  -1 0 0,-1 0 0] }
}
}
DEF SHAPE_3 Shape {
 appearance USE APP_1
 geometry DEF FACE_3 IndexedFaceSet {
  coord DEF COORD_3 Coordinate { point [
  0 0.39370079 0.43289424,0 0 0.43289424,
  0.0011853223 0.39370079 0.42330636,0.0046699158 0.39370079 0.4142958,
  0.010243958 0.39370079 0.40640514,0.017571811 0.39370079 0.40010951,
  0.026212233 0.39370079 0.39578798,0.035644947 0.39370079 0.39370079,
  0.035644947 0 0.39370079,0.0011853223 0 0.42330636,
  0.0046699158 0 0.4142958,0.010243958 0 0.40640514,
  0.017571811 0 0.40010951,0.026212233 0 0.39578798] }
 coordIndex [
  9,0,1,-1,9,2,0,-1,10,3,2,-1,10,2,9,-1,11,4,3,-1,11,3,10,-1,12,5,4,-1,12,4,11,-1,
  13,6,5,-1,13,5,12,-1,8,7,6,-1,8,6,13,-1]
  normalPerVertex TRUE
  normal DEF NORM_3 Normal { vector [
  0.99244466 0 0.12269309,0.99244466 0 0.12269309,
  0.95904311 0 0.28326014,0.86118606 0 0.50828985,
  0.71147323 0 0.7027132,0.51891948 0 0.85482312,
  0.29511933 0 0.9554604,0.21604612 0 0.97638316,
  0.21604612 0 0.97638316,0.97909755 0 0.20339122,
  0.90008737 0 0.43570945,0.76687899 0 0.64179172,
  0.58749348 0 0.8092289,0.37273241 0 0.92793887] }
}
}
DEF SHAPE_4 Shape {
 appearance USE APP_1
 geometry DEF FACE_4 IndexedFaceSet {
  coord DEF COORD_4 Coordinate { point [
  0.035644947 0 0.39370079,0.13039718 0 0.37273478,
  0.21719079 0 0.32932479,0.29079956 0 0.26608471,
  0.34679118 0 0.18682251,0.38179415 0 0.096310904,
  0.39370079 0 0,0.38179415 0 -0.096310904,
  0.34679118 0 -0.18682251,0.29079956 0 -0.26608471,
  0.21719079 0 -0.32932479,0.13039718 0 -0.37273478,
  0.035644947 0 -0.39370079,0.035644947 0.39370079 -0.39370079,
  0.035644947 0.39370079 0.39370079,0.13039718 0.39370079 0.37273478,
  0.21719079 0.39370079 0.32932479,0.29079956 0.39370079 0.26608471,
  0.34679118 0.39370079 0.18682251,0.38179415 0.39370079 0.096310904,
  0.39370079 0.39370079 0,0.38179415 0.39370079 -0.096310904,
  0.34679118 0.39370079 -0.18682251,0.29079956 0.39370079 -0.26608471,
  0.21719079 0.39370079 -0.32932479,0.13039718 0.39370079 -0.37273478] }
 coordIndex [
  11,12,13,-1,11,13,25,-1,10,25,24,-1,10,11,25,-1,9,24,23,-1,9,10,24,-1,8,23,22,-1,8,9,23,-1,
  7,22,21,-1,7,8,22,-1,6,21,20,-1,6,7,21,-1,5,20,19,-1,5,6,20,-1,4,19,18,-1,4,5,19,-1,
  3,18,17,-1,3,4,18,-1,2,17,16,-1,2,3,17,-1,1,16,15,-1,1,2,16,-1,0,15,14,-1,0,1,15,-1]
  normalPerVertex TRUE
  normal DEF NORM_4 Normal { vector [
  0.21604612 0 0.97638316,0.37273241 0 0.92793887,
  0.58749348 0 0.8092289,0.76687899 0 0.64179172,
  0.90008737 0 0.43570945,0.97909755 0 0.20339122,
  0.99915199 0 -0.041174098,0.95904311 0 -0.28326014,
  0.86118606 0 -0.50828985,0.71147323 0 -0.7027132,
  0.51891948 0 -0.85482312,0.29511933 0 -0.9554604,
  0.21604612 0 -0.97638316,0.21604612 0 -0.97638316,
  0.21604612 0 0.97638316,0.29511933 0 0.9554604,
  0.51891948 0 0.85482312,0.71147323 0 0.7027132,
  0.86118606 0 0.50828985,0.95904311 0 0.28326014,
  0.99915199 0 0.041174098,0.97909755 0 -0.20339122,
  0.90008737 0 -0.43570945,0.76687899 0 -0.64179172,
  0.58749348 0 -0.8092289,0.37273241 0 -0.92793887] }
}
}
DEF SHAPE_5 Shape {
 appearance USE APP_1
 geometry DEF FACE_5 IndexedFaceSet {
  coord DEF COORD_5 Coordinate { point [
  0 0.39370079 -0.43289424,0.0011853223 0.39370079 -0.42330636,
  0.0046699158 0.39370079 -0.4142958,0.010243958 0.39370079 -0.40640514,
  0.017571811 0.39370079 -0.40010951,0.026212233 0.39370079 -0.39578798,
  0.035644947 0.39370079 -0.39370079,0 0.39370079 0.43289424,
  0.0011853223 0.39370079 0.42330636,0.0046699158 0.39370079 0.4142958,
  0.010243958 0.39370079 0.40640514,0.017571811 0.39370079 0.40010951,
  0.026212233 0.39370079 0.39578798,0.035644947 0.39370079 0.39370079,
  0.13039718 0.39370079 0.37273478,0.21719079 0.39370079 0.32932479,
  0.29079956 0.39370079 0.26608471,0.34679118 0.39370079 0.18682251,
  0.38179415 0.39370079 0.096310904,0.39370079 0.39370079 0,
  0.38179415 0.39370079 -0.096310904,0.34679118 0.39370079 -0.18682251,
  0.29079956 0.39370079 -0.26608471,0.21719079 0.39370079 -0.32932479,
  0.13039718 0.39370079 -0.37273478] }
 coordIndex [
  19,20,21,-1,19,21,22,-1,11,4,3,-1,11,3,10,-1,9,3,2,-1,9,10,3,-1,12,5,4,-1,12,4,11,-1,
  8,2,1,-1,8,9,2,-1,13,6,5,-1,13,5,12,-1,7,1,0,-1,7,8,1,-1,15,13,14,-1,15,6,13,-1,
  16,17,18,-1,16,18,19,-1,16,22,23,-1,16,23,24,-1,16,24,6,-1,16,19,22,-1,16,6,15,-1]
  normalPerVertex TRUE
  normal DEF NORM_5 Normal { vector [
  0 1 0,0 1 0,
  0 1 0,0 1 0,
  0 1 0,0 1 0,
  0 1 0,0 1 0,
  0 1 0,0 1 0,
  0 1 0,0 1 0,
  0 1 0,0 1 0,
  0 1 0,0 1 0,
  0 1 0,0 1 0,
  0 1 0,0 1 0,
  0 1 0,0 1 0,
  0 1 0,0 1 0,
  0 1 0] }
}
}
DEF SHAPE_6 Shape {
 appearance USE APP_1
 geometry DEF FACE_6 IndexedFaceSet {
  coord DEF COORD_6 Coordinate { point [
  0 0 -0.43289424,0 0 0.43289424,
  0.0011853223 0 0.42330636,0.0046699158 0 0.4142958,
  0.010243958 0 0.40640514,0.017571811 0 0.40010951,
  0.026212233 0 0.39578798,0.035644947 0 0.39370079,
  0.13039718 0 0.37273478,0.21719079 0 0.32932479,
  0.29079956 0 0.26608471,0.34679118 0 0.18682251,
  0.38179415 0 0.096310904,0.39370079 0 0,
  0.38179415 0 -0.096310904,0.34679118 0 -0.18682251,
  0.29079956 0 -0.26608471,0.21719079 0 -0.32932479,
  0.13039718 0 -0.37273478,0.035644947 0 -0.39370079,
  0.0011853223 0 -0.42330636,0.0046699158 0 -0.4142958,
  0.010243958 0 -0.40640514,0.017571811 0 -0.40010951,
  0.026212233 0 -0.39578798] }
 coordIndex [
  13,15,14,-1,13,16,15,-1,5,22,23,-1,5,4,22,-1,3,21,22,-1,3,22,4,-1,6,23,24,-1,6,5,23,-1,
  2,20,21,-1,2,21,3,-1,7,24,19,-1,7,6,24,-1,1,0,20,-1,1,20,2,-1,9,8,7,-1,10,12,11,-1,
  10,13,12,-1,10,17,16,-1,10,18,17,-1,10,19,18,-1,10,16,13,-1,10,7,19,-1,10,9,7,-1]
  normalPerVertex TRUE
  normal DEF NORM_6 Normal { vector [
  0 -1 0,0 -1 0,
  0 -1 0,0 -1 0,
  0 -1 0,0 -1 0,
  0 -1 0,0 -1 0,
  0 -1 0,0 -1 0,
  0 -1 0,0 -1 0,
  0 -1 0,0 -1 0,
  0 -1 0,0 -1 0,
  0 -1 0,0 -1 0,
  0 -1 0,0 -1 0,
  0 -1 0,0 -1 0,
  0 -1 0,0 -1 0,
  0 -1 0] }
}
}
] }
DEF TXFM_4 Transform {
  center 0 0 0
  rotation 0 0 1 0
  scale 1 1 1
  scaleOrientation 0 0 1 0
  translation 0 0 0
 children [
DEF SHAPE_7 Shape {
 appearance DEF APP_2 Appearance {
  material Material {
   ambientIntensity 0.18971188
   diffuseColor 0.52711511 0.52711511 0.52711511
   emissiveColor 0 0 0
   shininess 0.1
   specularColor 0.12 0.12 0.12
   transparency 0
} }
 geometry DEF FACE_7 IndexedFaceSet {
  coord DEF COORD_7 Coordinate { point [
  -0.39370079 0 0.078740157,-0.39370079 0.031417187 0.14611453,
  -0.39370079 0.033745869 0.1499146,-0.39370079 0.036869695 0.15309342,
  -0.39370079 0.040628538 0.15548807,-0.39370079 0.044829721 0.15697579,
  -0.39370079 0.049257892 0.15748031,-0.39370079 0.058733588 0.15748031,
  -0.39370079 0.072018099 0.15596674,-0.39370079 0.084621648 0.15150359,
  -0.39370079 0.095898178 0.14431964,-0.39370079 0.10526966 0.13478316,
  -0.39370079 0.1122557 0.12338297,-0.39370079 0.13582677 0.072834646,
  -0.39370079 0.2519685 0.072834646,-0.39370079 0.27553957 0.12338297,
  -0.39370079 0.28252562 0.13478316,-0.39370079 0.2918971 0.14431964,
  -0.39370079 0.30317363 0.15150359,-0.39370079 0.31577718 0.15596674,
  -0.39370079 0.32906169 0.15748031,-0.39370079 0.3357836 0.15748031,
  -0.39370079 0.34021177 0.15697579,-0.39370079 0.34441295 0.15548807,
  -0.39370079 0.3481718 0.15309342,-0.39370079 0.35129562 0.1499146,
  -0.39370079 0.3536243 0.14611453,-0.39370079 0.38779528 0.072834646,
  -0.39370079 0.38779528 -0.072834646,-0.39370079 0.36220472 -0.12771376,
  -0.39370079 0.36220472 -0.43307087,-0.39370079 0.39370079 -0.43307087,
  -0.39370079 0.39370079 0.43307087,-0.39370079 0.23622047 0.43307087,
  -0.39370079 0.23622047 0.59055118,-0.39370079 0.15748031 0.59055118,
  -0.39370079 0.15748031 0.43307087,-0.39370079 0 0.43307087] }
 coordIndex [
  33,35,34,-1,33,36,35,-1,2,37,3,-1,4,3,37,-1,1,37,2,-1,5,4,37,-1,6,5,37,-1,7,37,36,-1,
  7,6,37,-1,8,7,36,-1,0,37,1,-1,9,8,36,-1,10,9,36,-1,17,36,33,-1,17,10,36,-1,16,11,10,-1,
  16,10,17,-1,18,17,33,-1,15,12,11,-1,15,11,16,-1,19,18,33,-1,20,33,32,-1,20,19,33,-1,21,20,32,-1,
  14,13,12,-1,14,12,15,-1,22,21,32,-1,23,22,32,-1,24,23,32,-1,25,24,32,-1,26,25,32,-1,27,26,32,-1,
  31,29,28,-1,31,30,29,-1,31,27,32,-1,31,28,27,-1]
  normalPerVertex TRUE
  normal DEF NORM_7 Normal { vector [
  -1 0 0,-1 0 0,
  -1 0 0,-1 0 0,
  -1 0 0,-1 0 0,
  -1 0 0,-1 0 0,
  -1 0 0,-1 0 0,
  -1 0 0,-1 0 0,
  -1 0 0,-1 0 0,
  -1 0 0,-1 0 0,
  -1 0 0,-1 0 0,
  -1 0 0,-1 0 0,
  -1 0 0,-1 0 0,
  -1 0 0,-1 0 0,
  -1 0 0,-1 0 0,
  -1 0 0,-1 0 0,
  -1 0 0,-1 0 0,
  -1 0 0,-1 0 0,
  -1 0 0,-1 0 0,
  -1 0 0,-1 0 0,
  -1 0 0,-1 0 0] }
}
}
DEF SHAPE_8 Shape {
 appearance USE APP_2
 geometry DEF FACE_8 IndexedFaceSet {
  coord DEF COORD_8 Coordinate { point [
  -0.31496063 0 -0.43307087,0 0 -0.43307087,
  0 0.15748031 -0.59055118,0 0.1521143 -0.54979228,
  0 0.13638195 -0.51181102,0 0.1113554 -0.47919578,
  0 0.078740157 -0.45416923,0 0.040758905 -0.43843688,
  -0.31496063 0.15748031 -0.59055118,-0.31496063 0.1521143 -0.54979228,
  -0.31496063 0.13638195 -0.51181102,-0.31496063 0.1113554 -0.47919578,
  -0.31496063 0.078740157 -0.45416923,-0.31496063 0.040758905 -0.43843688] }
 coordIndex [
  3,8,2,-1,3,9,8,-1,3,10,9,-1,4,11,10,-1,4,10,3,-1,5,12,11,-1,5,11,4,-1,6,13,12,-1,
  6,12,5,-1,7,0,13,-1,7,13,6,-1,1,0,7,-1]
  normalPerVertex TRUE
  normal DEF NORM_8 Normal { vector [
  0 -0.13052619 -0.99144486,0 -0.13052619 -0.99144486,
  0 -0.99144486 -0.13052619,0 -0.96592583 -0.25881905,
  0 -0.84327172 -0.5374875,0 -0.67542593 -0.73742784,
  0 -0.46155098 -0.88711369,0 -0.21622209 -0.9763442,
  0 -0.99144486 -0.13052619,0 -0.96592583 -0.25881905,
  0 -0.88711369 -0.46155098,0 -0.73742784 -0.67542593,
  0 -0.5374875 -0.84327172,0 -0.30091828 -0.95364993] }
}
}
DEF SHAPE_9 Shape {
 appearance USE APP_2
 geometry DEF FACE_9 IndexedFaceSet {
  coord DEF COORD_9 Coordinate { point [
  0 0.39370079 0.43307087,-0.31496063 0.39370079 0.43307087,
  0 0.23622047 0.59055118,0 0.24158648 0.54979228,
  0 0.25731883 0.51181102,0 0.28234539 0.47919578,
  0 0.31496063 0.45416923,0 0.35294188 0.43843688,
  -0.31496063 0.23622047 0.59055118,-0.31496063 0.24158648 0.54979228,
  -0.31496063 0.25731883 0.51181102,-0.31496063 0.28234539 0.47919578,
  -0.31496063 0.31496063 0.45416923,-0.31496063 0.35294188 0.43843688] }
 coordIndex [
  3,8,2,-1,3,9,8,-1,4,10,9,-1,4,9,3,-1,5,11,10,-1,5,10,4,-1,6,12,11,-1,6,11,5,-1,
  7,13,12,-1,7,1,13,-1,7,12,6,-1,0,1,7,-1]
  normalPerVertex TRUE
  normal DEF NORM_9 Normal { vector [
  0 0.13052619 0.99144486,0 0.13052619 0.99144486,
  0 0.99144486 0.13052619,0 0.9763442 0.21622209,
  0 0.88711369 0.46155098,0 0.73742784 0.67542593,
  0 0.5374875 0.84327172,0 0.25881905 0.96592583,
  0 0.99144486 0.13052619,0 0.95364993 0.30091828,
  0 0.84327172 0.5374875,0 0.67542593 0.73742784,
  0 0.46155098 0.88711369,0 0.25881905 0.96592583] }
}
}
DEF SHAPE_10 Shape {
 appearance USE APP_2
 geometry DEF FACE_10 IndexedFaceSet {
  coord DEF COORD_10 Coordinate { point [
  -0.39370079 0.23622047 -0.59055118,-0.39370079 0.15748031 -0.59055118,
  -0.39370079 0.23622047 -0.43307087,-0.39370079 0.2519685 -0.43307087,
  -0.39370079 0.2519685 -0.072834646,-0.39370079 0.13582677 -0.072834646,
  -0.39370079 0.1122557 -0.12338297,-0.39370079 0.10526966 -0.13478316,
  -0.39370079 0.095898178 -0.14431964,-0.39370079 0.084621648 -0.15150359,
  -0.39370079 0.072018099 -0.15596674,-0.39370079 0.058733588 -0.15748031,
  -0.39370079 0.049257892 -0.15748031,-0.39370079 0.044829721 -0.15697579,
  -0.39370079 0.040628538 -0.15548807,-0.39370079 0.036869695 -0.15309342,
  -0.39370079 0.033745869 -0.1499146,-0.39370079 0.031417187 -0.14611453,
  -0.39370079 0 -0.078740157,-0.39370079 0 -0.43307087,
  -0.39370079 0.15748031 -0.43307087] }
 coordIndex [
  4,6,5,-1,4,7,6,-1,19,12,11,-1,19,13,12,-1,19,14,13,-1,19,15,14,-1,19,16,15,-1,19,17,16,-1,
  19,18,17,-1,20,9,8,-1,20,10,9,-1,20,11,10,-1,20,19,11,-1,2,8,7,-1,2,7,4,-1,2,20,8,-1,
  3,2,4,-1,0,1,20,-1,0,20,2,-1]
  normalPerVertex TRUE
  normal DEF NORM_10 Normal { vector [
  -1 0 0,-1 0 0,
  -1 0 0,-1 0 0,
  -1 0 0,-1 0 0,
  -1 0 0,-1 0 0,
  -1 0 0,-1 0 0,
  -1 0 0,-1 0 0,
  -1 0 0,-1 0 0,
  -1 0 0,-1 0 0,
  -1 0 0,-1 0 0,
  -1 0 0,-1 0 0,
  -1 0 0] }
}
}
DEF SHAPE_11 Shape {
 appearance USE APP_2
 geometry DEF FACE_11 IndexedFaceSet {
  coord DEF COORD_11 Coordinate { point [
  -0.31496063 0.23622047 0.59055118,-0.39370079 0.23622047 0.59055118,
  0 0.23622047 0.59055118,0 0.15748031 0.59055118,
  -0.31496063 0.15748031 0.59055118,-0.39370079 0.15748031 0.59055118] }
 coordIndex [
  0,3,2,-1,0,4,3,-1,1,5,4,-1,1,4,0,-1]
  normalPerVertex TRUE
  normal DEF NORM_11 Normal { vector [
  0 0 1,0 0 1,
  0 0 1,0 0 1,
  0 0 1,0 0 1] }
}
}
DEF SHAPE_12 Shape {
 appearance USE APP_2
 geometry DEF FACE_12 IndexedFaceSet {
  coord DEF COORD_12 Coordinate { point [
  0 0.39370079 -0.43307087,0 0.35294188 -0.43843688,
  0 0.31496063 -0.45416923,0 0.28234539 -0.47919578,
  0 0.25731883 -0.51181102,0 0.24158648 -0.54979228,
  0 0.23622047 -0.59055118,0 0.39370079 0.43307087,
  0 0.23622047 0.59055118,0 0.24158648 0.54979228,
  0 0.25731883 0.51181102,0 0.28234539 0.47919578,
  0 0.31496063 0.45416923,0 0.35294188 0.43843688,
  0 0.15748031 0.59055118,0 0 0.43307087,
  0 0.040758905 0.43843688,0 0.078740157 0.45416923,
  0 0.1113554 0.47919578,0 0.13638195 0.51181102,
  0 0.1521143 0.54979228,0 0 -0.43307087,
  0 0.15748031 -0.59055118,0 0.1521143 -0.54979228,
  0 0.13638195 -0.51181102,0 0.1113554 -0.47919578,
  0 0.078740157 -0.45416923,0 0.040758905 -0.43843688] }
 coordIndex [
  9,8,14,-1,9,14,20,-1,10,20,19,-1,10,9,20,-1,11,19,18,-1,11,10,19,-1,12,18,17,-1,12,11,18,-1,
  13,17,16,-1,13,12,17,-1,27,16,15,-1,27,15,21,-1,4,25,24,-1,4,3,25,-1,2,26,25,-1,2,25,3,-1,
  1,27,26,-1,1,13,16,-1,1,16,27,-1,1,26,2,-1,5,24,23,-1,5,4,24,-1,6,23,22,-1,6,5,23,-1,
  0,7,13,-1,0,13,1,-1]
  normalPerVertex TRUE
  normal DEF NORM_12 Normal { vector [
  1 0 0,1 0 0,
  1 0 0,1 0 0,
  1 0 0,1 0 0,
  1 0 0,1 0 0,
  1 0 0,1 0 0,
  1 0 0,1 0 0,
  1 0 0,1 0 0,
  1 0 0,1 0 0,
  1 0 0,1 0 0,
  1 0 0,1 0 0,
  1 0 0,1 0 0,
  1 0 0,1 0 0,
  1 0 0,1 0 0,
  1 0 0,1 0 0] }
}
}
DEF SHAPE_13 Shape {
 appearance USE APP_2
 geometry DEF FACE_13 IndexedFaceSet {
  coord DEF COORD_13 Coordinate { point [
  0 0.23622047 -0.59055118,-0.31496063 0.23622047 -0.59055118,
  0 0.15748031 -0.59055118,-0.31496063 0.15748031 -0.59055118,
  -0.39370079 0.15748031 -0.59055118,-0.39370079 0.23622047 -0.59055118] }
 coordIndex [
  1,0,2,-1,1,2,3,-1,5,3,4,-1,5,1,3,-1]
  normalPerVertex TRUE
  normal DEF NORM_13 Normal { vector [
  0 0 -1,0 0 -1,
  0 0 -1,0 0 -1,
  0 0 -1,0 0 -1] }
}
}
DEF SHAPE_14 Shape {
 appearance USE APP_2
 geometry DEF FACE_14 IndexedFaceSet {
  coord DEF COORD_14 Coordinate { point [
  -0.39370079 0.39370079 -0.43307087,-0.31496063 0.39370079 -0.43307087,
  -0.39370079 0.39370079 0.43307087,-0.31496063 0.39370079 0.43307087,
  0 0.39370079 0.43307087,0 0.39370079 -0.43307087] }
 coordIndex [
  3,1,0,-1,3,0,2,-1,3,5,1,-1,4,5,3,-1]
  normalPerVertex TRUE
  normal DEF NORM_14 Normal { vector [
  0 1 0,0 1 0,
  0 1 0,0 1 0,
  0 1 0,0 1 0] }
}
}
DEF SHAPE_15 Shape {
 appearance USE APP_2
 geometry DEF FACE_15 IndexedFaceSet {
  coord DEF COORD_15 Coordinate { point [
  -0.31496063 0 0.43307087,-0.39370079 0 0.43307087,
  0 0 0.43307087,0 0 -0.43307087,
  -0.31496063 0 -0.43307087,-0.39370079 0 -0.43307087,
  -0.39370079 0 -0.078740157,-0.31496063 0 -0.078740157,
  -0.31496063 0 0.078740157,-0.39370079 0 0.078740157] }
 coordIndex [
  7,4,3,-1,7,5,4,-1,7,6,5,-1,0,9,8,-1,0,1,9,-1,2,8,7,-1,2,7,3,-1,2,0,8,-1]
  normalPerVertex TRUE
  normal DEF NORM_15 Normal { vector [
  0 -1 0,0 -1 0,
  0 -1 0,0 -1 0,
  0 -1 0,0 -1 0,
  0 -1 0,0 -1 0,
  0 -1 0,0 -1 0] }
}
}
DEF SHAPE_16 Shape {
 appearance USE APP_2
 geometry DEF FACE_16 IndexedFaceSet {
  coord DEF COORD_16 Coordinate { point [
  0 0 0.43307087,0 0.040758905 0.43843688,
  0 0.078740157 0.45416923,0 0.1113554 0.47919578,
  0 0.13638195 0.51181102,0 0.1521143 0.54979228,
  0 0.15748031 0.59055118,-0.31496063 0 0.43307087,
  -0.31496063 0.15748031 0.59055118,-0.31496063 0.1521143 0.54979228,
  -0.31496063 0.13638195 0.51181102,-0.31496063 0.1113554 0.47919578,
  -0.31496063 0.078740157 0.45416923,-0.31496063 0.040758905 0.43843688] }
 coordIndex [
  1,7,0,-1,1,13,7,-1,2,11,12,-1,2,12,13,-1,2,13,1,-1,3,10,11,-1,3,11,2,-1,4,9,10,-1,
  4,10,3,-1,5,9,4,-1,6,8,9,-1,6,9,5,-1]
  normalPerVertex TRUE
  normal DEF NORM_16 Normal { vector [
  0 -0.13052619 0.99144486,0 -0.21622209 0.9763442,
  0 -0.5 0.8660254,0 -0.73742784 0.67542593,
  0 -0.88711369 0.46155098,0 -0.96592583 0.25881905,
  0 -0.99144486 0.13052619,0 -0.13052619 0.99144486,
  0 -0.99144486 0.13052619,0 -0.96592583 0.25881905,
  0 -0.84327172 0.5374875,0 -0.67542593 0.73742784,
  0 -0.5 0.8660254,0 -0.30091828 0.95364993] }
}
}
DEF SHAPE_17 Shape {
 appearance USE APP_2
 geometry DEF FACE_17 IndexedFaceSet {
  coord DEF COORD_17 Coordinate { point [
  0 0.39370079 -0.43307087,0 0.35294188 -0.43843688,
  0 0.31496063 -0.45416923,0 0.28234539 -0.47919578,
  0 0.25731883 -0.51181102,0 0.24158648 -0.54979228,
  0 0.23622047 -0.59055118,-0.31496063 0.39370079 -0.43307087,
  -0.31496063 0.23622047 -0.59055118,-0.31496063 0.24158648 -0.54979228,
  -0.31496063 0.25731883 -0.51181102,-0.31496063 0.28234539 -0.47919578,
  -0.31496063 0.31496063 -0.45416923,-0.31496063 0.35294188 -0.43843688] }
 coordIndex [
  1,7,0,-1,1,12,13,-1,1,13,7,-1,2,12,1,-1,3,10,11,-1,3,11,12,-1,3,12,2,-1,4,10,3,-1,
  5,9,10,-1,5,10,4,-1,6,8,9,-1,6,9,5,-1]
  normalPerVertex TRUE
  normal DEF NORM_17 Normal { vector [
  0 0.13052619 -0.99144486,0 0.25881905 -0.96592583,
  0 0.5 -0.8660254,0 0.70710678 -0.70710678,
  0 0.8660254 -0.5,0 0.95364993 -0.30091828,
  0 0.99144486 -0.13052619,0 0.13052619 -0.99144486,
  0 0.99144486 -0.13052619,0 0.9763442 -0.21622209,
  0 0.8660254 -0.5,0 0.70710678 -0.70710678,
  0 0.5 -0.8660254,0 0.25881905 -0.96592583] }
}
}
DEF SHAPE_18 Shape {
 appearance USE APP_2
 geometry DEF FACE_18 IndexedFaceSet {
  coord DEF COORD_18 Coordinate { point [
  -0.31496063 0.23622047 -0.59055118,-0.31496063 0.24158648 -0.54979228,
  -0.31496063 0.25731883 -0.51181102,-0.31496063 0.28234539 -0.47919578,
  -0.31496063 0.31496063 -0.45416923,-0.31496063 0.35294188 -0.43843688,
  -0.31496063 0.39370079 -0.43307087,-0.31496063 0.36220472 -0.43307087,
  -0.31496063 0.36220472 -0.12771376,-0.31496063 0.38779528 -0.072834646,
  -0.31496063 0.38779528 0.072834646,-0.31496063 0.3536243 0.14611453,
  -0.31496063 0.3357836 0.15748031,-0.31496063 0.34021177 0.15697579,
  -0.31496063 0.34441295 0.15548807,-0.31496063 0.3481718 0.15309342,
  -0.31496063 0.35129562 0.1499146,-0.31496063 0.32906169 0.15748031,
  -0.31496063 0.27553957 0.12338297,-0.31496063 0.28252562 0.13478316,
  -0.31496063 0.2918971 0.14431964,-0.31496063 0.30317363 0.15150359,
  -0.31496063 0.31577718 0.15596674,-0.31496063 0.2519685 0.072834646,
  -0.31496063 0.13582677 0.072834646,-0.31496063 0.1122557 0.12338297,
  -0.31496063 0.058733588 0.15748031,-0.31496063 0.072018099 0.15596674,
  -0.31496063 0.084621648 0.15150359,-0.31496063 0.095898178 0.14431964,
  -0.31496063 0.10526966 0.13478316,-0.31496063 0.049257892 0.15748031,
  -0.31496063 0.031417187 0.14611453,-0.31496063 0.033745869 0.1499146,
  -0.31496063 0.036869695 0.15309342,-0.31496063 0.040628538 0.15548807,
  -0.31496063 0.044829721 0.15697579,-0.31496063 0 0.078740157,
  -0.31496063 0 -0.078740157,-0.31496063 0.031417187 -0.14611453,
  -0.31496063 0.049257892 -0.15748031,-0.31496063 0.044829721 -0.15697579,
  -0.31496063 0.040628538 -0.15548807,-0.31496063 0.036869695 -0.15309342,
  -0.31496063 0.033745869 -0.1499146,-0.31496063 0.058733588 -0.15748031,
  -0.31496063 0.1122557 -0.12338297,-0.31496063 0.10526966 -0.13478316,
  -0.31496063 0.095898178 -0.14431964,-0.31496063 0.084621648 -0.15150359,
  -0.31496063 0.072018099 -0.15596674,-0.31496063 0.13582677 -0.072834646,
  -0.31496063 0.2519685 -0.072834646,-0.31496063 0.2519685 -0.43307087,
  -0.31496063 0.23622047 -0.43307087] }
 coordIndex [
  31,32,33,-1,31,33,34,-1,31,34,35,-1,31,35,36,-1,26,32,31,-1,27,32,26,-1,28,32,27,-1,29,32,28,-1,
  30,32,29,-1,25,37,32,-1,25,32,30,-1,24,37,25,-1,15,12,13,-1,15,13,14,-1,41,42,43,-1,41,43,44,-1,
  41,44,39,-1,40,41,39,-1,11,12,15,-1,11,15,16,-1,11,17,12,-1,11,18,19,-1,11,19,20,-1,11,20,21,-1,
  11,21,22,-1,11,22,17,-1,51,38,37,-1,51,37,24,-1,45,40,39,-1,50,45,39,-1,46,38,51,-1,46,39,38,-1,
  49,50,39,-1,47,39,46,-1,48,49,39,-1,48,39,47,-1,10,23,18,-1,10,18,11,-1,52,24,23,-1,52,51,24,-1,
  9,23,10,-1,9,52,23,-1,8,52,9,-1,3,54,53,-1,4,3,53,-1,2,54,3,-1,1,54,2,-1,5,4,53,-1,
  7,53,8,-1,7,5,53,-1,6,5,7,-1,52,8,53,-1,54,1,0,-1]
  normalPerVertex TRUE
  normal DEF NORM_18 Normal { vector [
  -1 0 0,-1 0 0,
  -1 0 0,-1 0 0,
  -1 0 0,-1 0 0,
  -1 0 0,-1 0 0,
  -1 0 0,-1 0 0,
  -1 0 0,-1 0 0,
  -1 0 0,-1 0 0,
  0 0 1,-1 0 0,
  0 0 1,-1 0 0,
  -1 0 0,-1 0 0,
  -1 0 0,-1 0 0,
  -1 0 0,-1 0 0,
  -1 0 0,-1 0 0,
  -1 0 0,-1 0 0,
  -1 0 0,-1 0 0,
  -1 0 0,-1 0 0,
  -1 0 0,-1 0 0,
  -1 0 0,-1 0 0,
  0 0 1,-1 0 0,
  -1 0 0,-1 0 0,
  -1 0 0,-1 0 0,
  0 0 1,-1 0 0,
  -1 0 0,-1 0 0,
  -1 0 0,-1 0 0,
  -1 0 0,-1 0 0,
  -1 0 0,-1 0 0,
  -1 0 0,-1 0 0,
  -1 0 0] }
}
}
DEF SHAPE_19 Shape {
 appearance USE APP_2
 geometry DEF FACE_19 IndexedFaceSet {
  coord DEF COORD_19 Coordinate { point [
  -0.31496063 0.36220472 -0.43307087,-0.39370079 0.36220472 -0.43307087,
  -0.31496063 0.39370079 -0.43307087,-0.39370079 0.39370079 -0.43307087] }
 coordIndex [
  2,0,1,-1,2,1,3,-1]
  normalPerVertex TRUE
  normal DEF NORM_19 Normal { vector [
  0 0 -1,0 0 -1,
  0 0 -1,0 0 -1] }
}
}
DEF SHAPE_20 Shape {
 appearance USE APP_2
 geometry DEF FACE_20 IndexedFaceSet {
  coord DEF COORD_20 Coordinate { point [
  -0.31496063 0.36220472 -0.12771376,-0.39370079 0.36220472 -0.12771376,
  -0.31496063 0.36220472 -0.43307087,-0.39370079 0.36220472 -0.43307087] }
 coordIndex [
  0,3,2,-1,0,1,3,-1]
  normalPerVertex TRUE
  normal DEF NORM_20 Normal { vector [
  0 -1 0,0 -1 0,
  0 -1 0,0 -1 0] }
}
}
DEF SHAPE_21 Shape {
 appearance USE APP_2
 geometry DEF FACE_21 IndexedFaceSet {
  coord DEF COORD_21 Coordinate { point [
  -0.31496063 0.38779528 -0.072834646,-0.39370079 0.38779528 -0.072834646,
  -0.31496063 0.36220472 -0.12771376,-0.39370079 0.36220472 -0.12771376] }
 coordIndex [
  0,3,2,-1,0,1,3,-1]
  normalPerVertex TRUE
  normal DEF NORM_21 Normal { vector [
  0 -0.90630779 0.42261826,0 -0.90630779 0.42261826,
  0 -0.90630779 0.42261826,0 -0.90630779 0.42261826] }
}
}
DEF SHAPE_22 Shape {
 appearance USE APP_2
 geometry DEF FACE_22 IndexedFaceSet {
  coord DEF COORD_22 Coordinate { point [
  -0.31496063 0.38779528 0.072834646,-0.39370079 0.38779528 0.072834646,
  -0.31496063 0.38779528 -0.072834646,-0.39370079 0.38779528 -0.072834646] }
 coordIndex [
  0,3,2,-1,0,1,3,-1]
  normalPerVertex TRUE
  normal DEF NORM_22 Normal { vector [
  0 -1 0,0 -1 0,
  0 -1 0,0 -1 0] }
}
}
DEF SHAPE_23 Shape {
 appearance USE APP_2
 geometry DEF FACE_23 IndexedFaceSet {
  coord DEF COORD_23 Coordinate { point [
  -0.31496063 0.3536243 0.14611453,-0.39370079 0.3536243 0.14611453,
  -0.31496063 0.38779528 0.072834646,-0.39370079 0.38779528 0.072834646] }
 coordIndex [
  0,3,2,-1,0,1,3,-1]
  normalPerVertex TRUE
  normal DEF NORM_23 Normal { vector [
  0 -0.90630779 -0.42261826,0 -0.90630779 -0.42261826,
  0 -0.90630779 -0.42261826,0 -0.90630779 -0.42261826] }
}
}
DEF SHAPE_24 Shape {
 appearance USE APP_2
 geometry DEF FACE_24 IndexedFaceSet {
  coord DEF COORD_24 Coordinate { point [
  -0.31496063 0.3357836 0.15748031,-0.39370079 0.3357836 0.15748031,
  -0.31496063 0.34021177 0.15697579,-0.31496063 0.34441295 0.15548807,
  -0.31496063 0.3481718 0.15309342,-0.31496063 0.35129562 0.1499146,
  -0.31496063 0.3536243 0.14611453,-0.39370079 0.3536243 0.14611453,
  -0.39370079 0.34021177 0.15697579,-0.39370079 0.34441295 0.15548807,
  -0.39370079 0.3481718 0.15309342,-0.39370079 0.35129562 0.1499146] }
 coordIndex [
  8,0,1,-1,8,2,0,-1,9,3,2,-1,9,2,8,-1,10,4,3,-1,10,3,9,-1,11,5,4,-1,11,4,10,-1,
  7,6,5,-1,7,5,11,-1]
  normalPerVertex TRUE
  normal DEF NORM_24 Normal { vector [
  0 -0.11320321 -0.99357186,0 -0.11320321 -0.99357186,
  0 -0.26176749 -0.96513097,0 -0.47216563 -0.88150985,
  0 -0.65836063 -0.75270265,0 -0.81080814 -0.58531201,
  0 -0.85264016 -0.52249856,0 -0.85264016 -0.52249856,
  0 -0.18781051 -0.98220528,0 -0.40394505 -0.91478325,
  0 -0.59937342 -0.80046955,0 -0.76407799 -0.64512388] }
}
}
DEF SHAPE_25 Shape {
 appearance USE APP_2
 geometry DEF FACE_25 IndexedFaceSet {
  coord DEF COORD_25 Coordinate { point [
  -0.31496063 0.32906169 0.15748031,-0.39370079 0.32906169 0.15748031,
  -0.31496063 0.3357836 0.15748031,-0.39370079 0.3357836 0.15748031] }
 coordIndex [
  2,0,1,-1,2,1,3,-1]
  normalPerVertex TRUE
  normal DEF NORM_25 Normal { vector [
  0 0 -1,0 0 -1,
  0 0 -1,0 0 -1] }
}
}
DEF SHAPE_26 Shape {
 appearance USE APP_2
 geometry DEF FACE_26 IndexedFaceSet {
  coord DEF COORD_26 Coordinate { point [
  -0.31496063 0.27553957 0.12338297,-0.39370079 0.27553957 0.12338297,
  -0.31496063 0.28252562 0.13478316,-0.31496063 0.2918971 0.14431964,
  -0.31496063 0.30317363 0.15150359,-0.31496063 0.31577718 0.15596674,
  -0.31496063 0.32906169 0.15748031,-0.39370079 0.32906169 0.15748031,
  -0.39370079 0.28252562 0.13478316,-0.39370079 0.2918971 0.14431964,
  -0.39370079 0.30317363 0.15150359,-0.39370079 0.31577718 0.15596674] }
 coordIndex [
  8,0,1,-1,8,2,0,-1,9,3,2,-1,9,2,8,-1,10,4,3,-1,10,3,9,-1,11,5,4,-1,11,4,10,-1,
  7,6,5,-1,7,5,11,-1]
  normalPerVertex TRUE
  normal DEF NORM_26 Normal { vector [
  0 0.85264016 -0.52249856,0 0.85264016 -0.52249856,
  0 0.76407799 -0.64512388,0 0.59937342 -0.80046955,
  0 0.40394505 -0.91478325,0 0.18781051 -0.98220528,
  0 0.11320321 -0.99357186,0 0.11320321 -0.99357186,
  0 0.81080814 -0.58531201,0 0.65836063 -0.75270265,
  0 0.47216563 -0.88150985,0 0.26176749 -0.96513097] }
}
}
DEF SHAPE_27 Shape {
 appearance USE APP_2
 geometry DEF FACE_27 IndexedFaceSet {
  coord DEF COORD_27 Coordinate { point [
  -0.31496063 0.2519685 0.072834646,-0.39370079 0.2519685 0.072834646,
  -0.31496063 0.27553957 0.12338297,-0.39370079 0.27553957 0.12338297] }
 coordIndex [
  0,3,2,-1,0,1,3,-1]
  normalPerVertex TRUE
  normal DEF NORM_27 Normal { vector [
  0 0.90630779 -0.42261826,0 0.90630779 -0.42261826,
  0 0.90630779 -0.42261826,0 0.90630779 -0.42261826] }
}
}
DEF SHAPE_28 Shape {
 appearance USE APP_2
 geometry DEF FACE_28 IndexedFaceSet {
  coord DEF COORD_28 Coordinate { point [
  -0.31496063 0.13582677 0.072834646,-0.39370079 0.13582677 0.072834646,
  -0.31496063 0.2519685 0.072834646,-0.39370079 0.2519685 0.072834646] }
 coordIndex [
  2,0,1,-1,2,1,3,-1]
  normalPerVertex TRUE
  normal DEF NORM_28 Normal { vector [
  0 0 -1,0 0 -1,
  0 0 -1,0 0 -1] }
}
}
DEF SHAPE_29 Shape {
 appearance USE APP_2
 geometry DEF FACE_29 IndexedFaceSet {
  coord DEF COORD_29 Coordinate { point [
  -0.31496063 0.1122557 0.12338297,-0.39370079 0.1122557 0.12338297,
  -0.31496063 0.13582677 0.072834646,-0.39370079 0.13582677 0.072834646] }
 coordIndex [
  0,3,2,-1,0,1,3,-1]
  normalPerVertex TRUE
  normal DEF NORM_29 Normal { vector [
  0 -0.90630779 -0.42261826,0 -0.90630779 -0.42261826,
  0 -0.90630779 -0.42261826,0 -0.90630779 -0.42261826] }
}
}
DEF SHAPE_30 Shape {
 appearance USE APP_2
 geometry DEF FACE_30 IndexedFaceSet {
  coord DEF COORD_30 Coordinate { point [
  -0.31496063 0.058733588 0.15748031,-0.39370079 0.058733588 0.15748031,
  -0.31496063 0.072018099 0.15596674,-0.31496063 0.084621648 0.15150359,
  -0.31496063 0.095898178 0.14431964,-0.31496063 0.10526966 0.13478316,
  -0.31496063 0.1122557 0.12338297,-0.39370079 0.1122557 0.12338297,
  -0.39370079 0.072018099 0.15596674,-0.39370079 0.084621648 0.15150359,
  -0.39370079 0.095898178 0.14431964,-0.39370079 0.10526966 0.13478316] }
 coordIndex [
  8,0,1,-1,8,2,0,-1,9,3,2,-1,9,2,8,-1,10,4,3,-1,10,3,9,-1,11,5,4,-1,11,4,10,-1,
  7,6,5,-1,7,5,11,-1]
  normalPerVertex TRUE
  normal DEF NORM_30 Normal { vector [
  0 -0.11320321 -0.99357186,0 -0.11320321 -0.99357186,
  0 -0.26176749 -0.96513097,0 -0.47216563 -0.88150985,
  0 -0.65836063 -0.75270265,0 -0.81080814 -0.58531201,
  0 -0.85264016 -0.52249856,0 -0.85264016 -0.52249856,
  0 -0.18781051 -0.98220528,0 -0.40394505 -0.91478325,
  0 -0.59937342 -0.80046955,0 -0.76407799 -0.64512388] }
}
}
DEF SHAPE_31 Shape {
 appearance USE APP_2
 geometry DEF FACE_31 IndexedFaceSet {
  coord DEF COORD_31 Coordinate { point [
  -0.31496063 0.049257892 0.15748031,-0.39370079 0.049257892 0.15748031,
  -0.31496063 0.058733588 0.15748031,-0.39370079 0.058733588 0.15748031] }
 coordIndex [
  2,0,1,-1,2,1,3,-1]
  normalPerVertex TRUE
  normal DEF NORM_31 Normal { vector [
  0 0 -1,0 0 -1,
  0 0 -1,0 0 -1] }
}
}
DEF SHAPE_32 Shape {
 appearance USE APP_2
 geometry DEF FACE_32 IndexedFaceSet {
  coord DEF COORD_32 Coordinate { point [
  -0.31496063 0.031417187 0.14611453,-0.39370079 0.031417187 0.14611453,
  -0.31496063 0.033745869 0.1499146,-0.31496063 0.036869695 0.15309342,
  -0.31496063 0.040628538 0.15548807,-0.31496063 0.044829721 0.15697579,
  -0.31496063 0.049257892 0.15748031,-0.39370079 0.049257892 0.15748031,
  -0.39370079 0.033745869 0.1499146,-0.39370079 0.036869695 0.15309342,
  -0.39370079 0.040628538 0.15548807,-0.39370079 0.044829721 0.15697579] }
 coordIndex [
  8,0,1,-1,8,2,0,-1,9,3,2,-1,9,2,8,-1,10,4,3,-1,10,3,9,-1,11,5,4,-1,11,4,10,-1,
  7,6,5,-1,7,5,11,-1]
  normalPerVertex TRUE
  normal DEF NORM_32 Normal { vector [
  0 0.85264016 -0.52249856,0 0.85264016 -0.52249856,
  0 0.76407799 -0.64512388,0 0.59937342 -0.80046955,
  0 0.40394505 -0.91478325,0 0.18781051 -0.98220528,
  0 0.11320321 -0.99357186,0 0.11320321 -0.99357186,
  0 0.81080814 -0.58531201,0 0.65836063 -0.75270265,
  0 0.47216563 -0.88150985,0 0.26176749 -0.96513097] }
}
}
DEF SHAPE_33 Shape {
 appearance USE APP_2
 geometry DEF FACE_33 IndexedFaceSet {
  coord DEF COORD_33 Coordinate { point [
  -0.31496063 0 0.078740157,-0.39370079 0 0.078740157,
  -0.31496063 0.031417187 0.14611453,-0.39370079 0.031417187 0.14611453] }
 coordIndex [
  0,3,2,-1,0,1,3,-1]
  normalPerVertex TRUE
  normal DEF NORM_33 Normal { vector [
  0 0.90630779 -0.42261826,0 0.90630779 -0.42261826,
  0 0.90630779 -0.42261826,0 0.90630779 -0.42261826] }
}
}
DEF SHAPE_34 Shape {
 appearance USE APP_2
 geometry DEF FACE_34 IndexedFaceSet {
  coord DEF COORD_34 Coordinate { point [
  -0.31496063 0.031417187 -0.14611453,-0.39370079 0.031417187 -0.14611453,
  -0.31496063 0 -0.078740157,-0.39370079 0 -0.078740157] }
 coordIndex [
  0,3,2,-1,0,1,3,-1]
  normalPerVertex TRUE
  normal DEF NORM_34 Normal { vector [
  0 0.90630779 0.42261826,0 0.90630779 0.42261826,
  0 0.90630779 0.42261826,0 0.90630779 0.42261826] }
}
}
DEF SHAPE_35 Shape {
 appearance USE APP_2
 geometry DEF FACE_35 IndexedFaceSet {
  coord DEF COORD_35 Coordinate { point [
  -0.31496063 0.049257892 -0.15748031,-0.39370079 0.049257892 -0.15748031,
  -0.31496063 0.044829721 -0.15697579,-0.31496063 0.040628538 -0.15548807,
  -0.31496063 0.036869695 -0.15309342,-0.31496063 0.033745869 -0.1499146,
  -0.31496063 0.031417187 -0.14611453,-0.39370079 0.031417187 -0.14611453,
  -0.39370079 0.044829721 -0.15697579,-0.39370079 0.040628538 -0.15548807,
  -0.39370079 0.036869695 -0.15309342,-0.39370079 0.033745869 -0.1499146] }
 coordIndex [
  8,0,1,-1,8,2,0,-1,9,3,2,-1,9,2,8,-1,10,4,3,-1,10,3,9,-1,11,5,4,-1,11,4,10,-1,
  7,6,5,-1,7,5,11,-1]
  normalPerVertex TRUE
  normal DEF NORM_35 Normal { vector [
  0 0.11320321 0.99357186,0 0.11320321 0.99357186,
  0 0.26176749 0.96513097,0 0.47216563 0.88150985,
  0 0.65836063 0.75270265,0 0.81080814 0.58531201,
  0 0.85264016 0.52249856,0 0.85264016 0.52249856,
  0 0.18781051 0.98220528,0 0.40394505 0.91478325,
  0 0.59937342 0.80046955,0 0.76407799 0.64512388] }
}
}
DEF SHAPE_36 Shape {
 appearance USE APP_2
 geometry DEF FACE_36 IndexedFaceSet {
  coord DEF COORD_36 Coordinate { point [
  -0.31496063 0.058733588 -0.15748031,-0.39370079 0.058733588 -0.15748031,
  -0.31496063 0.049257892 -0.15748031,-0.39370079 0.049257892 -0.15748031] }
 coordIndex [
  1,2,0,-1,1,3,2,-1]
  normalPerVertex TRUE
  normal DEF NORM_36 Normal { vector [
  0 0 1,0 0 1,
  0 0 1,0 0 1] }
}
}
DEF SHAPE_37 Shape {
 appearance USE APP_2
 geometry DEF FACE_37 IndexedFaceSet {
  coord DEF COORD_37 Coordinate { point [
  -0.31496063 0.1122557 -0.12338297,-0.39370079 0.1122557 -0.12338297,
  -0.31496063 0.10526966 -0.13478316,-0.31496063 0.095898178 -0.14431964,
  -0.31496063 0.084621648 -0.15150359,-0.31496063 0.072018099 -0.15596674,
  -0.31496063 0.058733588 -0.15748031,-0.39370079 0.058733588 -0.15748031,
  -0.39370079 0.10526966 -0.13478316,-0.39370079 0.095898178 -0.14431964,
  -0.39370079 0.084621648 -0.15150359,-0.39370079 0.072018099 -0.15596674] }
 coordIndex [
  8,0,1,-1,8,2,0,-1,9,3,2,-1,9,2,8,-1,10,4,3,-1,10,3,9,-1,11,5,4,-1,11,4,10,-1,
  7,6,5,-1,7,5,11,-1]
  normalPerVertex TRUE
  normal DEF NORM_37 Normal { vector [
  0 -0.85264016 0.52249856,0 -0.85264016 0.52249856,
  0 -0.76407799 0.64512388,0 -0.59937342 0.80046955,
  0 -0.40394505 0.91478325,0 -0.18781051 0.98220528,
  0 -0.11320321 0.99357186,0 -0.11320321 0.99357186,
  0 -0.81080814 0.58531201,0 -0.65836063 0.75270265,
  0 -0.47216563 0.88150985,0 -0.26176749 0.96513097] }
}
}
DEF SHAPE_38 Shape {
 appearance USE APP_2
 geometry DEF FACE_38 IndexedFaceSet {
  coord DEF COORD_38 Coordinate { point [
  -0.31496063 0.13582677 -0.072834646,-0.39370079 0.13582677 -0.072834646,
  -0.31496063 0.1122557 -0.12338297,-0.39370079 0.1122557 -0.12338297] }
 coordIndex [
  0,3,2,-1,0,1,3,-1]
  normalPerVertex TRUE
  normal DEF NORM_38 Normal { vector [
  0 -0.90630779 0.42261826,0 -0.90630779 0.42261826,
  0 -0.90630779 0.42261826,0 -0.90630779 0.42261826] }
}
}
DEF SHAPE_39 Shape {
 appearance USE APP_2
 geometry DEF FACE_39 IndexedFaceSet {
  coord DEF COORD_39 Coordinate { point [
  -0.31496063 0.2519685 -0.072834646,-0.39370079 0.2519685 -0.072834646,
  -0.31496063 0.13582677 -0.072834646,-0.39370079 0.13582677 -0.072834646] }
 coordIndex [
  1,2,0,-1,1,3,2,-1]
  normalPerVertex TRUE
  normal DEF NORM_39 Normal { vector [
  0 0 1,0 0 1,
  0 0 1,0 0 1] }
}
}
DEF SHAPE_40 Shape {
 appearance USE APP_2
 geometry DEF FACE_40 IndexedFaceSet {
  coord DEF COORD_40 Coordinate { point [
  -0.31496063 0.2519685 -0.43307087,-0.39370079 0.2519685 -0.43307087,
  -0.31496063 0.2519685 -0.072834646,-0.39370079 0.2519685 -0.072834646] }
 coordIndex [
  0,3,2,-1,0,1,3,-1]
  normalPerVertex TRUE
  normal DEF NORM_40 Normal { vector [
  0 1 0,0 1 0,
  0 1 0,0 1 0] }
}
}
DEF SHAPE_41 Shape {
 appearance USE APP_2
 geometry DEF FACE_41 IndexedFaceSet {
  coord DEF COORD_41 Coordinate { point [
  -0.31496063 0.23622047 -0.43307087,-0.39370079 0.23622047 -0.43307087,
  -0.31496063 0.2519685 -0.43307087,-0.39370079 0.2519685 -0.43307087] }
 coordIndex [
  2,0,1,-1,2,1,3,-1]
  normalPerVertex TRUE
  normal DEF NORM_41 Normal { vector [
  0 0 -1,0 0 -1,
  0 0 -1,0 0 -1] }
}
}
DEF SHAPE_42 Shape {
 appearance USE APP_2
 geometry DEF FACE_42 IndexedFaceSet {
  coord DEF COORD_42 Coordinate { point [
  -0.31496063 0.23622047 -0.59055118,-0.39370079 0.23622047 -0.59055118,
  -0.31496063 0.23622047 -0.43307087,-0.39370079 0.23622047 -0.43307087] }
 coordIndex [
  0,3,2,-1,0,1,3,-1]
  normalPerVertex TRUE
  normal DEF NORM_42 Normal { vector [
  0 1 0,0 1 0,
  0 1 0,0 1 0] }
}
}
DEF SHAPE_43 Shape {
 appearance USE APP_2
 geometry DEF FACE_43 IndexedFaceSet {
  coord DEF COORD_43 Coordinate { point [
  -0.31496063 0.23622047 0.59055118,-0.31496063 0.24158648 0.54979228,
  -0.31496063 0.25731883 0.51181102,-0.31496063 0.28234539 0.47919578,
  -0.31496063 0.31496063 0.45416923,-0.31496063 0.35294188 0.43843688,
  -0.31496063 0.39370079 0.43307087,-0.31496063 0.23622047 0.43307087] }
 coordIndex [
  4,7,3,-1,2,3,7,-1,5,7,4,-1,1,2,7,-1,0,1,7,-1,6,7,5,-1]
  normalPerVertex TRUE
  normal DEF NORM_43 Normal { vector [
  -1 0 0,-1 0 0,
  -1 0 0,-1 0 0,
  -1 0 0,-1 0 0,
  -1 0 0,-1 0 0] }
}
}
DEF SHAPE_44 Shape {
 appearance USE APP_2
 geometry DEF FACE_44 IndexedFaceSet {
  coord DEF COORD_44 Coordinate { point [
  -0.31496063 0.39370079 0.43307087,-0.39370079 0.39370079 0.43307087,
  -0.31496063 0.23622047 0.43307087,-0.39370079 0.23622047 0.43307087] }
 coordIndex [
  1,2,0,-1,1,3,2,-1]
  normalPerVertex TRUE
  normal DEF NORM_44 Normal { vector [
  0 0 1,0 0 1,
  0 0 1,0 0 1] }
}
}
DEF SHAPE_45 Shape {
 appearance USE APP_2
 geometry DEF FACE_45 IndexedFaceSet {
  coord DEF COORD_45 Coordinate { point [
  -0.31496063 0.23622047 0.43307087,-0.39370079 0.23622047 0.43307087,
  -0.31496063 0.23622047 0.59055118,-0.39370079 0.23622047 0.59055118] }
 coordIndex [
  0,3,2,-1,0,1,3,-1]
  normalPerVertex TRUE
  normal DEF NORM_45 Normal { vector [
  0 1 0,0 1 0,
  0 1 0,0 1 0] }
}
}
DEF SHAPE_46 Shape {
 appearance USE APP_2
 geometry DEF FACE_46 IndexedFaceSet {
  coord DEF COORD_46 Coordinate { point [
  -0.31496063 0.15748031 0.59055118,-0.31496063 0.1521143 0.54979228,
  -0.31496063 0.13638195 0.51181102,-0.31496063 0.1113554 0.47919578,
  -0.31496063 0.078740157 0.45416923,-0.31496063 0.040758905 0.43843688,
  -0.31496063 0 0.43307087,-0.31496063 0.15748031 0.43307087] }
 coordIndex [
  7,3,2,-1,7,4,3,-1,7,5,4,-1,6,5,7,-1,7,1,0,-1,7,2,1,-1]
  normalPerVertex TRUE
  normal DEF NORM_46 Normal { vector [
  -1 0 0,-1 0 0,
  -1 0 0,-1 0 0,
  -1 0 0,-1 0 0,
  -1 0 0,-1 0 0] }
}
}
DEF SHAPE_47 Shape {
 appearance USE APP_2
 geometry DEF FACE_47 IndexedFaceSet {
  coord DEF COORD_47 Coordinate { point [
  -0.31496063 0.15748031 0.43307087,-0.39370079 0.15748031 0.43307087,
  -0.31496063 0 0.43307087,-0.39370079 0 0.43307087] }
 coordIndex [
  1,2,0,-1,1,3,2,-1]
  normalPerVertex TRUE
  normal DEF NORM_47 Normal { vector [
  0 0 1,0 0 1,
  0 0 1,0 0 1] }
}
}
DEF SHAPE_48 Shape {
 appearance USE APP_2
 geometry DEF FACE_48 IndexedFaceSet {
  coord DEF COORD_48 Coordinate { point [
  -0.39370079 0.15748031 0.59055118,-0.31496063 0.15748031 0.59055118,
  -0.31496063 0.15748031 0.43307087,-0.39370079 0.15748031 0.43307087] }
 coordIndex [
  1,3,2,-1,1,0,3,-1]
  normalPerVertex TRUE
  normal DEF NORM_48 Normal { vector [
  0 -1 0,0 -1 0,
  0 -1 0,0 -1 0] }
}
}
DEF SHAPE_49 Shape {
 appearance USE APP_2
 geometry DEF FACE_49 IndexedFaceSet {
  coord DEF COORD_49 Coordinate { point [
  -0.31496063 0.15748031 -0.59055118,-0.31496063 0.1521143 -0.54979228,
  -0.31496063 0.13638195 -0.51181102,-0.31496063 0.1113554 -0.47919578,
  -0.31496063 0.078740157 -0.45416923,-0.31496063 0.040758905 -0.43843688,
  -0.31496063 0 -0.43307087,-0.31496063 0.15748031 -0.43307087] }
 coordIndex [
  7,2,3,-1,7,3,4,-1,7,4,5,-1,6,7,5,-1,7,0,1,-1,7,1,2,-1]
  normalPerVertex TRUE
  normal DEF NORM_49 Normal { vector [
  -1 0 0,-1 0 0,
  -1 0 0,-1 0 0,
  -1 0 0,-1 0 0,
  -1 0 0,-1 0 0] }
}
}
DEF SHAPE_50 Shape {
 appearance USE APP_2
 geometry DEF FACE_50 IndexedFaceSet {
  coord DEF COORD_50 Coordinate { point [
  -0.39370079 0 -0.43307087,-0.31496063 0 -0.43307087,
  -0.31496063 0.15748031 -0.43307087,-0.39370079 0.15748031 -0.43307087] }
 coordIndex [
  2,1,0,-1,2,0,3,-1]
  normalPerVertex TRUE
  normal DEF NORM_50 Normal { vector [
  0 0 -1,0 0 -1,
  0 0 -1,0 0 -1] }
}
}
DEF SHAPE_51 Shape {
 appearance USE APP_2
 geometry DEF FACE_51 IndexedFaceSet {
  coord DEF COORD_51 Coordinate { point [
  -0.31496063 0.15748031 -0.43307087,-0.39370079 0.15748031 -0.43307087,
  -0.31496063 0.15748031 -0.59055118,-0.39370079 0.15748031 -0.59055118] }
 coordIndex [
  1,3,2,-1,0,1,2,-1]
  normalPerVertex TRUE
  normal DEF NORM_51 Normal { vector [
  0 -1 0,0 -1 0,
  0 -1 0,0 -1 0] }
}
}
] }
DEF TXFM_5 Transform {
  center 0 0 0
  rotation 0 0 1 0
  scale 1 1 1
  scaleOrientation 0 0 1 0
  translation 0 0 0
 children [
DEF SHAPE_52 Shape {
 appearance DEF APP_3 Appearance {
  material Material {
   ambientIntensity 0.14826217
   diffuseColor 1 0.62396038 0.2158605
   emissiveColor 0 0 0
   shininess 0.1
   specularColor 0.12 0.12 0.12
   transparency 0
} }
 geometry DEF FACE_52 IndexedFaceSet {
  coord DEF COORD_52 Coordinate { point [
  -0.31496063 0.39370079 -0.43307087,-0.31496063 0.35294188 -0.43843688,
  -0.31496063 0.31496063 -0.45416923,-0.31496063 0.28234539 -0.47919578,
  -0.31496063 0.25731883 -0.51181102,-0.31496063 0.24158648 -0.54979228,
  -0.31496063 0.23622047 -0.59055118,0 0.23622047 -0.59055118,
  0 0.39370079 -0.43307087,0 0.35294188 -0.43843688,
  0 0.31496063 -0.45416923,0 0.28234539 -0.47919578,
  0 0.25731883 -0.51181102,0 0.24158648 -0.54979228] }
 coordIndex [
  9,0,1,-1,9,1,2,-1,9,8,0,-1,10,2,3,-1,10,9,2,-1,11,3,4,-1,11,10,3,-1,12,4,5,-1,
  12,11,4,-1,13,12,5,-1,7,5,6,-1,7,13,5,-1]
  normalPerVertex TRUE
  normal DEF NORM_52 Normal { vector [
  0 -0.13052619 0.99144486,0 -0.25881905 0.96592583,
  0 -0.46155098 0.88711369,0 -0.67542593 0.73742784,
  0 -0.84327172 0.5374875,0 -0.96592583 0.25881905,
  0 -0.99144486 0.13052619,0 -0.99144486 0.13052619,
  0 -0.13052619 0.99144486,0 -0.25881905 0.96592583,
  0 -0.5374875 0.84327172,0 -0.73742784 0.67542593,
  0 -0.88711369 0.46155098,0 -0.96592583 0.25881905] }
}
}
DEF SHAPE_53 Shape {
 appearance USE APP_3
 geometry DEF FACE_53 IndexedFaceSet {
  coord DEF COORD_53 Coordinate { point [
  0 0.39370079 -0.49212598,0 0.39370079 -0.43307087,
  -0.39370079 0.39370079 -0.49212598,-0.39370079 0.39370079 -0.43307087,
  -0.31496063 0.39370079 -0.43307087] }
 coordIndex [
  4,2,3,-1,0,2,4,-1,1,0,4,-1]
  normalPerVertex TRUE
  normal DEF NORM_53 Normal { vector [
  0 1 0,0 1 0,
  0 1 0,0 1 0,
  0 1 0] }
}
}
DEF SHAPE_54 Shape {
 appearance USE APP_3
 geometry DEF FACE_54 IndexedFaceSet {
  coord DEF COORD_54 Coordinate { point [
  -0.39370079 0.39370079 -0.49212598,0 0.39370079 -0.49212598,
  -0.39370079 0.29527559 -0.59055118,-0.39370079 0.29862935 -0.56507687,
  -0.39370079 0.30846207 -0.54133858,-0.39370079 0.32410366 -0.52095406,
  -0.39370079 0.34448819 -0.50531246,-0.39370079 0.36822647 -0.49547974,
  0 0.29527559 -0.59055118,0 0.29862935 -0.56507687,
  0 0.30846207 -0.54133858,0 0.32410366 -0.52095406,
  0 0.34448819 -0.50531246,0 0.36822647 -0.49547974] }
 coordIndex [
  13,0,1,-1,13,7,0,-1,12,6,7,-1,12,7,13,-1,11,5,6,-1,11,6,12,-1,10,4,5,-1,10,5,11,-1,
  9,3,4,-1,9,4,10,-1,8,2,3,-1,8,3,9,-1]
  normalPerVertex TRUE
  normal DEF NORM_54 Normal { vector [
  0 0.13052619 -0.99144486,0 0.13052619 -0.99144486,
  0 0.99144486 -0.13052619,0 0.9763442 -0.21622209,
  0 0.88711369 -0.46155098,0 0.73742784 -0.67542593,
  0 0.5374875 -0.84327172,0 0.30091828 -0.95364993,
  0 0.99144486 -0.13052619,0 0.95364993 -0.30091828,
  0 0.84327172 -0.5374875,0 0.67542593 -0.73742784,
  0 0.46155098 -0.88711369,0 0.21622209 -0.9763442] }
}
}
DEF SHAPE_55 Shape {
 appearance USE APP_3
 geometry DEF FACE_55 IndexedFaceSet {
  coord DEF COORD_55 Coordinate { point [
  0 0.23622047 -0.59055118,0 0.29527559 -0.59055118,
  -0.31496063 0.23622047 -0.59055118,-0.39370079 0.23622047 -0.59055118,
  -0.39370079 0.29527559 -0.59055118] }
 coordIndex [
  2,1,0,-1,4,2,3,-1,4,1,2,-1]
  normalPerVertex TRUE
  normal DEF NORM_55 Normal { vector [
  0 0 -1,0 0 -1,
  0 0 -1,0 0 -1,
  0 0 -1] }
}
}
DEF SHAPE_56 Shape {
 appearance USE APP_3
 geometry DEF FACE_56 IndexedFaceSet {
  coord DEF COORD_56 Coordinate { point [
  -0.39370079 0.29527559 -0.59055118,-0.39370079 0.29862935 -0.56507687,
  -0.39370079 0.30846207 -0.54133858,-0.39370079 0.32410366 -0.52095406,
  -0.39370079 0.34448819 -0.50531246,-0.39370079 0.36822647 -0.49547974,
  -0.39370079 0.39370079 -0.49212598,-0.39370079 0.39370079 -0.43307087,
  -0.39370079 0.36220472 -0.43307087,-0.39370079 0.36220472 -0.12771376,
  -0.39370079 0.38779528 -0.072834646,-0.39370079 0.38779528 0.072834646,
  -0.39370079 0.3536243 0.14611453,-0.39370079 0.35129562 0.1499146,
  -0.39370079 0.3481718 0.15309342,-0.39370079 0.34441295 0.15548807,
  -0.39370079 0.34021177 0.15697579,-0.39370079 0.3357836 0.15748031,
  -0.39370079 0.32906169 0.15748031,-0.39370079 0.31577718 0.15596674,
  -0.39370079 0.30317363 0.15150359,-0.39370079 0.2918971 0.14431964,
  -0.39370079 0.28252562 0.13478316,-0.39370079 0.27553957 0.12338297,
  -0.39370079 0.2519685 0.072834646,-0.39370079 0.13582677 0.072834646,
  -0.39370079 0.1122557 0.12338297,-0.39370079 0.10526966 0.13478316,
  -0.39370079 0.095898178 0.14431964,-0.39370079 0.084621648 0.15150359,
  -0.39370079 0.072018099 0.15596674,-0.39370079 0.058733588 0.15748031,
  -0.39370079 0.049257892 0.15748031,-0.39370079 0.044829721 0.15697579,
  -0.39370079 0.040628538 0.15548807,-0.39370079 0.036869695 0.15309342,
  -0.39370079 0.033745869 0.1499146,-0.39370079 0.031417187 0.14611453,
  -0.39370079 0 0.078740157,-0.39370079 0 -0.078740157,
  -0.39370079 0.031417187 -0.14611453,-0.39370079 0.033745869 -0.1499146,
  -0.39370079 0.036869695 -0.15309342,-0.39370079 0.040628538 -0.15548807,
  -0.39370079 0.044829721 -0.15697579,-0.39370079 0.049257892 -0.15748031,
  -0.39370079 0.058733588 -0.15748031,-0.39370079 0.072018099 -0.15596674,
  -0.39370079 0.084621648 -0.15150359,-0.39370079 0.095898178 -0.14431964,
  -0.39370079 0.10526966 -0.13478316,-0.39370079 0.1122557 -0.12338297,
  -0.39370079 0.13582677 -0.072834646,-0.39370079 0.2519685 -0.072834646,
  -0.39370079 0.2519685 -0.43307087,-0.39370079 0.23622047 -0.43307087,
  -0.39370079 0.23622047 -0.59055118] }
 coordIndex [
  32,34,33,-1,32,35,34,-1,32,36,35,-1,32,37,36,-1,31,37,32,-1,30,37,31,-1,29,37,30,-1,28,37,29,-1,
  27,37,28,-1,26,38,37,-1,26,37,27,-1,25,38,26,-1,15,17,16,-1,14,17,15,-1,45,41,40,-1,45,42,41,-1,
  45,43,42,-1,45,44,43,-1,12,17,14,-1,12,14,13,-1,12,18,17,-1,12,19,18,-1,12,20,19,-1,12,21,20,-1,
  12,22,21,-1,12,23,22,-1,52,39,38,-1,52,38,25,-1,46,45,40,-1,47,46,40,-1,51,39,52,-1,51,40,39,-1,
  48,47,40,-1,50,40,51,-1,49,48,40,-1,49,40,50,-1,11,23,12,-1,11,24,23,-1,53,25,24,-1,53,52,25,-1,
  10,53,24,-1,10,24,11,-1,9,53,10,-1,8,54,9,-1,2,55,54,-1,2,56,55,-1,2,54,3,-1,4,54,8,-1,
  4,3,54,-1,1,56,2,-1,5,4,8,-1,0,56,1,-1,6,8,7,-1,6,5,8,-1,53,9,54,-1]
  normalPerVertex TRUE
  normal DEF NORM_56 Normal { vector [
  -1 0 0,-1 0 0,
  -1 0 0,-1 0 0,
  -1 0 0,-1 0 0,
  -1 0 0,-1 0 0,
  -1 0 0,-1 0 0,
  -1 0 0,-1 0 0,
  -1 0 0,0 0 1,
  -1 0 0,-1 0 0,
  0 0 1,-1 0 0,
  -1 0 0,-1 0 0,
  -1 0 0,-1 0 0,
  -1 0 0,-1 0 0,
  -1 0 0,-1 0 0,
  -1 0 0,-1 0 0,
  -1 0 0,-1 0 0,
  -1 0 0,-1 0 0,
  -1 0 0,0 0 1,
  -1 0 0,-1 0 0,
  -1 0 0,-1 0 0,
  -1 0 0,-1 0 0,
  -1 0 0,-1 0 0,
  -1 0 0,-1 0 0,
  0 0 1,-1 0 0,
  -1 0 0,-1 0 0,
  -1 0 0,-1 0 0,
  -1 0 0,-1 0 0,
  -1 0 0,-1 0 0,
  -1 0 0,-1 0 0,
  -1 0 0] }
}
}
DEF SHAPE_57 Shape {
 appearance USE APP_3
 geometry DEF FACE_57 IndexedFaceSet {
  coord DEF COORD_57 Coordinate { point [
  0 0.39370079 -0.43307087,0 0.35294188 -0.43843688,
  0 0.31496063 -0.45416923,0 0.28234539 -0.47919578,
  0 0.25731883 -0.51181102,0 0.24158648 -0.54979228,
  0 0.23622047 -0.59055118,0 0.29527559 -0.59055118,
  0 0.29862935 -0.56507687,0 0.30846207 -0.54133858,
  0 0.32410366 -0.52095406,0 0.34448819 -0.50531246,
  0 0.36822647 -0.49547974,0 0.39370079 -0.49212598] }
 coordIndex [
  11,2,3,-1,11,3,10,-1,9,3,4,-1,9,10,3,-1,8,4,5,-1,8,9,4,-1,12,1,2,-1,12,2,11,-1,
  13,0,1,-1,13,1,12,-1,7,5,6,-1,7,8,5,-1]
  normalPerVertex TRUE
  normal DEF NORM_57 Normal { vector [
  1 0 0,1 0 0,
  1 0 0,1 0 0,
  1 0 0,1 0 0,
  1 0 0,1 0 0,
  1 0 0,1 0 0,
  1 0 0,1 0 0,
  1 0 0,1 0 0] }
}
}
DEF SHAPE_58 Shape {
 appearance USE APP_3
 geometry DEF FACE_58 IndexedFaceSet {
  coord DEF COORD_58 Coordinate { point [
  -0.31496063 0.3536243 0.14611453,-0.31496063 0.35129562 0.1499146,
  -0.31496063 0.3481718 0.15309342,-0.31496063 0.34441295 0.15548807,
  -0.31496063 0.34021177 0.15697579,-0.31496063 0.3357836 0.15748031,
  -0.39370079 0.3536243 0.14611453,-0.39370079 0.35129562 0.1499146,
  -0.39370079 0.3481718 0.15309342,-0.39370079 0.34441295 0.15548807,
  -0.39370079 0.34021177 0.15697579,-0.39370079 0.3357836 0.15748031] }
 coordIndex [
  11,5,4,-1,10,4,3,-1,10,11,4,-1,9,3,2,-1,9,10,3,-1,8,2,1,-1,8,9,2,-1,7,1,0,-1,
  7,8,1,-1,6,7,0,-1]
  normalPerVertex TRUE
  normal DEF NORM_58 Normal { vector [
  0 0.85264016 0.52249856,0 0.76407799 0.64512388,
  0 0.59937342 0.80046955,0 0.40394505 0.91478325,
  0 0.18781051 0.98220528,0 0.11320321 0.99357186,
  0 0.85264016 0.52249856,0 0.81080814 0.58531201,
  0 0.65836063 0.75270265,0 0.47216563 0.88150985,
  0 0.26176749 0.96513097,0 0.11320321 0.99357186] }
}
}
DEF SHAPE_59 Shape {
 appearance USE APP_3
 geometry DEF FACE_59 IndexedFaceSet {
  coord DEF COORD_59 Coordinate { point [
  -0.31496063 0.32906169 0.15748031,-0.39370079 0.32906169 0.15748031,
  -0.39370079 0.3357836 0.15748031,-0.31496063 0.3357836 0.15748031] }
 coordIndex [
  2,1,0,-1,2,0,3,-1]
  normalPerVertex TRUE
  normal DEF NORM_59 Normal { vector [
  0 0 1,0 0 1,
  0 0 1,0 0 1] }
}
}
DEF SHAPE_60 Shape {
 appearance USE APP_3
 geometry DEF FACE_60 IndexedFaceSet {
  coord DEF COORD_60 Coordinate { point [
  -0.31496063 0.32906169 0.15748031,-0.31496063 0.31577718 0.15596674,
  -0.31496063 0.30317363 0.15150359,-0.31496063 0.2918971 0.14431964,
  -0.31496063 0.28252562 0.13478316,-0.31496063 0.27553957 0.12338297,
  -0.39370079 0.32906169 0.15748031,-0.39370079 0.31577718 0.15596674,
  -0.39370079 0.30317363 0.15150359,-0.39370079 0.2918971 0.14431964,
  -0.39370079 0.28252562 0.13478316,-0.39370079 0.27553957 0.12338297] }
 coordIndex [
  11,5,4,-1,10,11,4,-1,9,4,3,-1,9,10,4,-1,8,3,2,-1,8,9,3,-1,7,2,1,-1,7,8,2,-1,
  6,1,0,-1,6,7,1,-1]
  normalPerVertex TRUE
  normal DEF NORM_60 Normal { vector [
  0 -0.11320321 0.99357186,0 -0.18781051 0.98220528,
  0 -0.40394505 0.91478325,0 -0.59937342 0.80046955,
  0 -0.78801075 0.61566148,0 -0.85264016 0.52249856,
  0 -0.11320321 0.99357186,0 -0.26176749 0.96513097,
  0 -0.47216563 0.88150985,0 -0.65836063 0.75270265,
  0 -0.78801075 0.61566148,0 -0.85264016 0.52249856] }
}
}
DEF SHAPE_61 Shape {
 appearance USE APP_3
 geometry DEF FACE_61 IndexedFaceSet {
  coord DEF COORD_61 Coordinate { point [
  -0.31496063 0.2519685 0.072834646,-0.39370079 0.2519685 0.072834646,
  -0.39370079 0.27553957 0.12338297,-0.31496063 0.27553957 0.12338297] }
 coordIndex [
  3,1,0,-1,3,2,1,-1]
  normalPerVertex TRUE
  normal DEF NORM_61 Normal { vector [
  0 -0.90630779 0.42261826,0 -0.90630779 0.42261826,
  0 -0.90630779 0.42261826,0 -0.90630779 0.42261826] }
}
}
DEF SHAPE_62 Shape {
 appearance USE APP_3
 geometry DEF FACE_62 IndexedFaceSet {
  coord DEF COORD_62 Coordinate { point [
  -0.31496063 0.13582677 0.072834646,-0.39370079 0.13582677 0.072834646,
  -0.39370079 0.2519685 0.072834646,-0.31496063 0.2519685 0.072834646] }
 coordIndex [
  2,1,0,-1,2,0,3,-1]
  normalPerVertex TRUE
  normal DEF NORM_62 Normal { vector [
  0 0 1,0 0 1,
  0 0 1,0 0 1] }
}
}
DEF SHAPE_63 Shape {
 appearance USE APP_3
 geometry DEF FACE_63 IndexedFaceSet {
  coord DEF COORD_63 Coordinate { point [
  -0.31496063 0.1122557 0.12338297,-0.39370079 0.1122557 0.12338297,
  -0.39370079 0.13582677 0.072834646,-0.31496063 0.13582677 0.072834646] }
 coordIndex [
  3,1,0,-1,3,2,1,-1]
  normalPerVertex TRUE
  normal DEF NORM_63 Normal { vector [
  0 0.90630779 0.42261826,0 0.90630779 0.42261826,
  0 0.90630779 0.42261826,0 0.90630779 0.42261826] }
}
}
DEF SHAPE_64 Shape {
 appearance USE APP_3
 geometry DEF FACE_64 IndexedFaceSet {
  coord DEF COORD_64 Coordinate { point [
  -0.31496063 0.1122557 0.12338297,-0.31496063 0.10526966 0.13478316,
  -0.31496063 0.095898178 0.14431964,-0.31496063 0.084621648 0.15150359,
  -0.31496063 0.072018099 0.15596674,-0.31496063 0.058733588 0.15748031,
  -0.39370079 0.1122557 0.12338297,-0.39370079 0.10526966 0.13478316,
  -0.39370079 0.095898178 0.14431964,-0.39370079 0.084621648 0.15150359,
  -0.39370079 0.072018099 0.15596674,-0.39370079 0.058733588 0.15748031] }
 coordIndex [
  11,5,4,-1,10,11,4,-1,9,4,3,-1,9,10,4,-1,8,3,2,-1,8,9,3,-1,7,2,1,-1,7,8,2,-1,
  6,1,0,-1,6,7,1,-1]
  normalPerVertex TRUE
  normal DEF NORM_64 Normal { vector [
  0 0.85264016 0.52249856,0 0.81080814 0.58531201,
  0 0.65836063 0.75270265,0 0.47216563 0.88150985,
  0 0.22495105 0.97437006,0 0.11320321 0.99357186,
  0 0.85264016 0.52249856,0 0.76407799 0.64512388,
  0 0.59937342 0.80046955,0 0.40394505 0.91478325,
  0 0.22495105 0.97437006,0 0.11320321 0.99357186] }
}
}
DEF SHAPE_65 Shape {
 appearance USE APP_3
 geometry DEF FACE_65 IndexedFaceSet {
  coord DEF COORD_65 Coordinate { point [
  -0.31496063 0.049257892 0.15748031,-0.39370079 0.049257892 0.15748031,
  -0.39370079 0.058733588 0.15748031,-0.31496063 0.058733588 0.15748031] }
 coordIndex [
  2,1,0,-1,2,0,3,-1]
  normalPerVertex TRUE
  normal DEF NORM_65 Normal { vector [
  0 0 1,0 0 1,
  0 0 1,0 0 1] }
}
}
DEF SHAPE_66 Shape {
 appearance USE APP_3
 geometry DEF FACE_66 IndexedFaceSet {
  coord DEF COORD_66 Coordinate { point [
  -0.31496063 0.049257892 0.15748031,-0.31496063 0.044829721 0.15697579,
  -0.31496063 0.040628538 0.15548807,-0.31496063 0.036869695 0.15309342,
  -0.31496063 0.033745869 0.1499146,-0.31496063 0.031417187 0.14611453,
  -0.39370079 0.049257892 0.15748031,-0.39370079 0.044829721 0.15697579,
  -0.39370079 0.040628538 0.15548807,-0.39370079 0.036869695 0.15309342,
  -0.39370079 0.033745869 0.1499146,-0.39370079 0.031417187 0.14611453] }
 coordIndex [
  11,5,4,-1,10,11,4,-1,9,4,3,-1,9,10,4,-1,8,3,2,-1,8,9,3,-1,7,2,1,-1,7,8,2,-1,
  6,1,0,-1,6,7,1,-1]
  normalPerVertex TRUE
  normal DEF NORM_66 Normal { vector [
  0 -0.11320321 0.99357186,0 -0.18781051 0.98220528,
  0 -0.40394505 0.91478325,0 -0.59937342 0.80046955,
  0 -0.78801075 0.61566148,0 -0.85264016 0.52249856,
  0 -0.11320321 0.99357186,0 -0.26176749 0.96513097,
  0 -0.47216563 0.88150985,0 -0.65836063 0.75270265,
  0 -0.78801075 0.61566148,0 -0.85264016 0.52249856] }
}
}
DEF SHAPE_67 Shape {
 appearance USE APP_3
 geometry DEF FACE_67 IndexedFaceSet {
  coord DEF COORD_67 Coordinate { point [
  -0.31496063 0 0.078740157,-0.39370079 0 0.078740157,
  -0.39370079 0.031417187 0.14611453,-0.31496063 0.031417187 0.14611453] }
 coordIndex [
  3,1,0,-1,3,2,1,-1]
  normalPerVertex TRUE
  normal DEF NORM_67 Normal { vector [
  0 -0.90630779 0.42261826,0 -0.90630779 0.42261826,
  0 -0.90630779 0.42261826,0 -0.90630779 0.42261826] }
}
}
DEF SHAPE_68 Shape {
 appearance USE APP_3
 geometry DEF FACE_68 IndexedFaceSet {
  coord DEF COORD_68 Coordinate { point [
  -0.31496063 0 -0.078740157,-0.39370079 0 -0.078740157,
  -0.31496063 0 0.078740157,-0.39370079 0 0.078740157] }
 coordIndex [
  0,2,3,-1,0,3,1,-1]
  normalPerVertex TRUE
  normal DEF NORM_68 Normal { vector [
  0 -1 0,0 -1 0,
  0 -1 0,0 -1 0] }
}
}
DEF SHAPE_69 Shape {
 appearance USE APP_3
 geometry DEF FACE_69 IndexedFaceSet {
  coord DEF COORD_69 Coordinate { point [
  -0.31496063 0.031417187 -0.14611453,-0.39370079 0.031417187 -0.14611453,
  -0.39370079 0 -0.078740157,-0.31496063 0 -0.078740157] }
 coordIndex [
  3,1,0,-1,3,2,1,-1]
  normalPerVertex TRUE
  normal DEF NORM_69 Normal { vector [
  0 -0.90630779 -0.42261826,0 -0.90630779 -0.42261826,
  0 -0.90630779 -0.42261826,0 -0.90630779 -0.42261826] }
}
}
DEF SHAPE_70 Shape {
 appearance USE APP_3
 geometry DEF FACE_70 IndexedFaceSet {
  coord DEF COORD_70 Coordinate { point [
  -0.31496063 0.031417187 -0.14611453,-0.31496063 0.033745869 -0.1499146,
  -0.31496063 0.036869695 -0.15309342,-0.31496063 0.040628538 -0.15548807,
  -0.31496063 0.044829721 -0.15697579,-0.31496063 0.049257892 -0.15748031,
  -0.39370079 0.031417187 -0.14611453,-0.39370079 0.033745869 -0.1499146,
  -0.39370079 0.036869695 -0.15309342,-0.39370079 0.040628538 -0.15548807,
  -0.39370079 0.044829721 -0.15697579,-0.39370079 0.049257892 -0.15748031] }
 coordIndex [
  11,5,4,-1,10,4,3,-1,10,11,4,-1,9,3,2,-1,9,10,3,-1,8,9,2,-1,7,2,1,-1,7,8,2,-1,
  6,1,0,-1,6,7,1,-1]
  normalPerVertex TRUE
  normal DEF NORM_70 Normal { vector [
  0 -0.85264016 -0.52249856,0 -0.81080814 -0.58531201,
  0 -0.62932039 -0.77714596,0 -0.40394505 -0.91478325,
  0 -0.18781051 -0.98220528,0 -0.11320321 -0.99357186,
  0 -0.85264016 -0.52249856,0 -0.76407799 -0.64512388,
  0 -0.62932039 -0.77714596,0 -0.47216563 -0.88150985,
  0 -0.26176749 -0.96513097,0 -0.11320321 -0.99357186] }
}
}
DEF SHAPE_71 Shape {
 appearance USE APP_3
 geometry DEF FACE_71 IndexedFaceSet {
  coord DEF COORD_71 Coordinate { point [
  -0.31496063 0.058733588 -0.15748031,-0.39370079 0.058733588 -0.15748031,
  -0.39370079 0.049257892 -0.15748031,-0.31496063 0.049257892 -0.15748031] }
 coordIndex [
  0,2,1,-1,0,3,2,-1]
  normalPerVertex TRUE
  normal DEF NORM_71 Normal { vector [
  0 0 -1,0 0 -1,
  0 0 -1,0 0 -1] }
}
}
DEF SHAPE_72 Shape {
 appearance USE APP_3
 geometry DEF FACE_72 IndexedFaceSet {
  coord DEF COORD_72 Coordinate { point [
  -0.31496063 0.058733588 -0.15748031,-0.31496063 0.072018099 -0.15596674,
  -0.31496063 0.084621648 -0.15150359,-0.31496063 0.095898178 -0.14431964,
  -0.31496063 0.10526966 -0.13478316,-0.31496063 0.1122557 -0.12338297,
  -0.39370079 0.058733588 -0.15748031,-0.39370079 0.072018099 -0.15596674,
  -0.39370079 0.084621648 -0.15150359,-0.39370079 0.095898178 -0.14431964,
  -0.39370079 0.10526966 -0.13478316,-0.39370079 0.1122557 -0.12338297] }
 coordIndex [
  11,5,4,-1,10,11,4,-1,9,4,3,-1,9,10,4,-1,8,3,2,-1,8,9,3,-1,7,2,1,-1,7,8,2,-1,
  6,1,0,-1,6,7,1,-1]
  normalPerVertex TRUE
  normal DEF NORM_72 Normal { vector [
  0 0.11320321 -0.99357186,0 0.18781051 -0.98220528,
  0 0.40394505 -0.91478325,0 0.59937342 -0.80046955,
  0 0.78801075 -0.61566148,0 0.85264016 -0.52249856,
  0 0.11320321 -0.99357186,0 0.26176749 -0.96513097,
  0 0.47216563 -0.88150985,0 0.65836063 -0.75270265,
  0 0.78801075 -0.61566148,0 0.85264016 -0.52249856] }
}
}
DEF SHAPE_73 Shape {
 appearance USE APP_3
 geometry DEF FACE_73 IndexedFaceSet {
  coord DEF COORD_73 Coordinate { point [
  -0.31496063 0.13582677 -0.072834646,-0.39370079 0.13582677 -0.072834646,
  -0.39370079 0.1122557 -0.12338297,-0.31496063 0.1122557 -0.12338297] }
 coordIndex [
  3,1,0,-1,3,2,1,-1]
  normalPerVertex TRUE
  normal DEF NORM_73 Normal { vector [
  0 0.90630779 -0.42261826,0 0.90630779 -0.42261826,
  0 0.90630779 -0.42261826,0 0.90630779 -0.42261826] }
}
}
DEF SHAPE_74 Shape {
 appearance USE APP_3
 geometry DEF FACE_74 IndexedFaceSet {
  coord DEF COORD_74 Coordinate { point [
  -0.31496063 0.2519685 -0.072834646,-0.39370079 0.2519685 -0.072834646,
  -0.39370079 0.13582677 -0.072834646,-0.31496063 0.13582677 -0.072834646] }
 coordIndex [
  0,2,1,-1,0,3,2,-1]
  normalPerVertex TRUE
  normal DEF NORM_74 Normal { vector [
  0 0 -1,0 0 -1,
  0 0 -1,0 0 -1] }
}
}
DEF SHAPE_75 Shape {
 appearance USE APP_3
 geometry DEF FACE_75 IndexedFaceSet {
  coord DEF COORD_75 Coordinate { point [
  -0.31496063 0.2519685 -0.43307087,-0.39370079 0.2519685 -0.43307087,
  -0.39370079 0.2519685 -0.072834646,-0.31496063 0.2519685 -0.072834646] }
 coordIndex [
  3,1,0,-1,3,2,1,-1]
  normalPerVertex TRUE
  normal DEF NORM_75 Normal { vector [
  0 -1 0,0 -1 0,
  0 -1 0,0 -1 0] }
}
}
DEF SHAPE_76 Shape {
 appearance USE APP_3
 geometry DEF FACE_76 IndexedFaceSet {
  coord DEF COORD_76 Coordinate { point [
  -0.31496063 0.23622047 -0.43307087,-0.39370079 0.23622047 -0.43307087,
  -0.31496063 0.2519685 -0.43307087,-0.39370079 0.2519685 -0.43307087] }
 coordIndex [
  0,3,1,-1,2,3,0,-1]
  normalPerVertex TRUE
  normal DEF NORM_76 Normal { vector [
  0 0 1,0 0 1,
  0 0 1,0 0 1] }
}
}
DEF SHAPE_77 Shape {
 appearance USE APP_3
 geometry DEF FACE_77 IndexedFaceSet {
  coord DEF COORD_77 Coordinate { point [
  -0.39370079 0.23622047 -0.59055118,-0.31496063 0.23622047 -0.59055118,
  -0.31496063 0.23622047 -0.43307087,-0.39370079 0.23622047 -0.43307087] }
 coordIndex [
  1,2,3,-1,1,3,0,-1]
  normalPerVertex TRUE
  normal DEF NORM_77 Normal { vector [
  0 -1 0,0 -1 0,
  0 -1 0,0 -1 0] }
}
}
DEF SHAPE_78 Shape {
 appearance USE APP_3
 geometry DEF FACE_78 IndexedFaceSet {
  coord DEF COORD_78 Coordinate { point [
  -0.31496063 0.36220472 -0.43307087,-0.39370079 0.36220472 -0.43307087,
  -0.31496063 0.39370079 -0.43307087,-0.39370079 0.39370079 -0.43307087] }
 coordIndex [
  2,1,0,-1,2,3,1,-1]
  normalPerVertex TRUE
  normal DEF NORM_78 Normal { vector [
  0 0 1,0 0 1,
  0 0 1,0 0 1] }
}
}
DEF SHAPE_79 Shape {
 appearance USE APP_3
 geometry DEF FACE_79 IndexedFaceSet {
  coord DEF COORD_79 Coordinate { point [
  -0.31496063 0.36220472 -0.12771376,-0.39370079 0.36220472 -0.12771376,
  -0.39370079 0.36220472 -0.43307087,-0.31496063 0.36220472 -0.43307087] }
 coordIndex [
  3,1,0,-1,3,2,1,-1]
  normalPerVertex TRUE
  normal DEF NORM_79 Normal { vector [
  0 1 0,0 1 0,
  0 1 0,0 1 0] }
}
}
DEF SHAPE_80 Shape {
 appearance USE APP_3
 geometry DEF FACE_80 IndexedFaceSet {
  coord DEF COORD_80 Coordinate { point [
  -0.31496063 0.38779528 -0.072834646,-0.39370079 0.38779528 -0.072834646,
  -0.39370079 0.36220472 -0.12771376,-0.31496063 0.36220472 -0.12771376] }
 coordIndex [
  3,1,0,-1,3,2,1,-1]
  normalPerVertex TRUE
  normal DEF NORM_80 Normal { vector [
  0 0.90630779 -0.42261826,0 0.90630779 -0.42261826,
  0 0.90630779 -0.42261826,0 0.90630779 -0.42261826] }
}
}
DEF SHAPE_81 Shape {
 appearance USE APP_3
 geometry DEF FACE_81 IndexedFaceSet {
  coord DEF COORD_81 Coordinate { point [
  -0.31496063 0.38779528 0.072834646,-0.39370079 0.38779528 0.072834646,
  -0.39370079 0.38779528 -0.072834646,-0.31496063 0.38779528 -0.072834646] }
 coordIndex [
  3,1,0,-1,3,2,1,-1]
  normalPerVertex TRUE
  normal DEF NORM_81 Normal { vector [
  0 1 0,0 1 0,
  0 1 0,0 1 0] }
}
}
DEF SHAPE_82 Shape {
 appearance USE APP_3
 geometry DEF FACE_82 IndexedFaceSet {
  coord DEF COORD_82 Coordinate { point [
  -0.31496063 0.3536243 0.14611453,-0.39370079 0.3536243 0.14611453,
  -0.39370079 0.38779528 0.072834646,-0.31496063 0.38779528 0.072834646] }
 coordIndex [
  3,1,0,-1,3,2,1,-1]
  normalPerVertex TRUE
  normal DEF NORM_82 Normal { vector [
  0 0.90630779 0.42261826,0 0.90630779 0.42261826,
  0 0.90630779 0.42261826,0 0.90630779 0.42261826] }
}
}
DEF SHAPE_83 Shape {
 appearance USE APP_3
 geometry DEF FACE_83 IndexedFaceSet {
  coord DEF COORD_83 Coordinate { point [
  -0.31496063 0.38779528 0.072834646,-0.31496063 0.3536243 0.14611453,
  -0.31496063 0.35129562 0.1499146,-0.31496063 0.3481718 0.15309342,
  -0.31496063 0.34441295 0.15548807,-0.31496063 0.34021177 0.15697579,
  -0.31496063 0.3357836 0.15748031,-0.31496063 0.32906169 0.15748031,
  -0.31496063 0.31577718 0.15596674,-0.31496063 0.30317363 0.15150359,
  -0.31496063 0.2918971 0.14431964,-0.31496063 0.28252562 0.13478316,
  -0.31496063 0.27553957 0.12338297,-0.31496063 0.2519685 0.072834646,
  -0.31496063 0.13582677 0.072834646,-0.31496063 0.1122557 0.12338297,
  -0.31496063 0.10526966 0.13478316,-0.31496063 0.095898178 0.14431964,
  -0.31496063 0.084621648 0.15150359,-0.31496063 0.072018099 0.15596674,
  -0.31496063 0.058733588 0.15748031,-0.31496063 0.049257892 0.15748031,
  -0.31496063 0.044829721 0.15697579,-0.31496063 0.040628538 0.15548807,
  -0.31496063 0.036869695 0.15309342,-0.31496063 0.033745869 0.1499146,
  -0.31496063 0.031417187 0.14611453,-0.31496063 0 0.078740157,
  -0.31496063 0 -0.078740157,-0.31496063 0.031417187 -0.14611453,
  -0.31496063 0.033745869 -0.1499146,-0.31496063 0.036869695 -0.15309342,
  -0.31496063 0.040628538 -0.15548807,-0.31496063 0.044829721 -0.15697579,
  -0.31496063 0.049257892 -0.15748031,-0.31496063 0.058733588 -0.15748031,
  -0.31496063 0.072018099 -0.15596674,-0.31496063 0.084621648 -0.15150359,
  -0.31496063 0.095898178 -0.14431964,-0.31496063 0.10526966 -0.13478316,
  -0.31496063 0.1122557 -0.12338297,-0.31496063 0.13582677 -0.072834646,
  -0.31496063 0.2519685 -0.072834646,-0.31496063 0.2519685 -0.43307087,
  -0.31496063 0.23622047 -0.43307087,-0.31496063 0.23622047 -0.59055118,
  -0.31496063 0.39370079 -0.43307087,-0.31496063 0.35294188 -0.43843688,
  -0.31496063 0.31496063 -0.45416923,-0.31496063 0.28234539 -0.47919578,
  -0.31496063 0.25731883 -0.51181102,-0.31496063 0.24158648 -0.54979228,
  -0.31496063 0.36220472 -0.43307087,-0.31496063 0.36220472 -0.12771376,
  -0.31496063 0.38779528 -0.072834646] }
 coordIndex [
  21,22,23,-1,21,23,24,-1,21,24,25,-1,21,25,26,-1,20,21,26,-1,19,20,26,-1,18,19,26,-1,17,18,26,-1,
  16,17,26,-1,15,26,27,-1,15,16,26,-1,14,15,27,-1,2,3,4,-1,34,29,30,-1,34,30,31,-1,34,31,32,-1,
  34,32,33,-1,1,4,5,-1,1,5,6,-1,1,6,7,-1,1,7,8,-1,1,8,9,-1,1,9,10,-1,1,10,11,-1,
  1,11,12,-1,1,2,4,-1,41,27,28,-1,41,14,27,-1,35,29,34,-1,36,29,35,-1,40,28,29,-1,40,41,28,-1,
  37,29,36,-1,39,40,29,-1,38,29,37,-1,38,39,29,-1,0,12,13,-1,0,1,12,-1,42,13,14,-1,42,14,41,-1,
  54,0,13,-1,54,13,42,-1,53,54,42,-1,49,43,44,-1,50,49,44,-1,48,43,49,-1,51,50,44,-1,47,43,48,-1,
  52,53,43,-1,52,43,47,-1,46,52,47,-1,42,43,53,-1,44,45,51,-1]
  normalPerVertex TRUE
  normal DEF NORM_83 Normal { vector [
  1 0 0,1 0 0,
  1 0 0,0 0 1,
  1 0 0,1 0 0,
  1 0 0,1 0 0,
  1 0 0,1 0 0,
  1 0 0,1 0 0,
  1 0 0,1 0 0,
  1 0 0,1 0 0,
  1 0 0,1 0 0,
  1 0 0,1 0 0,
  1 0 0,1 0 0,
  0 0 1,1 0 0,
  1 0 0,1 0 0,
  1 0 0,1 0 0,
  1 0 0,1 0 0,
  1 0 0,1 0 0,
  1 0 0,0 0 1,
  1 0 0,1 0 0,
  1 0 0,1 0 0,
  1 0 0,1 0 0,
  1 0 0,1 0 0,
  1 0 0,1 0 0,
  1 0 0,1 0 0,
  1 0 0,1 0 0,
  1 0 0,1 0 0,
  1 0 0,1 0 0,
  1 0 0,1 0 0,
  1 0 0] }
}
}
] }
DEF TXFM_6 Transform {
  center 0 0 0
  rotation 0 0 1 0
  scale 1 1 1
  scaleOrientation 0 0 1 0
  translation 0 0 0
 children [
DEF SHAPE_84 Shape {
 appearance USE APP_3
 geometry DEF FACE_84 IndexedFaceSet {
  coord DEF COORD_84 Coordinate { point [
  -0.31496063 0.23622047 0.59055118,-0.31496063 0.24158648 0.54979228,
  -0.31496063 0.25731883 0.51181102,-0.31496063 0.28234539 0.47919578,
  -0.31496063 0.31496063 0.45416923,-0.31496063 0.35294188 0.43843688,
  -0.31496063 0.39370079 0.43307087,0 0.39370079 0.43307087,
  0 0.23622047 0.59055118,0 0.24158648 0.54979228,
  0 0.25731883 0.51181102,0 0.28234539 0.47919578,
  0 0.31496063 0.45416923,0 0.35294188 0.43843688] }
 coordIndex [
  9,0,1,-1,9,8,0,-1,10,1,2,-1,10,9,1,-1,11,2,3,-1,11,10,2,-1,12,3,4,-1,12,11,3,-1,
  13,4,5,-1,13,5,6,-1,13,12,4,-1,7,13,6,-1]
  normalPerVertex TRUE
  normal DEF NORM_84 Normal { vector [
  0 -0.99144486 -0.13052619,0 -0.95364993 -0.30091828,
  0 -0.84327172 -0.5374875,0 -0.67542593 -0.73742784,
  0 -0.46155098 -0.88711369,0 -0.25881905 -0.96592583,
  0 -0.13052619 -0.99144486,0 -0.13052619 -0.99144486,
  0 -0.99144486 -0.13052619,0 -0.9763442 -0.21622209,
  0 -0.88711369 -0.46155098,0 -0.73742784 -0.67542593,
  0 -0.5374875 -0.84327172,0 -0.25881905 -0.96592583] }
}
}
DEF SHAPE_85 Shape {
 appearance USE APP_3
 geometry DEF FACE_85 IndexedFaceSet {
  coord DEF COORD_85 Coordinate { point [
  0 0.29527559 0.59055118,0 0.23622047 0.59055118,
  -0.39370079 0.29527559 0.59055118,-0.39370079 0.23622047 0.59055118,
  -0.31496063 0.23622047 0.59055118] }
 coordIndex [
  4,2,3,-1,0,4,1,-1,0,2,4,-1]
  normalPerVertex TRUE
  normal DEF NORM_85 Normal { vector [
  0 0 1,0 0 1,
  0 0 1,0 0 1,
  0 0 1] }
}
}
DEF SHAPE_86 Shape {
 appearance USE APP_3
 geometry DEF FACE_86 IndexedFaceSet {
  coord DEF COORD_86 Coordinate { point [
  -0.39370079 0.29527559 0.59055118,0 0.29527559 0.59055118,
  -0.39370079 0.39370079 0.49212598,-0.39370079 0.36822647 0.49547974,
  -0.39370079 0.34448819 0.50531246,-0.39370079 0.32410366 0.52095406,
  -0.39370079 0.30846207 0.54133858,-0.39370079 0.29862935 0.56507687,
  0 0.39370079 0.49212598,0 0.36822647 0.49547974,
  0 0.34448819 0.50531246,0 0.32410366 0.52095406,
  0 0.30846207 0.54133858,0 0.29862935 0.56507687] }
 coordIndex [
  13,0,1,-1,13,7,0,-1,12,6,7,-1,12,7,13,-1,11,5,6,-1,11,6,12,-1,10,4,5,-1,10,5,11,-1,
  9,3,4,-1,9,4,10,-1,8,2,3,-1,8,3,9,-1]
  normalPerVertex TRUE
  normal DEF NORM_86 Normal { vector [
  0 0.99144486 0.13052619,0 0.99144486 0.13052619,
  0 0.13052619 0.99144486,0 0.21622209 0.9763442,
  0 0.46155098 0.88711369,0 0.67542593 0.73742784,
  0 0.84327172 0.5374875,0 0.95364993 0.30091828,
  0 0.13052619 0.99144486,0 0.30091828 0.95364993,
  0 0.5374875 0.84327172,0 0.73742784 0.67542593,
  0 0.88711369 0.46155098,0 0.9763442 0.21622209] }
}
}
DEF SHAPE_87 Shape {
 appearance USE APP_3
 geometry DEF FACE_87 IndexedFaceSet {
  coord DEF COORD_87 Coordinate { point [
  0 0.39370079 0.43307087,0 0.39370079 0.49212598,
  -0.31496063 0.39370079 0.43307087,-0.39370079 0.39370079 0.43307087,
  -0.39370079 0.39370079 0.49212598] }
 coordIndex [
  2,3,4,-1,1,0,2,-1,1,2,4,-1]
  normalPerVertex TRUE
  normal DEF NORM_87 Normal { vector [
  0 1 0,0 1 0,
  0 1 0,0 1 0,
  0 1 0] }
}
}
DEF SHAPE_88 Shape {
 appearance USE APP_3
 geometry DEF FACE_88 IndexedFaceSet {
  coord DEF COORD_88 Coordinate { point [
  -0.39370079 0.39370079 0.49212598,-0.39370079 0.36822647 0.49547974,
  -0.39370079 0.34448819 0.50531246,-0.39370079 0.32410366 0.52095406,
  -0.39370079 0.30846207 0.54133858,-0.39370079 0.29862935 0.56507687,
  -0.39370079 0.29527559 0.59055118,-0.39370079 0.23622047 0.59055118,
  -0.39370079 0.23622047 0.43307087,-0.39370079 0.39370079 0.43307087] }
 coordIndex [
  5,7,6,-1,4,7,5,-1,8,4,3,-1,8,7,4,-1,2,8,3,-1,9,1,0,-1,9,2,1,-1,9,8,2,-1]
  normalPerVertex TRUE
  normal DEF NORM_88 Normal { vector [
  -1 0 0,-1 0 0,
  -1 0 0,-1 0 0,
  -1 0 0,-1 0 0,
  -1 0 0,-1 0 0,
  -1 0 0,-1 0 0] }
}
}
DEF SHAPE_89 Shape {
 appearance USE APP_3
 geometry DEF FACE_89 IndexedFaceSet {
  coord DEF COORD_89 Coordinate { point [
  0 0.23622047 0.59055118,0 0.24158648 0.54979228,
  0 0.25731883 0.51181102,0 0.28234539 0.47919578,
  0 0.31496063 0.45416923,0 0.35294188 0.43843688,
  0 0.39370079 0.43307087,0 0.39370079 0.49212598,
  0 0.36822647 0.49547974,0 0.34448819 0.50531246,
  0 0.32410366 0.52095406,0 0.30846207 0.54133858,
  0 0.29862935 0.56507687,0 0.29527559 0.59055118] }
 coordIndex [
  12,0,1,-1,12,13,0,-1,11,1,2,-1,11,12,1,-1,10,2,3,-1,10,11,2,-1,4,9,10,-1,4,10,3,-1,
  5,8,9,-1,5,9,4,-1,6,7,8,-1,6,8,5,-1]
  normalPerVertex TRUE
  normal DEF NORM_89 Normal { vector [
  1 0 0,1 0 0,
  1 0 0,1 0 0,
  1 0 0,1 0 0,
  1 0 0,1 0 0,
  1 0 0,1 0 0,
  1 0 0,1 0 0,
  1 0 0,1 0 0] }
}
}
DEF SHAPE_90 Shape {
 appearance USE APP_3
 geometry DEF FACE_90 IndexedFaceSet {
  coord DEF COORD_90 Coordinate { point [
  -0.31496063 0.39370079 0.43307087,-0.31496063 0.23622047 0.43307087,
  -0.31496063 0.23622047 0.59055118,-0.31496063 0.24158648 0.54979228,
  -0.31496063 0.25731883 0.51181102,-0.31496063 0.28234539 0.47919578,
  -0.31496063 0.31496063 0.45416923,-0.31496063 0.35294188 0.43843688] }
 coordIndex [
  1,3,2,-1,1,4,3,-1,1,5,4,-1,6,5,1,-1,7,6,1,-1,1,0,7,-1]
  normalPerVertex TRUE
  normal DEF NORM_90 Normal { vector [
  1 0 0,1 0 0,
  1 0 0,1 0 0,
  1 0 0,1 0 0,
  1 0 0,1 0 0] }
}
}
DEF SHAPE_91 Shape {
 appearance USE APP_3
 geometry DEF FACE_91 IndexedFaceSet {
  coord DEF COORD_91 Coordinate { point [
  -0.31496063 0.23622047 0.43307087,-0.39370079 0.23622047 0.43307087,
  -0.31496063 0.23622047 0.59055118,-0.39370079 0.23622047 0.59055118] }
 coordIndex [
  0,2,3,-1,0,3,1,-1]
  normalPerVertex TRUE
  normal DEF NORM_91 Normal { vector [
  0 -1 0,0 -1 0,
  0 -1 0,0 -1 0] }
}
}
DEF SHAPE_92 Shape {
 appearance USE APP_3
 geometry DEF FACE_92 IndexedFaceSet {
  coord DEF COORD_92 Coordinate { point [
  -0.39370079 0.39370079 0.43307087,-0.31496063 0.39370079 0.43307087,
  -0.31496063 0.23622047 0.43307087,-0.39370079 0.23622047 0.43307087] }
 coordIndex [
  0,1,2,-1,0,2,3,-1]
  normalPerVertex TRUE
  normal DEF NORM_92 Normal { vector [
  0 0 -1,0 0 -1,
  0 0 -1,0 0 -1] }
}
}
] }
DEF TXFM_7 Transform {
  center 0 0 0
  rotation 0 0 1 0
  scale 1 1 1
  scaleOrientation 0 0 1 0
  translation 0 0 0
 children [
DEF SHAPE_93 Shape {
 appearance USE APP_3
 geometry DEF FACE_93 IndexedFaceSet {
  coord DEF COORD_93 Coordinate { point [
  -0.31496063 0.15748031 -0.59055118,-0.31496063 0.1521143 -0.54979228,
  -0.31496063 0.13638195 -0.51181102,-0.31496063 0.1113554 -0.47919578,
  -0.31496063 0.078740157 -0.45416923,-0.31496063 0.040758905 -0.43843688,
  -0.31496063 0 -0.43307087,0 0 -0.43307087,
  0 0.15748031 -0.59055118,0 0.1521143 -0.54979228,
  0 0.13638195 -0.51181102,0 0.1113554 -0.47919578,
  0 0.078740157 -0.45416923,0 0.040758905 -0.43843688] }
 coordIndex [
  9,0,1,-1,9,8,0,-1,10,1,2,-1,10,9,1,-1,11,2,3,-1,11,3,4,-1,11,10,2,-1,12,4,5,-1,
  12,11,4,-1,13,5,6,-1,13,12,5,-1,7,13,6,-1]
  normalPerVertex TRUE
  normal DEF NORM_93 Normal { vector [
  0 0.99144486 0.13052619,0 0.95364993 0.30091828,
  0 0.84327172 0.5374875,0 0.70710678 0.70710678,
  0 0.5374875 0.84327172,0 0.30091828 0.95364993,
  0 0.13052619 0.99144486,0 0.13052619 0.99144486,
  0 0.99144486 0.13052619,0 0.9763442 0.21622209,
  0 0.88711369 0.46155098,0 0.70710678 0.70710678,
  0 0.46155098 0.88711369,0 0.21622209 0.9763442] }
}
}
DEF SHAPE_94 Shape {
 appearance USE APP_3
 geometry DEF FACE_94 IndexedFaceSet {
  coord DEF COORD_94 Coordinate { point [
  0 0.098425197 -0.59055118,0 0.15748031 -0.59055118,
  -0.39370079 0.098425197 -0.59055118,-0.39370079 0.15748031 -0.59055118,
  -0.31496063 0.15748031 -0.59055118] }
 coordIndex [
  4,1,0,-1,2,4,0,-1,3,4,2,-1]
  normalPerVertex TRUE
  normal DEF NORM_94 Normal { vector [
  0 0 -1,0 0 -1,
  0 0 -1,0 0 -1,
  0 0 -1] }
}
}
DEF SHAPE_95 Shape {
 appearance USE APP_3
 geometry DEF FACE_95 IndexedFaceSet {
  coord DEF COORD_95 Coordinate { point [
  -0.39370079 0.098425197 -0.59055118,0 0.098425197 -0.59055118,
  -0.39370079 0 -0.49212598,-0.39370079 0.025474315 -0.49547974,
  -0.39370079 0.049212598 -0.50531246,-0.39370079 0.069597124 -0.52095406,
  -0.39370079 0.085238721 -0.54133858,-0.39370079 0.09507144 -0.56507687,
  0 0 -0.49212598,0 0.025474315 -0.49547974,
  0 0.049212598 -0.50531246,0 0.069597124 -0.52095406,
  0 0.085238721 -0.54133858,0 0.09507144 -0.56507687] }
 coordIndex [
  13,0,1,-1,13,7,0,-1,12,6,7,-1,12,7,13,-1,11,5,6,-1,11,6,12,-1,10,4,5,-1,10,5,11,-1,
  9,3,4,-1,9,4,10,-1,8,2,3,-1,8,3,9,-1]
  normalPerVertex TRUE
  normal DEF NORM_95 Normal { vector [
  0 -0.99144486 -0.13052619,0 -0.99144486 -0.13052619,
  0 -0.13052619 -0.99144486,0 -0.21622209 -0.9763442,
  0 -0.46155098 -0.88711369,0 -0.67542593 -0.73742784,
  0 -0.84327172 -0.5374875,0 -0.95364993 -0.30091828,
  0 -0.13052619 -0.99144486,0 -0.30091828 -0.95364993,
  0 -0.5374875 -0.84327172,0 -0.73742784 -0.67542593,
  0 -0.88711369 -0.46155098,0 -0.9763442 -0.21622209] }
}
}
DEF SHAPE_96 Shape {
 appearance USE APP_3
 geometry DEF FACE_96 IndexedFaceSet {
  coord DEF COORD_96 Coordinate { point [
  0 0 -0.43307087,0 0 -0.49212598,
  -0.31496063 0 -0.43307087,-0.39370079 0 -0.43307087,
  -0.39370079 0 -0.49212598] }
 coordIndex [
  2,3,4,-1,1,0,2,-1,1,2,4,-1]
  normalPerVertex TRUE
  normal DEF NORM_96 Normal { vector [
  0 -1 0,0 -1 0,
  0 -1 0,0 -1 0,
  0 -1 0] }
}
}
DEF SHAPE_97 Shape {
 appearance USE APP_3
 geometry DEF FACE_97 IndexedFaceSet {
  coord DEF COORD_97 Coordinate { point [
  -0.39370079 0 -0.49212598,-0.39370079 0.025474315 -0.49547974,
  -0.39370079 0.049212598 -0.50531246,-0.39370079 0.069597124 -0.52095406,
  -0.39370079 0.085238721 -0.54133858,-0.39370079 0.09507144 -0.56507687,
  -0.39370079 0.098425197 -0.59055118,-0.39370079 0.15748031 -0.59055118,
  -0.39370079 0.15748031 -0.43307087,-0.39370079 0 -0.43307087] }
 coordIndex [
  1,0,9,-1,2,1,9,-1,8,2,9,-1,3,2,8,-1,4,3,8,-1,7,5,4,-1,7,6,5,-1,7,4,8,-1]
  normalPerVertex TRUE
  normal DEF NORM_97 Normal { vector [
  -1 0 0,-1 0 0,
  -1 0 0,-1 0 0,
  -1 0 0,-1 0 0,
  -1 0 0,-1 0 0,
  -1 0 0,-1 0 0] }
}
}
DEF SHAPE_98 Shape {
 appearance USE APP_3
 geometry DEF FACE_98 IndexedFaceSet {
  coord DEF COORD_98 Coordinate { point [
  0 0.15748031 -0.59055118,0 0.1521143 -0.54979228,
  0 0.13638195 -0.51181102,0 0.1113554 -0.47919578,
  0 0.078740157 -0.45416923,0 0.040758905 -0.43843688,
  0 0 -0.43307087,0 0 -0.49212598,
  0 0.025474315 -0.49547974,0 0.049212598 -0.50531246,
  0 0.069597124 -0.52095406,0 0.085238721 -0.54133858,
  0 0.09507144 -0.56507687,0 0.098425197 -0.59055118] }
 coordIndex [
  8,5,6,-1,8,6,7,-1,9,4,5,-1,9,5,8,-1,10,3,4,-1,10,4,9,-1,2,10,11,-1,2,3,10,-1,
  1,11,12,-1,1,2,11,-1,0,12,13,-1,0,1,12,-1]
  normalPerVertex TRUE
  normal DEF NORM_98 Normal { vector [
  1 0 0,1 0 0,
  1 0 0,1 0 0,
  1 0 0,1 0 0,
  1 0 0,1 0 0,
  1 0 0,1 0 0,
  1 0 0,1 0 0,
  1 0 0,1 0 0] }
}
}
DEF SHAPE_99 Shape {
 appearance USE APP_3
 geometry DEF FACE_99 IndexedFaceSet {
  coord DEF COORD_99 Coordinate { point [
  -0.31496063 0 -0.43307087,-0.31496063 0.15748031 -0.43307087,
  -0.31496063 0.15748031 -0.59055118,-0.31496063 0.1521143 -0.54979228,
  -0.31496063 0.13638195 -0.51181102,-0.31496063 0.1113554 -0.47919578,
  -0.31496063 0.078740157 -0.45416923,-0.31496063 0.040758905 -0.43843688] }
 coordIndex [
  1,7,6,-1,5,1,6,-1,4,1,5,-1,1,0,7,-1,2,1,3,-1,3,1,4,-1]
  normalPerVertex TRUE
  normal DEF NORM_99 Normal { vector [
  1 0 0,1 0 0,
  1 0 0,1 0 0,
  1 0 0,1 0 0,
  1 0 0,1 0 0] }
}
}
DEF SHAPE_100 Shape {
 appearance USE APP_3
 geometry DEF FACE_100 IndexedFaceSet {
  coord DEF COORD_100 Coordinate { point [
  -0.31496063 0.15748031 -0.43307087,-0.39370079 0.15748031 -0.43307087,
  -0.31496063 0.15748031 -0.59055118,-0.39370079 0.15748031 -0.59055118] }
 coordIndex [
  0,2,3,-1,0,3,1,-1]
  normalPerVertex TRUE
  normal DEF NORM_100 Normal { vector [
  0 1 0,0 1 0,
  0 1 0,0 1 0] }
}
}
DEF SHAPE_101 Shape {
 appearance USE APP_3
 geometry DEF FACE_101 IndexedFaceSet {
  coord DEF COORD_101 Coordinate { point [
  -0.39370079 0 -0.43307087,-0.31496063 0 -0.43307087,
  -0.31496063 0.15748031 -0.43307087,-0.39370079 0.15748031 -0.43307087] }
 coordIndex [
  2,0,1,-1,2,3,0,-1]
  normalPerVertex TRUE
  normal DEF NORM_101 Normal { vector [
  0 0 1,0 0 1,
  0 0 1,0 0 1] }
}
}
] }
DEF TXFM_8 Transform {
  center 0 0 0
  rotation 0 0 1 0
  scale 1 1 1
  scaleOrientation 0 0 1 0
  translation 0 0 0
 children [
DEF SHAPE_102 Shape {
 appearance USE APP_3
 geometry DEF FACE_102 IndexedFaceSet {
  coord DEF COORD_102 Coordinate { point [
  -0.31496063 0 0.43307087,-0.31496063 0.040758905 0.43843688,
  -0.31496063 0.078740157 0.45416923,-0.31496063 0.1113554 0.47919578,
  -0.31496063 0.13638195 0.51181102,-0.31496063 0.1521143 0.54979228,
  -0.31496063 0.15748031 0.59055118,0 0.15748031 0.59055118,
  0 0 0.43307087,0 0.040758905 0.43843688,
  0 0.078740157 0.45416923,0 0.1113554 0.47919578,
  0 0.13638195 0.51181102,0 0.1521143 0.54979228] }
 coordIndex [
  9,0,1,-1,9,8,0,-1,10,1,2,-1,10,9,1,-1,11,2,3,-1,11,10,2,-1,12,3,4,-1,12,11,3,-1,
  13,4,5,-1,13,5,6,-1,13,12,4,-1,7,13,6,-1]
  normalPerVertex TRUE
  normal DEF NORM_102 Normal { vector [
  0 0.13052619 -0.99144486,0 0.30091828 -0.95364993,
  0 0.5374875 -0.84327172,0 0.73742784 -0.67542593,
  0 0.88711369 -0.46155098,0 0.96592583 -0.25881905,
  0 0.99144486 -0.13052619,0 0.99144486 -0.13052619,
  0 0.13052619 -0.99144486,0 0.21622209 -0.9763442,
  0 0.46155098 -0.88711369,0 0.67542593 -0.73742784,
  0 0.84327172 -0.5374875,0 0.96592583 -0.25881905] }
}
}
DEF SHAPE_103 Shape {
 appearance USE APP_3
 geometry DEF FACE_103 IndexedFaceSet {
  coord DEF COORD_103 Coordinate { point [
  0 0 0.49212598,0 0 0.43307087,
  -0.39370079 0 0.49212598,-0.39370079 0 0.43307087,
  -0.31496063 0 0.43307087] }
 coordIndex [
  4,2,3,-1,0,2,4,-1,1,0,4,-1]
  normalPerVertex TRUE
  normal DEF NORM_103 Normal { vector [
  0 -1 0,0 -1 0,
  0 -1 0,0 -1 0,
  0 -1 0] }
}
}
DEF SHAPE_104 Shape {
 appearance USE APP_3
 geometry DEF FACE_104 IndexedFaceSet {
  coord DEF COORD_104 Coordinate { point [
  -0.39370079 0 0.49212598,0 0 0.49212598,
  -0.39370079 0.098425197 0.59055118,-0.39370079 0.09507144 0.56507687,
  -0.39370079 0.085238721 0.54133858,-0.39370079 0.069597124 0.52095406,
  -0.39370079 0.049212598 0.50531246,-0.39370079 0.025474315 0.49547974,
  0 0.098425197 0.59055118,0 0.09507144 0.56507687,
  0 0.085238721 0.54133858,0 0.069597124 0.52095406,
  0 0.049212598 0.50531246,0 0.025474315 0.49547974] }
 coordIndex [
  13,0,1,-1,13,7,0,-1,12,6,7,-1,12,7,13,-1,11,5,6,-1,11,6,12,-1,10,4,5,-1,10,5,11,-1,
  9,3,4,-1,9,4,10,-1,8,2,3,-1,8,3,9,-1]
  normalPerVertex TRUE
  normal DEF NORM_104 Normal { vector [
  0 -0.13052619 0.99144486,0 -0.13052619 0.99144486,
  0 -0.99144486 0.13052619,0 -0.9763442 0.21622209,
  0 -0.88711369 0.46155098,0 -0.73742784 0.67542593,
  0 -0.5374875 0.84327172,0 -0.30091828 0.95364993,
  0 -0.99144486 0.13052619,0 -0.95364993 0.30091828,
  0 -0.84327172 0.5374875,0 -0.67542593 0.73742784,
  0 -0.46155098 0.88711369,0 -0.21622209 0.9763442] }
}
}
DEF SHAPE_105 Shape {
 appearance USE APP_3
 geometry DEF FACE_105 IndexedFaceSet {
  coord DEF COORD_105 Coordinate { point [
  0 0.15748031 0.59055118,0 0.098425197 0.59055118,
  -0.31496063 0.15748031 0.59055118,-0.39370079 0.15748031 0.59055118,
  -0.39370079 0.098425197 0.59055118] }
 coordIndex [
  2,3,4,-1,1,2,4,-1,0,2,1,-1]
  normalPerVertex TRUE
  normal DEF NORM_105 Normal { vector [
  0 0 1,0 0 1,
  0 0 1,0 0 1,
  0 0 1] }
}
}
DEF SHAPE_106 Shape {
 appearance USE APP_3
 geometry DEF FACE_106 IndexedFaceSet {
  coord DEF COORD_106 Coordinate { point [
  -0.39370079 0.098425197 0.59055118,-0.39370079 0.09507144 0.56507687,
  -0.39370079 0.085238721 0.54133858,-0.39370079 0.069597124 0.52095406,
  -0.39370079 0.049212598 0.50531246,-0.39370079 0.025474315 0.49547974,
  -0.39370079 0 0.49212598,-0.39370079 0 0.43307087,
  -0.39370079 0.15748031 0.43307087,-0.39370079 0.15748031 0.59055118] }
 coordIndex [
  7,5,4,-1,7,6,5,-1,9,1,0,-1,9,2,1,-1,8,3,2,-1,8,4,3,-1,8,2,9,-1,8,7,4,-1]
  normalPerVertex TRUE
  normal DEF NORM_106 Normal { vector [
  -1 0 0,-1 0 0,
  -1 0 0,-1 0 0,
  -1 0 0,-1 0 0,
  -1 0 0,-1 0 0,
  -1 0 0,-1 0 0] }
}
}
DEF SHAPE_107 Shape {
 appearance USE APP_3
 geometry DEF FACE_107 IndexedFaceSet {
  coord DEF COORD_107 Coordinate { point [
  0 0 0.43307087,0 0.040758905 0.43843688,
  0 0.078740157 0.45416923,0 0.1113554 0.47919578,
  0 0.13638195 0.51181102,0 0.1521143 0.54979228,
  0 0.15748031 0.59055118,0 0.098425197 0.59055118,
  0 0.09507144 0.56507687,0 0.085238721 0.54133858,
  0 0.069597124 0.52095406,0 0.049212598 0.50531246,
  0 0.025474315 0.49547974,0 0 0.49212598] }
 coordIndex [
  1,12,13,-1,1,13,0,-1,5,6,7,-1,5,7,8,-1,4,8,9,-1,4,5,8,-1,2,11,12,-1,2,12,1,-1,
  3,9,10,-1,3,10,11,-1,3,4,9,-1,3,11,2,-1]
  normalPerVertex TRUE
  normal DEF NORM_107 Normal { vector [
  1 0 0,1 0 0,
  1 0 0,1 0 0,
  1 0 0,1 0 0,
  1 0 0,1 0 0,
  1 0 0,1 0 0,
  1 0 0,1 0 0,
  1 0 0,1 0 0] }
}
}
DEF SHAPE_108 Shape {
 appearance USE APP_3
 geometry DEF FACE_108 IndexedFaceSet {
  coord DEF COORD_108 Coordinate { point [
  -0.31496063 0.15748031 0.59055118,-0.31496063 0.15748031 0.43307087,
  -0.31496063 0 0.43307087,-0.31496063 0.040758905 0.43843688,
  -0.31496063 0.078740157 0.45416923,-0.31496063 0.1113554 0.47919578,
  -0.31496063 0.13638195 0.51181102,-0.31496063 0.1521143 0.54979228] }
 coordIndex [
  1,4,3,-1,1,5,4,-1,1,6,5,-1,1,0,7,-1,1,7,6,-1,2,1,3,-1]
  normalPerVertex TRUE
  normal DEF NORM_108 Normal { vector [
  1 0 0,1 0 0,
  1 0 0,1 0 0,
  1 0 0,1 0 0,
  1 0 0,1 0 0] }
}
}
DEF SHAPE_109 Shape {
 appearance USE APP_3
 geometry DEF FACE_109 IndexedFaceSet {
  coord DEF COORD_109 Coordinate { point [
  -0.31496063 0.15748031 0.43307087,-0.39370079 0.15748031 0.43307087,
  -0.31496063 0 0.43307087,-0.39370079 0 0.43307087] }
 coordIndex [
  1,0,2,-1,1,2,3,-1]
  normalPerVertex TRUE
  normal DEF NORM_109 Normal { vector [
  0 0 -1,0 0 -1,
  0 0 -1,0 0 -1] }
}
}
DEF SHAPE_110 Shape {
 appearance USE APP_3
 geometry DEF FACE_110 IndexedFaceSet {
  coord DEF COORD_110 Coordinate { point [
  -0.39370079 0.15748031 0.59055118,-0.31496063 0.15748031 0.59055118,
  -0.31496063 0.15748031 0.43307087,-0.39370079 0.15748031 0.43307087] }
 coordIndex [
  0,2,3,-1,1,2,0,-1]
  normalPerVertex TRUE
  normal DEF NORM_110 Normal { vector [
  0 1 0,0 1 0,
  0 1 0,0 1 0] }
}
}
] }
] }
] }
