(kicad_symbol_lib (version 20211014) (generator kicad_symbol_editor)
  (symbol "STM32H7B0VBT6" (pin_names (offset 0.254)) (in_bom yes) (on_board yes)
    (property "Reference" "U" (id 0) (at 33.02 12.7 0)
      (effects (font (size 1.524 1.524)))
    )
    (property "Value" "STM32H7B0VBT6" (id 1) (at 33.02 10.16 0)
      (effects (font (size 1.524 1.524)))
    )
    (property "Footprint" "LQFP_B0VBT6_STM" (id 2) (at 33.02 8.636 0)
      (effects (font (size 1.524 1.524)) hide)
    )
    (property "Datasheet" "" (id 3) (at 0 0 0)
      (effects (font (size 1.524 1.524)))
    )
    (property "ki_locked" "" (id 4) (at 0 0 0)
      (effects (font (size 1.27 1.27)))
    )
    (property "ki_fp_filters" "LQFP_B0VBT6_STM LQFP_B0VBT6_STM-M LQFP_B0VBT6_STM-L" (id 5) (at 0 0 0)
      (effects (font (size 1.27 1.27)) hide)
    )
    (symbol "STM32H7B0VBT6_1_1"
      (polyline
        (pts
          (xy 7.62 -93.98)
          (xy 58.42 -93.98)
        )
        (stroke (width 0.127) (type default) (color 0 0 0 0))
        (fill (type none))
      )
      (polyline
        (pts
          (xy 7.62 7.62)
          (xy 7.62 -93.98)
        )
        (stroke (width 0.127) (type default) (color 0 0 0 0))
        (fill (type none))
      )
      (polyline
        (pts
          (xy 58.42 -93.98)
          (xy 58.42 7.62)
        )
        (stroke (width 0.127) (type default) (color 0 0 0 0))
        (fill (type none))
      )
      (polyline
        (pts
          (xy 58.42 7.62)
          (xy 7.62 7.62)
        )
        (stroke (width 0.127) (type default) (color 0 0 0 0))
        (fill (type none))
      )
      (pin output line (at 66.04 0 180) (length 7.62)
        (name "PH1-OSC_OUT" (effects (font (size 1.4986 1.4986))))
        (number "13" (effects (font (size 1.4986 1.4986))))
      )
      (pin unspecified line (at 0 -2.54 0) (length 7.62)
        (name "NRST" (effects (font (size 1.4986 1.4986))))
        (number "14" (effects (font (size 1.4986 1.4986))))
      )
      (pin bidirectional line (at 66.04 -53.34 180) (length 7.62)
        (name "PC0" (effects (font (size 1.4986 1.4986))))
        (number "15" (effects (font (size 1.4986 1.4986))))
      )
      (pin bidirectional line (at 66.04 -55.88 180) (length 7.62)
        (name "PC1" (effects (font (size 1.4986 1.4986))))
        (number "16" (effects (font (size 1.4986 1.4986))))
      )
      (pin bidirectional line (at 66.04 -58.42 180) (length 7.62)
        (name "PC2_C" (effects (font (size 1.4986 1.4986))))
        (number "17" (effects (font (size 1.4986 1.4986))))
      )
      (pin bidirectional line (at 66.04 -60.96 180) (length 7.62)
        (name "PC3_C" (effects (font (size 1.4986 1.4986))))
        (number "18" (effects (font (size 1.4986 1.4986))))
      )
      (pin bidirectional line (at 66.04 -5.08 180) (length 7.62)
        (name "PA0" (effects (font (size 1.4986 1.4986))))
        (number "22" (effects (font (size 1.4986 1.4986))))
      )
      (pin bidirectional line (at 66.04 -7.62 180) (length 7.62)
        (name "PA1" (effects (font (size 1.4986 1.4986))))
        (number "23" (effects (font (size 1.4986 1.4986))))
      )
      (pin bidirectional line (at 66.04 -10.16 180) (length 7.62)
        (name "PA2" (effects (font (size 1.4986 1.4986))))
        (number "24" (effects (font (size 1.4986 1.4986))))
      )
      (pin bidirectional line (at 66.04 -12.7 180) (length 7.62)
        (name "PA3" (effects (font (size 1.4986 1.4986))))
        (number "25" (effects (font (size 1.4986 1.4986))))
      )
      (pin bidirectional line (at 66.04 -15.24 180) (length 7.62)
        (name "PA4" (effects (font (size 1.4986 1.4986))))
        (number "28" (effects (font (size 1.4986 1.4986))))
      )
      (pin bidirectional line (at 66.04 -17.78 180) (length 7.62)
        (name "PA5" (effects (font (size 1.4986 1.4986))))
        (number "29" (effects (font (size 1.4986 1.4986))))
      )
      (pin bidirectional line (at 66.04 -20.32 180) (length 7.62)
        (name "PA6" (effects (font (size 1.4986 1.4986))))
        (number "30" (effects (font (size 1.4986 1.4986))))
      )
      (pin bidirectional line (at 66.04 -22.86 180) (length 7.62)
        (name "PA7" (effects (font (size 1.4986 1.4986))))
        (number "31" (effects (font (size 1.4986 1.4986))))
      )
      (pin bidirectional line (at 66.04 -63.5 180) (length 7.62)
        (name "PC4" (effects (font (size 1.4986 1.4986))))
        (number "32" (effects (font (size 1.4986 1.4986))))
      )
      (pin bidirectional line (at 66.04 -66.04 180) (length 7.62)
        (name "PC5" (effects (font (size 1.4986 1.4986))))
        (number "33" (effects (font (size 1.4986 1.4986))))
      )
      (pin bidirectional line (at 0 -7.62 0) (length 7.62)
        (name "PB0" (effects (font (size 1.4986 1.4986))))
        (number "34" (effects (font (size 1.4986 1.4986))))
      )
      (pin bidirectional line (at 0 -10.16 0) (length 7.62)
        (name "PB1" (effects (font (size 1.4986 1.4986))))
        (number "35" (effects (font (size 1.4986 1.4986))))
      )
      (pin bidirectional line (at 0 -12.7 0) (length 7.62)
        (name "PB2" (effects (font (size 1.4986 1.4986))))
        (number "36" (effects (font (size 1.4986 1.4986))))
      )
      (pin bidirectional line (at 0 -15.24 0) (length 7.62)
        (name "PB10" (effects (font (size 1.4986 1.4986))))
        (number "46" (effects (font (size 1.4986 1.4986))))
      )
      (pin bidirectional line (at 0 -17.78 0) (length 7.62)
        (name "PB11" (effects (font (size 1.4986 1.4986))))
        (number "47" (effects (font (size 1.4986 1.4986))))
      )
      (pin bidirectional line (at 0 -20.32 0) (length 7.62)
        (name "PB12" (effects (font (size 1.4986 1.4986))))
        (number "51" (effects (font (size 1.4986 1.4986))))
      )
      (pin bidirectional line (at 0 -22.86 0) (length 7.62)
        (name "PB13" (effects (font (size 1.4986 1.4986))))
        (number "52" (effects (font (size 1.4986 1.4986))))
      )
      (pin bidirectional line (at 0 -25.4 0) (length 7.62)
        (name "PB14" (effects (font (size 1.4986 1.4986))))
        (number "53" (effects (font (size 1.4986 1.4986))))
      )
      (pin bidirectional line (at 0 -27.94 0) (length 7.62)
        (name "PB15" (effects (font (size 1.4986 1.4986))))
        (number "54" (effects (font (size 1.4986 1.4986))))
      )
      (pin bidirectional line (at 0 -50.8 0) (length 7.62)
        (name "PD8" (effects (font (size 1.4986 1.4986))))
        (number "55" (effects (font (size 1.4986 1.4986))))
      )
      (pin bidirectional line (at 0 -53.34 0) (length 7.62)
        (name "PD9" (effects (font (size 1.4986 1.4986))))
        (number "56" (effects (font (size 1.4986 1.4986))))
      )
      (pin bidirectional line (at 0 -55.88 0) (length 7.62)
        (name "PD10" (effects (font (size 1.4986 1.4986))))
        (number "57" (effects (font (size 1.4986 1.4986))))
      )
      (pin bidirectional line (at 0 -58.42 0) (length 7.62)
        (name "PD11" (effects (font (size 1.4986 1.4986))))
        (number "58" (effects (font (size 1.4986 1.4986))))
      )
      (pin bidirectional line (at 0 -60.96 0) (length 7.62)
        (name "PD12" (effects (font (size 1.4986 1.4986))))
        (number "59" (effects (font (size 1.4986 1.4986))))
      )
      (pin bidirectional line (at 0 -63.5 0) (length 7.62)
        (name "PD13" (effects (font (size 1.4986 1.4986))))
        (number "60" (effects (font (size 1.4986 1.4986))))
      )
      (pin bidirectional line (at 0 -66.04 0) (length 7.62)
        (name "PD14" (effects (font (size 1.4986 1.4986))))
        (number "61" (effects (font (size 1.4986 1.4986))))
      )
      (pin bidirectional line (at 0 -68.58 0) (length 7.62)
        (name "PD15" (effects (font (size 1.4986 1.4986))))
        (number "62" (effects (font (size 1.4986 1.4986))))
      )
      (pin bidirectional line (at 66.04 -68.58 180) (length 7.62)
        (name "PC6" (effects (font (size 1.4986 1.4986))))
        (number "63" (effects (font (size 1.4986 1.4986))))
      )
      (pin bidirectional line (at 66.04 -71.12 180) (length 7.62)
        (name "PC7" (effects (font (size 1.4986 1.4986))))
        (number "64" (effects (font (size 1.4986 1.4986))))
      )
      (pin bidirectional line (at 66.04 -73.66 180) (length 7.62)
        (name "PC8" (effects (font (size 1.4986 1.4986))))
        (number "65" (effects (font (size 1.4986 1.4986))))
      )
      (pin bidirectional line (at 66.04 -76.2 180) (length 7.62)
        (name "PC9" (effects (font (size 1.4986 1.4986))))
        (number "66" (effects (font (size 1.4986 1.4986))))
      )
      (pin bidirectional line (at 66.04 -25.4 180) (length 7.62)
        (name "PA8" (effects (font (size 1.4986 1.4986))))
        (number "67" (effects (font (size 1.4986 1.4986))))
      )
      (pin bidirectional line (at 66.04 -27.94 180) (length 7.62)
        (name "PA9" (effects (font (size 1.4986 1.4986))))
        (number "68" (effects (font (size 1.4986 1.4986))))
      )
      (pin bidirectional line (at 66.04 -30.48 180) (length 7.62)
        (name "PA10" (effects (font (size 1.4986 1.4986))))
        (number "69" (effects (font (size 1.4986 1.4986))))
      )
      (pin bidirectional line (at 66.04 -48.26 180) (length 7.62)
        (name "PC13" (effects (font (size 1.4986 1.4986))))
        (number "7" (effects (font (size 1.4986 1.4986))))
      )
      (pin bidirectional line (at 66.04 -33.02 180) (length 7.62)
        (name "PA11" (effects (font (size 1.4986 1.4986))))
        (number "70" (effects (font (size 1.4986 1.4986))))
      )
      (pin bidirectional line (at 66.04 -35.56 180) (length 7.62)
        (name "PA12" (effects (font (size 1.4986 1.4986))))
        (number "71" (effects (font (size 1.4986 1.4986))))
      )
      (pin bidirectional line (at 66.04 -38.1 180) (length 7.62)
        (name "PA13" (effects (font (size 1.4986 1.4986))))
        (number "72" (effects (font (size 1.4986 1.4986))))
      )
      (pin bidirectional line (at 66.04 -40.64 180) (length 7.62)
        (name "PA14" (effects (font (size 1.4986 1.4986))))
        (number "76" (effects (font (size 1.4986 1.4986))))
      )
      (pin bidirectional line (at 66.04 -43.18 180) (length 7.62)
        (name "PA15" (effects (font (size 1.4986 1.4986))))
        (number "77" (effects (font (size 1.4986 1.4986))))
      )
      (pin bidirectional line (at 66.04 -78.74 180) (length 7.62)
        (name "PC10" (effects (font (size 1.4986 1.4986))))
        (number "78" (effects (font (size 1.4986 1.4986))))
      )
      (pin bidirectional line (at 66.04 -81.28 180) (length 7.62)
        (name "PC11" (effects (font (size 1.4986 1.4986))))
        (number "79" (effects (font (size 1.4986 1.4986))))
      )
      (pin bidirectional line (at 66.04 -50.8 180) (length 7.62)
        (name "PC14-OSC32_ON" (effects (font (size 1.4986 1.4986))))
        (number "8" (effects (font (size 1.4986 1.4986))))
      )
      (pin bidirectional line (at 66.04 -83.82 180) (length 7.62)
        (name "PC12" (effects (font (size 1.4986 1.4986))))
        (number "80" (effects (font (size 1.4986 1.4986))))
      )
      (pin bidirectional line (at 0 -71.12 0) (length 7.62)
        (name "PD0" (effects (font (size 1.4986 1.4986))))
        (number "81" (effects (font (size 1.4986 1.4986))))
      )
      (pin bidirectional line (at 0 -73.66 0) (length 7.62)
        (name "PD1" (effects (font (size 1.4986 1.4986))))
        (number "82" (effects (font (size 1.4986 1.4986))))
      )
      (pin bidirectional line (at 0 -76.2 0) (length 7.62)
        (name "PD2" (effects (font (size 1.4986 1.4986))))
        (number "83" (effects (font (size 1.4986 1.4986))))
      )
      (pin bidirectional line (at 0 -78.74 0) (length 7.62)
        (name "PD3" (effects (font (size 1.4986 1.4986))))
        (number "84" (effects (font (size 1.4986 1.4986))))
      )
      (pin bidirectional line (at 0 -81.28 0) (length 7.62)
        (name "PD4" (effects (font (size 1.4986 1.4986))))
        (number "85" (effects (font (size 1.4986 1.4986))))
      )
      (pin bidirectional line (at 0 -83.82 0) (length 7.62)
        (name "PD5" (effects (font (size 1.4986 1.4986))))
        (number "86" (effects (font (size 1.4986 1.4986))))
      )
      (pin bidirectional line (at 0 -86.36 0) (length 7.62)
        (name "PD6" (effects (font (size 1.4986 1.4986))))
        (number "87" (effects (font (size 1.4986 1.4986))))
      )
      (pin bidirectional line (at 0 -88.9 0) (length 7.62)
        (name "PD7" (effects (font (size 1.4986 1.4986))))
        (number "88" (effects (font (size 1.4986 1.4986))))
      )
      (pin bidirectional line (at 0 -30.48 0) (length 7.62)
        (name "PB3" (effects (font (size 1.4986 1.4986))))
        (number "89" (effects (font (size 1.4986 1.4986))))
      )
      (pin output line (at 66.04 2.54 180) (length 7.62)
        (name "PC15-OSC32_OUT" (effects (font (size 1.4986 1.4986))))
        (number "9" (effects (font (size 1.4986 1.4986))))
      )
      (pin bidirectional line (at 0 -33.02 0) (length 7.62)
        (name "PB4" (effects (font (size 1.4986 1.4986))))
        (number "90" (effects (font (size 1.4986 1.4986))))
      )
      (pin bidirectional line (at 0 -35.56 0) (length 7.62)
        (name "PB5" (effects (font (size 1.4986 1.4986))))
        (number "91" (effects (font (size 1.4986 1.4986))))
      )
      (pin bidirectional line (at 0 -38.1 0) (length 7.62)
        (name "PB6" (effects (font (size 1.4986 1.4986))))
        (number "92" (effects (font (size 1.4986 1.4986))))
      )
      (pin bidirectional line (at 0 -40.64 0) (length 7.62)
        (name "PB7" (effects (font (size 1.4986 1.4986))))
        (number "93" (effects (font (size 1.4986 1.4986))))
      )
      (pin unspecified line (at 0 0 0) (length 7.62)
        (name "BOOT0" (effects (font (size 1.4986 1.4986))))
        (number "94" (effects (font (size 1.4986 1.4986))))
      )
      (pin bidirectional line (at 0 -43.18 0) (length 7.62)
        (name "PB8" (effects (font (size 1.4986 1.4986))))
        (number "95" (effects (font (size 1.4986 1.4986))))
      )
      (pin bidirectional line (at 0 -45.72 0) (length 7.62)
        (name "PB9" (effects (font (size 1.4986 1.4986))))
        (number "96" (effects (font (size 1.4986 1.4986))))
      )
    )
    (symbol "STM32H7B0VBT6_2_1"
      (polyline
        (pts
          (xy 7.62 -43.18)
          (xy 43.18 -43.18)
        )
        (stroke (width 0.127) (type default) (color 0 0 0 0))
        (fill (type none))
      )
      (polyline
        (pts
          (xy 7.62 5.08)
          (xy 7.62 -43.18)
        )
        (stroke (width 0.127) (type default) (color 0 0 0 0))
        (fill (type none))
      )
      (polyline
        (pts
          (xy 43.18 -43.18)
          (xy 43.18 5.08)
        )
        (stroke (width 0.127) (type default) (color 0 0 0 0))
        (fill (type none))
      )
      (polyline
        (pts
          (xy 43.18 5.08)
          (xy 7.62 5.08)
        )
        (stroke (width 0.127) (type default) (color 0 0 0 0))
        (fill (type none))
      )
      (pin bidirectional line (at 50.8 0 180) (length 7.62)
        (name "PE2" (effects (font (size 1.4986 1.4986))))
        (number "1" (effects (font (size 1.4986 1.4986))))
      )
      (pin bidirectional line (at 0 0 0) (length 7.62)
        (name "PH0-OSC_IN" (effects (font (size 1.4986 1.4986))))
        (number "12" (effects (font (size 1.4986 1.4986))))
      )
      (pin bidirectional line (at 50.8 -2.54 180) (length 7.62)
        (name "PE3" (effects (font (size 1.4986 1.4986))))
        (number "2" (effects (font (size 1.4986 1.4986))))
      )
      (pin bidirectional line (at 50.8 -5.08 180) (length 7.62)
        (name "PE4" (effects (font (size 1.4986 1.4986))))
        (number "3" (effects (font (size 1.4986 1.4986))))
      )
      (pin bidirectional line (at 50.8 -12.7 180) (length 7.62)
        (name "PE7" (effects (font (size 1.4986 1.4986))))
        (number "37" (effects (font (size 1.4986 1.4986))))
      )
      (pin bidirectional line (at 50.8 -15.24 180) (length 7.62)
        (name "PE8" (effects (font (size 1.4986 1.4986))))
        (number "38" (effects (font (size 1.4986 1.4986))))
      )
      (pin bidirectional line (at 50.8 -17.78 180) (length 7.62)
        (name "PE9" (effects (font (size 1.4986 1.4986))))
        (number "39" (effects (font (size 1.4986 1.4986))))
      )
      (pin bidirectional line (at 50.8 -7.62 180) (length 7.62)
        (name "PE5" (effects (font (size 1.4986 1.4986))))
        (number "4" (effects (font (size 1.4986 1.4986))))
      )
      (pin bidirectional line (at 50.8 -20.32 180) (length 7.62)
        (name "PE10" (effects (font (size 1.4986 1.4986))))
        (number "40" (effects (font (size 1.4986 1.4986))))
      )
      (pin bidirectional line (at 50.8 -22.86 180) (length 7.62)
        (name "PE11" (effects (font (size 1.4986 1.4986))))
        (number "41" (effects (font (size 1.4986 1.4986))))
      )
      (pin bidirectional line (at 50.8 -25.4 180) (length 7.62)
        (name "PE12" (effects (font (size 1.4986 1.4986))))
        (number "42" (effects (font (size 1.4986 1.4986))))
      )
      (pin bidirectional line (at 50.8 -27.94 180) (length 7.62)
        (name "PE13" (effects (font (size 1.4986 1.4986))))
        (number "43" (effects (font (size 1.4986 1.4986))))
      )
      (pin bidirectional line (at 50.8 -30.48 180) (length 7.62)
        (name "PE14" (effects (font (size 1.4986 1.4986))))
        (number "44" (effects (font (size 1.4986 1.4986))))
      )
      (pin bidirectional line (at 50.8 -33.02 180) (length 7.62)
        (name "PE15" (effects (font (size 1.4986 1.4986))))
        (number "45" (effects (font (size 1.4986 1.4986))))
      )
      (pin unspecified line (at 0 -7.62 0) (length 7.62)
        (name "VCAP" (effects (font (size 1.4986 1.4986))))
        (number "48" (effects (font (size 1.4986 1.4986))))
      )
      (pin bidirectional line (at 50.8 -10.16 180) (length 7.62)
        (name "PE6" (effects (font (size 1.4986 1.4986))))
        (number "5" (effects (font (size 1.4986 1.4986))))
      )
      (pin unspecified line (at 0 -2.54 0) (length 7.62)
        (name "VBAT" (effects (font (size 1.4986 1.4986))))
        (number "6" (effects (font (size 1.4986 1.4986))))
      )
      (pin unspecified line (at 0 -10.16 0) (length 7.62)
        (name "VCAP" (effects (font (size 1.4986 1.4986))))
        (number "73" (effects (font (size 1.4986 1.4986))))
      )
      (pin bidirectional line (at 50.8 -35.56 180) (length 7.62)
        (name "PE0" (effects (font (size 1.4986 1.4986))))
        (number "97" (effects (font (size 1.4986 1.4986))))
      )
      (pin bidirectional line (at 50.8 -38.1 180) (length 7.62)
        (name "PE1" (effects (font (size 1.4986 1.4986))))
        (number "98" (effects (font (size 1.4986 1.4986))))
      )
    )
    (symbol "STM32H7B0VBT6_3_1"
      (polyline
        (pts
          (xy 7.62 -40.64)
          (xy 33.02 -40.64)
        )
        (stroke (width 0.127) (type default) (color 0 0 0 0))
        (fill (type none))
      )
      (polyline
        (pts
          (xy 7.62 7.62)
          (xy 7.62 -40.64)
        )
        (stroke (width 0.127) (type default) (color 0 0 0 0))
        (fill (type none))
      )
      (polyline
        (pts
          (xy 33.02 -40.64)
          (xy 33.02 7.62)
        )
        (stroke (width 0.127) (type default) (color 0 0 0 0))
        (fill (type none))
      )
      (polyline
        (pts
          (xy 33.02 7.62)
          (xy 7.62 7.62)
        )
        (stroke (width 0.127) (type default) (color 0 0 0 0))
        (fill (type none))
      )
      (pin power_in line (at 0 -22.86 0) (length 7.62)
        (name "VSS" (effects (font (size 1.4986 1.4986))))
        (number "10" (effects (font (size 1.4986 1.4986))))
      )
      (pin power_in line (at 0 -10.16 0) (length 7.62)
        (name "VDD" (effects (font (size 1.4986 1.4986))))
        (number "100" (effects (font (size 1.4986 1.4986))))
      )
      (pin power_in line (at 0 0 0) (length 7.62)
        (name "VDD" (effects (font (size 1.4986 1.4986))))
        (number "11" (effects (font (size 1.4986 1.4986))))
      )
      (pin power_in line (at 0 -35.56 0) (length 7.62)
        (name "VSSA" (effects (font (size 1.4986 1.4986))))
        (number "19" (effects (font (size 1.4986 1.4986))))
      )
      (pin power_in line (at 0 -17.78 0) (length 7.62)
        (name "VREF+" (effects (font (size 1.4986 1.4986))))
        (number "20" (effects (font (size 1.4986 1.4986))))
      )
      (pin power_in line (at 0 -12.7 0) (length 7.62)
        (name "VDDA" (effects (font (size 1.4986 1.4986))))
        (number "21" (effects (font (size 1.4986 1.4986))))
      )
      (pin power_in line (at 0 -25.4 0) (length 7.62)
        (name "VSS" (effects (font (size 1.4986 1.4986))))
        (number "26" (effects (font (size 1.4986 1.4986))))
      )
      (pin power_in line (at 0 -2.54 0) (length 7.62)
        (name "VDD" (effects (font (size 1.4986 1.4986))))
        (number "27" (effects (font (size 1.4986 1.4986))))
      )
      (pin power_in line (at 0 -27.94 0) (length 7.62)
        (name "VSS" (effects (font (size 1.4986 1.4986))))
        (number "49" (effects (font (size 1.4986 1.4986))))
      )
      (pin power_in line (at 0 -5.08 0) (length 7.62)
        (name "VDD" (effects (font (size 1.4986 1.4986))))
        (number "50" (effects (font (size 1.4986 1.4986))))
      )
      (pin power_in line (at 0 -30.48 0) (length 7.62)
        (name "VSS" (effects (font (size 1.4986 1.4986))))
        (number "74" (effects (font (size 1.4986 1.4986))))
      )
      (pin power_in line (at 0 -7.62 0) (length 7.62)
        (name "VDD" (effects (font (size 1.4986 1.4986))))
        (number "75" (effects (font (size 1.4986 1.4986))))
      )
      (pin power_in line (at 0 -33.02 0) (length 7.62)
        (name "VSS" (effects (font (size 1.4986 1.4986))))
        (number "99" (effects (font (size 1.4986 1.4986))))
      )
    )
  )
)
