#VRML V1.0 ascii
Separator {
MaterialBinding {
value PER_FACE_INDEXED
}
Material {
ambientColor [
 0.752941 0.752941 0.752941, 0.294118 0.294118 0.294118, 0.294118 0.294118 0.294118, 0.294118 0.294118 0.294118, 0.294118 0.294118 0.294118,
 0.294118 0.294118 0.294118, 0.294118 0.294118 0.294118, 0.294118 0.294118 0.294118, 0.294118 0.294118 0.294118, 0.294118 0.294118 0.294118,
 0.294118 0.294118 0.294118, 0.294118 0.294118 0.294118, 0.294118 0.294118 0.294118, 0.294118 0.294118 0.294118, 0.294118 0.294118 0.294118,
 0.294118 0.294118 0.294118, 0.294118 0.294118 0.294118, 0.294118 0.294118 0.294118, 0.768627 0.768627 0.768627, 0.768627 0.768627 0.768627,
 0.768627 0.768627 0.768627, 0.768627 0.768627 0.768627, 0.768627 0.768627 0.768627, 0.768627 0.768627 0.768627, 0.768627 0.768627 0.768627,
 0.768627 0.768627 0.768627, 0.768627 0.768627 0.768627, 0.768627 0.768627 0.768627, 0.768627 0.768627 0.768627, 0.768627 0.768627 0.768627,
 0.294118 0.294118 0.294118, 0.294118 0.294118 0.294118, 0.294118 0.294118 0.294118, 0.294118 0.294118 0.294118, 0.294118 0.294118 0.294118,
 0.294118 0.294118 0.294118, 0.294118 0.294118 0.294118, 0.294118 0.294118 0.294118, 0.768627 0.768627 0.768627, 0.768627 0.768627 0.768627,
 0.768627 0.768627 0.768627, 0.768627 0.768627 0.768627, 0.768627 0.768627 0.768627, 0.768627 0.768627 0.768627, 0.768627 0.768627 0.768627,
 0.768627 0.768627 0.768627, 0.768627 0.768627 0.768627, 0.768627 0.768627 0.768627, 0.768627 0.768627 0.768627, 0.768627 0.768627 0.768627,
 0.768627 0.768627 0.768627, 0.768627 0.768627 0.768627, 0.768627 0.768627 0.768627, 0.768627 0.768627 0.768627, 0.768627 0.768627 0.768627,
 0.768627 0.768627 0.768627, 0.768627 0.768627 0.768627, 0.768627 0.768627 0.768627, 0.768627 0.768627 0.768627, 0.768627 0.768627 0.768627,
 0.768627 0.768627 0.768627, 0.768627 0.768627 0.768627, 0.768627 0.768627 0.768627, 0.768627 0.768627 0.768627, 0.768627 0.768627 0.768627,
 0.768627 0.768627 0.768627, 0.768627 0.768627 0.768627, 0.768627 0.768627 0.768627, 0.768627 0.768627 0.768627, 0.768627 0.768627 0.768627,
 0.768627 0.768627 0.768627, 0.768627 0.768627 0.768627, 0.768627 0.768627 0.768627, 0.768627 0.768627 0.768627, 0.768627 0.768627 0.768627,
 0.768627 0.768627 0.768627, 0.768627 0.768627 0.768627, 0.768627 0.768627 0.768627, 0.768627 0.768627 0.768627, 0.768627 0.768627 0.768627,
 0.768627 0.768627 0.768627, 0.768627 0.768627 0.768627, 0.768627 0.768627 0.768627, 0.768627 0.768627 0.768627, 0.768627 0.768627 0.768627,
 0.768627 0.768627 0.768627, 0.768627 0.768627 0.768627, 0.768627 0.768627 0.768627, 0.768627 0.768627 0.768627, 0.768627 0.768627 0.768627,
 0.768627 0.768627 0.768627, 0.768627 0.768627 0.768627, 0.768627 0.768627 0.768627, 0.768627 0.768627 0.768627, 0.768627 0.768627 0.768627,
 0.768627 0.768627 0.768627, 0.768627 0.768627 0.768627, 0.768627 0.768627 0.768627, 0.768627 0.768627 0.768627, 0.768627 0.768627 0.768627,
 0.768627 0.768627 0.768627, 0.768627 0.768627 0.768627, 0.768627 0.768627 0.768627, 0.768627 0.768627 0.768627, 0.768627 0.768627 0.768627,
 0.768627 0.768627 0.768627, 0.768627 0.768627 0.768627, 0.768627 0.768627 0.768627, 0.768627 0.768627 0.768627, 0.768627 0.768627 0.768627,
 0.768627 0.768627 0.768627, 0.768627 0.768627 0.768627, 0.768627 0.768627 0.768627, 0.768627 0.768627 0.768627, 0.768627 0.768627 0.768627,
 0.768627 0.768627 0.768627, 0.768627 0.768627 0.768627, 0.768627 0.768627 0.768627, 0.768627 0.768627 0.768627, 0.768627 0.768627 0.768627,
 0.768627 0.768627 0.768627, 0.768627 0.768627 0.768627, 0.768627 0.768627 0.768627, 0.768627 0.768627 0.768627, 0.768627 0.768627 0.768627,
 0.768627 0.768627 0.768627, 0.768627 0.768627 0.768627, 0.768627 0.768627 0.768627, 0.768627 0.768627 0.768627, 0.768627 0.768627 0.768627,
 0.768627 0.768627 0.768627, 0.768627 0.768627 0.768627, 0.768627 0.768627 0.768627, 0.768627 0.768627 0.768627, 0.768627 0.768627 0.768627,
 0.768627 0.768627 0.768627, 0.768627 0.768627 0.768627, 0.768627 0.768627 0.768627, 0.768627 0.768627 0.768627, 0.768627 0.768627 0.768627,
 0.768627 0.768627 0.768627
]
diffuseColor [
 0.752941 0.752941 0.752941, 0.294118 0.294118 0.294118, 0.294118 0.294118 0.294118, 0.294118 0.294118 0.294118, 0.294118 0.294118 0.294118,
 0.294118 0.294118 0.294118, 0.294118 0.294118 0.294118, 0.294118 0.294118 0.294118, 0.294118 0.294118 0.294118, 0.294118 0.294118 0.294118,
 0.294118 0.294118 0.294118, 0.294118 0.294118 0.294118, 0.294118 0.294118 0.294118, 0.294118 0.294118 0.294118, 0.294118 0.294118 0.294118,
 0.294118 0.294118 0.294118, 0.294118 0.294118 0.294118, 0.294118 0.294118 0.294118, 0.768627 0.768627 0.768627, 0.768627 0.768627 0.768627,
 0.768627 0.768627 0.768627, 0.768627 0.768627 0.768627, 0.768627 0.768627 0.768627, 0.768627 0.768627 0.768627, 0.768627 0.768627 0.768627,
 0.768627 0.768627 0.768627, 0.768627 0.768627 0.768627, 0.768627 0.768627 0.768627, 0.768627 0.768627 0.768627, 0.768627 0.768627 0.768627,
 0.294118 0.294118 0.294118, 0.294118 0.294118 0.294118, 0.294118 0.294118 0.294118, 0.294118 0.294118 0.294118, 0.294118 0.294118 0.294118,
 0.294118 0.294118 0.294118, 0.294118 0.294118 0.294118, 0.294118 0.294118 0.294118, 0.768627 0.768627 0.768627, 0.768627 0.768627 0.768627,
 0.768627 0.768627 0.768627, 0.768627 0.768627 0.768627, 0.768627 0.768627 0.768627, 0.768627 0.768627 0.768627, 0.768627 0.768627 0.768627,
 0.768627 0.768627 0.768627, 0.768627 0.768627 0.768627, 0.768627 0.768627 0.768627, 0.768627 0.768627 0.768627, 0.768627 0.768627 0.768627,
 0.768627 0.768627 0.768627, 0.768627 0.768627 0.768627, 0.768627 0.768627 0.768627, 0.768627 0.768627 0.768627, 0.768627 0.768627 0.768627,
 0.768627 0.768627 0.768627, 0.768627 0.768627 0.768627, 0.768627 0.768627 0.768627, 0.768627 0.768627 0.768627, 0.768627 0.768627 0.768627,
 0.768627 0.768627 0.768627, 0.768627 0.768627 0.768627, 0.768627 0.768627 0.768627, 0.768627 0.768627 0.768627, 0.768627 0.768627 0.768627,
 0.768627 0.768627 0.768627, 0.768627 0.768627 0.768627, 0.768627 0.768627 0.768627, 0.768627 0.768627 0.768627, 0.768627 0.768627 0.768627,
 0.768627 0.768627 0.768627, 0.768627 0.768627 0.768627, 0.768627 0.768627 0.768627, 0.768627 0.768627 0.768627, 0.768627 0.768627 0.768627,
 0.768627 0.768627 0.768627, 0.768627 0.768627 0.768627, 0.768627 0.768627 0.768627, 0.768627 0.768627 0.768627, 0.768627 0.768627 0.768627,
 0.768627 0.768627 0.768627, 0.768627 0.768627 0.768627, 0.768627 0.768627 0.768627, 0.768627 0.768627 0.768627, 0.768627 0.768627 0.768627,
 0.768627 0.768627 0.768627, 0.768627 0.768627 0.768627, 0.768627 0.768627 0.768627, 0.768627 0.768627 0.768627, 0.768627 0.768627 0.768627,
 0.768627 0.768627 0.768627, 0.768627 0.768627 0.768627, 0.768627 0.768627 0.768627, 0.768627 0.768627 0.768627, 0.768627 0.768627 0.768627,
 0.768627 0.768627 0.768627, 0.768627 0.768627 0.768627, 0.768627 0.768627 0.768627, 0.768627 0.768627 0.768627, 0.768627 0.768627 0.768627,
 0.768627 0.768627 0.768627, 0.768627 0.768627 0.768627, 0.768627 0.768627 0.768627, 0.768627 0.768627 0.768627, 0.768627 0.768627 0.768627,
 0.768627 0.768627 0.768627, 0.768627 0.768627 0.768627, 0.768627 0.768627 0.768627, 0.768627 0.768627 0.768627, 0.768627 0.768627 0.768627,
 0.768627 0.768627 0.768627, 0.768627 0.768627 0.768627, 0.768627 0.768627 0.768627, 0.768627 0.768627 0.768627, 0.768627 0.768627 0.768627,
 0.768627 0.768627 0.768627, 0.768627 0.768627 0.768627, 0.768627 0.768627 0.768627, 0.768627 0.768627 0.768627, 0.768627 0.768627 0.768627,
 0.768627 0.768627 0.768627, 0.768627 0.768627 0.768627, 0.768627 0.768627 0.768627, 0.768627 0.768627 0.768627, 0.768627 0.768627 0.768627,
 0.768627 0.768627 0.768627, 0.768627 0.768627 0.768627, 0.768627 0.768627 0.768627, 0.768627 0.768627 0.768627, 0.768627 0.768627 0.768627,
 0.768627 0.768627 0.768627, 0.768627 0.768627 0.768627, 0.768627 0.768627 0.768627, 0.768627 0.768627 0.768627, 0.768627 0.768627 0.768627,
 0.768627 0.768627 0.768627, 0.768627 0.768627 0.768627, 0.768627 0.768627 0.768627, 0.768627 0.768627 0.768627, 0.768627 0.768627 0.768627,
 0.768627 0.768627 0.768627
]
emissiveColor [
 0.000000 0.000000 0.000000, 0.000000 0.000000 0.000000, 0.000000 0.000000 0.000000, 0.000000 0.000000 0.000000, 0.000000 0.000000 0.000000,
 0.000000 0.000000 0.000000, 0.000000 0.000000 0.000000, 0.000000 0.000000 0.000000, 0.000000 0.000000 0.000000, 0.000000 0.000000 0.000000,
 0.000000 0.000000 0.000000, 0.000000 0.000000 0.000000, 0.000000 0.000000 0.000000, 0.000000 0.000000 0.000000, 0.000000 0.000000 0.000000,
 0.000000 0.000000 0.000000, 0.000000 0.000000 0.000000, 0.000000 0.000000 0.000000, 0.000000 0.000000 0.000000, 0.000000 0.000000 0.000000,
 0.000000 0.000000 0.000000, 0.000000 0.000000 0.000000, 0.000000 0.000000 0.000000, 0.000000 0.000000 0.000000, 0.000000 0.000000 0.000000,
 0.000000 0.000000 0.000000, 0.000000 0.000000 0.000000, 0.000000 0.000000 0.000000, 0.000000 0.000000 0.000000, 0.000000 0.000000 0.000000,
 0.000000 0.000000 0.000000, 0.000000 0.000000 0.000000, 0.000000 0.000000 0.000000, 0.000000 0.000000 0.000000, 0.000000 0.000000 0.000000,
 0.000000 0.000000 0.000000, 0.000000 0.000000 0.000000, 0.000000 0.000000 0.000000, 0.000000 0.000000 0.000000, 0.000000 0.000000 0.000000,
 0.000000 0.000000 0.000000, 0.000000 0.000000 0.000000, 0.000000 0.000000 0.000000, 0.000000 0.000000 0.000000, 0.000000 0.000000 0.000000,
 0.000000 0.000000 0.000000, 0.000000 0.000000 0.000000, 0.000000 0.000000 0.000000, 0.000000 0.000000 0.000000, 0.000000 0.000000 0.000000,
 0.000000 0.000000 0.000000, 0.000000 0.000000 0.000000, 0.000000 0.000000 0.000000, 0.000000 0.000000 0.000000, 0.000000 0.000000 0.000000,
 0.000000 0.000000 0.000000, 0.000000 0.000000 0.000000, 0.000000 0.000000 0.000000, 0.000000 0.000000 0.000000, 0.000000 0.000000 0.000000,
 0.000000 0.000000 0.000000, 0.000000 0.000000 0.000000, 0.000000 0.000000 0.000000, 0.000000 0.000000 0.000000, 0.000000 0.000000 0.000000,
 0.000000 0.000000 0.000000, 0.000000 0.000000 0.000000, 0.000000 0.000000 0.000000, 0.000000 0.000000 0.000000, 0.000000 0.000000 0.000000,
 0.000000 0.000000 0.000000, 0.000000 0.000000 0.000000, 0.000000 0.000000 0.000000, 0.000000 0.000000 0.000000, 0.000000 0.000000 0.000000,
 0.000000 0.000000 0.000000, 0.000000 0.000000 0.000000, 0.000000 0.000000 0.000000, 0.000000 0.000000 0.000000, 0.000000 0.000000 0.000000,
 0.000000 0.000000 0.000000, 0.000000 0.000000 0.000000, 0.000000 0.000000 0.000000, 0.000000 0.000000 0.000000, 0.000000 0.000000 0.000000,
 0.000000 0.000000 0.000000, 0.000000 0.000000 0.000000, 0.000000 0.000000 0.000000, 0.000000 0.000000 0.000000, 0.000000 0.000000 0.000000,
 0.000000 0.000000 0.000000, 0.000000 0.000000 0.000000, 0.000000 0.000000 0.000000, 0.000000 0.000000 0.000000, 0.000000 0.000000 0.000000,
 0.000000 0.000000 0.000000, 0.000000 0.000000 0.000000, 0.000000 0.000000 0.000000, 0.000000 0.000000 0.000000, 0.000000 0.000000 0.000000,
 0.000000 0.000000 0.000000, 0.000000 0.000000 0.000000, 0.000000 0.000000 0.000000, 0.000000 0.000000 0.000000, 0.000000 0.000000 0.000000,
 0.000000 0.000000 0.000000, 0.000000 0.000000 0.000000, 0.000000 0.000000 0.000000, 0.000000 0.000000 0.000000, 0.000000 0.000000 0.000000,
 0.000000 0.000000 0.000000, 0.000000 0.000000 0.000000, 0.000000 0.000000 0.000000, 0.000000 0.000000 0.000000, 0.000000 0.000000 0.000000,
 0.000000 0.000000 0.000000, 0.000000 0.000000 0.000000, 0.000000 0.000000 0.000000, 0.000000 0.000000 0.000000, 0.000000 0.000000 0.000000,
 0.000000 0.000000 0.000000, 0.000000 0.000000 0.000000, 0.000000 0.000000 0.000000, 0.000000 0.000000 0.000000, 0.000000 0.000000 0.000000,
 0.000000 0.000000 0.000000, 0.000000 0.000000 0.000000, 0.000000 0.000000 0.000000, 0.000000 0.000000 0.000000, 0.000000 0.000000 0.000000,
 0.000000 0.000000 0.000000, 0.000000 0.000000 0.000000, 0.000000 0.000000 0.000000, 0.000000 0.000000 0.000000, 0.000000 0.000000 0.000000,
 0.000000 0.000000 0.000000, 0.000000 0.000000 0.000000, 0.000000 0.000000 0.000000, 0.000000 0.000000 0.000000, 0.000000 0.000000 0.000000,
 0.000000 0.000000 0.000000
]
specularColor [
 0.376471 0.376471 0.376471, 0.088235 0.088235 0.088235, 0.088235 0.088235 0.088235, 0.088235 0.088235 0.088235, 0.088235 0.088235 0.088235,
 0.088235 0.088235 0.088235, 0.088235 0.088235 0.088235, 0.088235 0.088235 0.088235, 0.088235 0.088235 0.088235, 0.088235 0.088235 0.088235,
 0.088235 0.088235 0.088235, 0.088235 0.088235 0.088235, 0.088235 0.088235 0.088235, 0.088235 0.088235 0.088235, 0.088235 0.088235 0.088235,
 0.088235 0.088235 0.088235, 0.088235 0.088235 0.088235, 0.088235 0.088235 0.088235, 0.614902 0.614902 0.614902, 0.614902 0.614902 0.614902,
 0.614902 0.614902 0.614902, 0.614902 0.614902 0.614902, 0.614902 0.614902 0.614902, 0.614902 0.614902 0.614902, 0.614902 0.614902 0.614902,
 0.614902 0.614902 0.614902, 0.614902 0.614902 0.614902, 0.614902 0.614902 0.614902, 0.614902 0.614902 0.614902, 0.614902 0.614902 0.614902,
 0.088235 0.088235 0.088235, 0.088235 0.088235 0.088235, 0.088235 0.088235 0.088235, 0.088235 0.088235 0.088235, 0.088235 0.088235 0.088235,
 0.088235 0.088235 0.088235, 0.088235 0.088235 0.088235, 0.088235 0.088235 0.088235, 0.614902 0.614902 0.614902, 0.614902 0.614902 0.614902,
 0.614902 0.614902 0.614902, 0.614902 0.614902 0.614902, 0.614902 0.614902 0.614902, 0.614902 0.614902 0.614902, 0.614902 0.614902 0.614902,
 0.614902 0.614902 0.614902, 0.614902 0.614902 0.614902, 0.614902 0.614902 0.614902, 0.614902 0.614902 0.614902, 0.614902 0.614902 0.614902,
 0.614902 0.614902 0.614902, 0.614902 0.614902 0.614902, 0.614902 0.614902 0.614902, 0.614902 0.614902 0.614902, 0.614902 0.614902 0.614902,
 0.614902 0.614902 0.614902, 0.614902 0.614902 0.614902, 0.614902 0.614902 0.614902, 0.614902 0.614902 0.614902, 0.614902 0.614902 0.614902,
 0.614902 0.614902 0.614902, 0.614902 0.614902 0.614902, 0.614902 0.614902 0.614902, 0.614902 0.614902 0.614902, 0.614902 0.614902 0.614902,
 0.614902 0.614902 0.614902, 0.614902 0.614902 0.614902, 0.614902 0.614902 0.614902, 0.614902 0.614902 0.614902, 0.614902 0.614902 0.614902,
 0.614902 0.614902 0.614902, 0.614902 0.614902 0.614902, 0.614902 0.614902 0.614902, 0.614902 0.614902 0.614902, 0.614902 0.614902 0.614902,
 0.614902 0.614902 0.614902, 0.614902 0.614902 0.614902, 0.614902 0.614902 0.614902, 0.614902 0.614902 0.614902, 0.614902 0.614902 0.614902,
 0.614902 0.614902 0.614902, 0.614902 0.614902 0.614902, 0.614902 0.614902 0.614902, 0.614902 0.614902 0.614902, 0.614902 0.614902 0.614902,
 0.614902 0.614902 0.614902, 0.614902 0.614902 0.614902, 0.614902 0.614902 0.614902, 0.614902 0.614902 0.614902, 0.614902 0.614902 0.614902,
 0.614902 0.614902 0.614902, 0.614902 0.614902 0.614902, 0.614902 0.614902 0.614902, 0.614902 0.614902 0.614902, 0.614902 0.614902 0.614902,
 0.614902 0.614902 0.614902, 0.614902 0.614902 0.614902, 0.614902 0.614902 0.614902, 0.614902 0.614902 0.614902, 0.614902 0.614902 0.614902,
 0.614902 0.614902 0.614902, 0.614902 0.614902 0.614902, 0.614902 0.614902 0.614902, 0.614902 0.614902 0.614902, 0.614902 0.614902 0.614902,
 0.614902 0.614902 0.614902, 0.614902 0.614902 0.614902, 0.614902 0.614902 0.614902, 0.614902 0.614902 0.614902, 0.614902 0.614902 0.614902,
 0.614902 0.614902 0.614902, 0.614902 0.614902 0.614902, 0.614902 0.614902 0.614902, 0.614902 0.614902 0.614902, 0.614902 0.614902 0.614902,
 0.614902 0.614902 0.614902, 0.614902 0.614902 0.614902, 0.614902 0.614902 0.614902, 0.614902 0.614902 0.614902, 0.614902 0.614902 0.614902,
 0.614902 0.614902 0.614902, 0.614902 0.614902 0.614902, 0.614902 0.614902 0.614902, 0.614902 0.614902 0.614902, 0.614902 0.614902 0.614902,
 0.614902 0.614902 0.614902, 0.614902 0.614902 0.614902, 0.614902 0.614902 0.614902, 0.614902 0.614902 0.614902, 0.614902 0.614902 0.614902,
 0.614902 0.614902 0.614902, 0.614902 0.614902 0.614902, 0.614902 0.614902 0.614902, 0.614902 0.614902 0.614902, 0.614902 0.614902 0.614902,
 0.614902 0.614902 0.614902, 0.614902 0.614902 0.614902, 0.614902 0.614902 0.614902, 0.614902 0.614902 0.614902, 0.614902 0.614902 0.614902,
 0.614902 0.614902 0.614902
]
shininess [
 0.400000, 0.500000, 0.500000, 0.500000, 0.500000, 0.500000, 0.500000, 0.500000, 0.500000, 0.500000,
 0.400000, 0.500000, 0.500000, 0.500000, 0.500000, 0.500000, 0.500000, 0.500000, 0.500000, 0.500000, 0.500000, 0.500000, 0.500000, 0.500000, 0.500000, 0.500000, 0.500000, 0.500000, 0.100000, 0.100000,
 0.400000, 0.500000, 0.500000, 0.500000, 0.500000, 0.500000, 0.500000, 0.500000, 0.500000, 0.500000, 0.500000, 0.500000, 0.500000, 0.500000, 0.500000, 0.500000, 0.500000, 0.500000, 0.100000, 0.100000, 0.100000, 0.100000, 0.100000, 0.100000, 0.100000, 0.100000, 0.100000, 0.100000, 0.100000, 0.100000,
 0.400000, 0.500000, 0.500000, 0.500000, 0.500000, 0.500000, 0.500000, 0.500000, 0.500000, 0.500000, 0.500000, 0.500000, 0.500000, 0.500000, 0.500000, 0.500000, 0.500000, 0.500000, 0.100000, 0.100000, 0.100000, 0.100000, 0.100000, 0.100000, 0.100000, 0.100000, 0.100000, 0.100000, 0.100000, 0.100000, 0.500000, 0.500000, 0.500000, 0.500000, 0.500000, 0.500000, 0.500000, 0.500000, 0.100000, 0.100000,
 0.400000, 0.500000, 0.500000, 0.500000, 0.500000, 0.500000, 0.500000, 0.500000, 0.500000, 0.500000, 0.500000, 0.500000, 0.500000, 0.500000, 0.500000, 0.500000, 0.500000, 0.500000, 0.100000, 0.100000, 0.100000, 0.100000, 0.100000, 0.100000, 0.100000, 0.100000, 0.100000, 0.100000, 0.100000, 0.100000, 0.500000, 0.500000, 0.500000, 0.500000, 0.500000, 0.500000, 0.500000, 0.500000, 0.100000, 0.100000, 0.100000, 0.100000, 0.100000, 0.100000, 0.100000, 0.100000, 0.100000, 0.100000, 0.100000, 0.100000,
 0.400000, 0.500000, 0.500000, 0.500000, 0.500000, 0.500000, 0.500000, 0.500000, 0.500000, 0.500000, 0.500000, 0.500000, 0.500000, 0.500000, 0.500000, 0.500000, 0.500000, 0.500000, 0.100000, 0.100000, 0.100000, 0.100000, 0.100000, 0.100000, 0.100000, 0.100000, 0.100000, 0.100000, 0.100000, 0.100000, 0.500000, 0.500000, 0.500000, 0.500000, 0.500000, 0.500000, 0.500000, 0.500000, 0.100000, 0.100000, 0.100000, 0.100000, 0.100000, 0.100000, 0.100000, 0.100000, 0.100000, 0.100000, 0.100000, 0.100000, 0.100000, 0.100000, 0.100000, 0.100000, 0.100000, 0.100000, 0.100000, 0.100000, 0.100000, 0.100000,
 0.400000, 0.500000, 0.500000, 0.500000, 0.500000, 0.500000, 0.500000, 0.500000, 0.500000, 0.500000, 0.500000, 0.500000, 0.500000, 0.500000, 0.500000, 0.500000, 0.500000, 0.500000, 0.100000, 0.100000, 0.100000, 0.100000, 0.100000, 0.100000, 0.100000, 0.100000, 0.100000, 0.100000, 0.100000, 0.100000, 0.500000, 0.500000, 0.500000, 0.500000, 0.500000, 0.500000, 0.500000, 0.500000, 0.100000, 0.100000, 0.100000, 0.100000, 0.100000, 0.100000, 0.100000, 0.100000, 0.100000, 0.100000, 0.100000, 0.100000, 0.100000, 0.100000, 0.100000, 0.100000, 0.100000, 0.100000, 0.100000, 0.100000, 0.100000, 0.100000, 0.100000, 0.100000, 0.100000, 0.100000, 0.100000, 0.100000, 0.100000, 0.100000, 0.100000, 0.100000,
 0.400000, 0.500000, 0.500000, 0.500000, 0.500000, 0.500000, 0.500000, 0.500000, 0.500000, 0.500000, 0.500000, 0.500000, 0.500000, 0.500000, 0.500000, 0.500000, 0.500000, 0.500000, 0.100000, 0.100000, 0.100000, 0.100000, 0.100000, 0.100000, 0.100000, 0.100000, 0.100000, 0.100000, 0.100000, 0.100000, 0.500000, 0.500000, 0.500000, 0.500000, 0.500000, 0.500000, 0.500000, 0.500000, 0.100000, 0.100000, 0.100000, 0.100000, 0.100000, 0.100000, 0.100000, 0.100000, 0.100000, 0.100000, 0.100000, 0.100000, 0.100000, 0.100000, 0.100000, 0.100000, 0.100000, 0.100000, 0.100000, 0.100000, 0.100000, 0.100000, 0.100000, 0.100000, 0.100000, 0.100000, 0.100000, 0.100000, 0.100000, 0.100000, 0.100000, 0.100000, 0.100000, 0.100000, 0.100000, 0.100000, 0.100000, 0.100000, 0.100000, 0.100000, 0.100000, 0.100000,
 0.400000, 0.500000, 0.500000, 0.500000, 0.500000, 0.500000, 0.500000, 0.500000, 0.500000, 0.500000, 0.500000, 0.500000, 0.500000, 0.500000, 0.500000, 0.500000, 0.500000, 0.500000, 0.100000, 0.100000, 0.100000, 0.100000, 0.100000, 0.100000, 0.100000, 0.100000, 0.100000, 0.100000, 0.100000, 0.100000, 0.500000, 0.500000, 0.500000, 0.500000, 0.500000, 0.500000, 0.500000, 0.500000, 0.100000, 0.100000, 0.100000, 0.100000, 0.100000, 0.100000, 0.100000, 0.100000, 0.100000, 0.100000, 0.100000, 0.100000, 0.100000, 0.100000, 0.100000, 0.100000, 0.100000, 0.100000, 0.100000, 0.100000, 0.100000, 0.100000, 0.100000, 0.100000, 0.100000, 0.100000, 0.100000, 0.100000, 0.100000, 0.100000, 0.100000, 0.100000, 0.100000, 0.100000, 0.100000, 0.100000, 0.100000, 0.100000, 0.100000, 0.100000, 0.100000, 0.100000, 0.100000, 0.100000, 0.100000, 0.100000, 0.100000, 0.100000, 0.100000, 0.100000, 0.100000, 0.100000,
 0.400000, 0.500000, 0.500000, 0.500000, 0.500000, 0.500000, 0.500000, 0.500000, 0.500000, 0.500000, 0.500000, 0.500000, 0.500000, 0.500000, 0.500000, 0.500000, 0.500000, 0.500000, 0.100000, 0.100000, 0.100000, 0.100000, 0.100000, 0.100000, 0.100000, 0.100000, 0.100000, 0.100000, 0.100000, 0.100000, 0.500000, 0.500000, 0.500000, 0.500000, 0.500000, 0.500000, 0.500000, 0.500000, 0.100000, 0.100000, 0.100000, 0.100000, 0.100000, 0.100000, 0.100000, 0.100000, 0.100000, 0.100000, 0.100000, 0.100000, 0.100000, 0.100000, 0.100000, 0.100000, 0.100000, 0.100000, 0.100000, 0.100000, 0.100000, 0.100000, 0.100000, 0.100000, 0.100000, 0.100000, 0.100000, 0.100000, 0.100000, 0.100000, 0.100000, 0.100000, 0.100000, 0.100000, 0.100000, 0.100000, 0.100000, 0.100000, 0.100000, 0.100000, 0.100000, 0.100000, 0.100000, 0.100000, 0.100000, 0.100000, 0.100000, 0.100000, 0.100000, 0.100000, 0.100000, 0.100000, 0.100000, 0.100000, 0.100000, 0.100000, 0.100000, 0.100000, 0.100000, 0.100000, 0.100000, 0.100000,
 0.400000, 0.500000, 0.500000, 0.500000, 0.500000, 0.500000, 0.500000, 0.500000, 0.500000, 0.500000, 0.500000, 0.500000, 0.500000, 0.500000, 0.500000, 0.500000, 0.500000, 0.500000, 0.100000, 0.100000, 0.100000, 0.100000, 0.100000, 0.100000, 0.100000, 0.100000, 0.100000, 0.100000, 0.100000, 0.100000, 0.500000, 0.500000, 0.500000, 0.500000, 0.500000, 0.500000, 0.500000, 0.500000, 0.100000, 0.100000, 0.100000, 0.100000, 0.100000, 0.100000, 0.100000, 0.100000, 0.100000, 0.100000, 0.100000, 0.100000, 0.100000, 0.100000, 0.100000, 0.100000, 0.100000, 0.100000, 0.100000, 0.100000, 0.100000, 0.100000, 0.100000, 0.100000, 0.100000, 0.100000, 0.100000, 0.100000, 0.100000, 0.100000, 0.100000, 0.100000, 0.100000, 0.100000, 0.100000, 0.100000, 0.100000, 0.100000, 0.100000, 0.100000, 0.100000, 0.100000, 0.100000, 0.100000, 0.100000, 0.100000, 0.100000, 0.100000, 0.100000, 0.100000, 0.100000, 0.100000, 0.100000, 0.100000, 0.100000, 0.100000, 0.100000, 0.100000, 0.100000, 0.100000, 0.100000, 0.100000, 0.100000, 0.100000, 0.100000, 0.100000, 0.100000, 0.100000, 0.100000, 0.100000, 0.100000, 0.100000,
 0.400000, 0.500000, 0.500000, 0.500000, 0.500000, 0.500000, 0.500000, 0.500000, 0.500000, 0.500000, 0.500000, 0.500000, 0.500000, 0.500000, 0.500000, 0.500000, 0.500000, 0.500000, 0.100000, 0.100000, 0.100000, 0.100000, 0.100000, 0.100000, 0.100000, 0.100000, 0.100000, 0.100000, 0.100000, 0.100000, 0.500000, 0.500000, 0.500000, 0.500000, 0.500000, 0.500000, 0.500000, 0.500000, 0.100000, 0.100000, 0.100000, 0.100000, 0.100000, 0.100000, 0.100000, 0.100000, 0.100000, 0.100000, 0.100000, 0.100000, 0.100000, 0.100000, 0.100000, 0.100000, 0.100000, 0.100000, 0.100000, 0.100000, 0.100000, 0.100000, 0.100000, 0.100000, 0.100000, 0.100000, 0.100000, 0.100000, 0.100000, 0.100000, 0.100000, 0.100000, 0.100000, 0.100000, 0.100000, 0.100000, 0.100000, 0.100000, 0.100000, 0.100000, 0.100000, 0.100000, 0.100000, 0.100000, 0.100000, 0.100000, 0.100000, 0.100000, 0.100000, 0.100000, 0.100000, 0.100000, 0.100000, 0.100000, 0.100000, 0.100000, 0.100000, 0.100000, 0.100000, 0.100000, 0.100000, 0.100000, 0.100000, 0.100000, 0.100000, 0.100000, 0.100000, 0.100000, 0.100000, 0.100000, 0.100000, 0.100000, 0.100000, 0.100000, 0.100000, 0.100000, 0.100000, 0.100000, 0.100000, 0.100000, 0.100000, 0.100000,
 0.400000, 0.500000, 0.500000, 0.500000, 0.500000, 0.500000, 0.500000, 0.500000, 0.500000, 0.500000, 0.500000, 0.500000, 0.500000, 0.500000, 0.500000, 0.500000, 0.500000, 0.500000, 0.100000, 0.100000, 0.100000, 0.100000, 0.100000, 0.100000, 0.100000, 0.100000, 0.100000, 0.100000, 0.100000, 0.100000, 0.500000, 0.500000, 0.500000, 0.500000, 0.500000, 0.500000, 0.500000, 0.500000, 0.100000, 0.100000, 0.100000, 0.100000, 0.100000, 0.100000, 0.100000, 0.100000, 0.100000, 0.100000, 0.100000, 0.100000, 0.100000, 0.100000, 0.100000, 0.100000, 0.100000, 0.100000, 0.100000, 0.100000, 0.100000, 0.100000, 0.100000, 0.100000, 0.100000, 0.100000, 0.100000, 0.100000, 0.100000, 0.100000, 0.100000, 0.100000, 0.100000, 0.100000, 0.100000, 0.100000, 0.100000, 0.100000, 0.100000, 0.100000, 0.100000, 0.100000, 0.100000, 0.100000, 0.100000, 0.100000, 0.100000, 0.100000, 0.100000, 0.100000, 0.100000, 0.100000, 0.100000, 0.100000, 0.100000, 0.100000, 0.100000, 0.100000, 0.100000, 0.100000, 0.100000, 0.100000, 0.100000, 0.100000, 0.100000, 0.100000, 0.100000, 0.100000, 0.100000, 0.100000, 0.100000, 0.100000, 0.100000, 0.100000, 0.100000, 0.100000, 0.100000, 0.100000, 0.100000, 0.100000, 0.100000, 0.100000, 0.100000, 0.100000, 0.100000, 0.100000, 0.100000, 0.100000, 0.100000, 0.100000, 0.100000, 0.100000,
 0.400000, 0.500000, 0.500000, 0.500000, 0.500000, 0.500000, 0.500000, 0.500000, 0.500000, 0.500000, 0.500000, 0.500000, 0.500000, 0.500000, 0.500000, 0.500000, 0.500000, 0.500000, 0.100000, 0.100000, 0.100000, 0.100000, 0.100000, 0.100000, 0.100000, 0.100000, 0.100000, 0.100000, 0.100000, 0.100000, 0.500000, 0.500000, 0.500000, 0.500000, 0.500000, 0.500000, 0.500000, 0.500000, 0.100000, 0.100000, 0.100000, 0.100000, 0.100000, 0.100000, 0.100000, 0.100000, 0.100000, 0.100000, 0.100000, 0.100000, 0.100000, 0.100000, 0.100000, 0.100000, 0.100000, 0.100000, 0.100000, 0.100000, 0.100000, 0.100000, 0.100000, 0.100000, 0.100000, 0.100000, 0.100000, 0.100000, 0.100000, 0.100000, 0.100000, 0.100000, 0.100000, 0.100000, 0.100000, 0.100000, 0.100000, 0.100000, 0.100000, 0.100000, 0.100000, 0.100000, 0.100000, 0.100000, 0.100000, 0.100000, 0.100000, 0.100000, 0.100000, 0.100000, 0.100000, 0.100000, 0.100000, 0.100000, 0.100000, 0.100000, 0.100000, 0.100000, 0.100000, 0.100000, 0.100000, 0.100000, 0.100000, 0.100000, 0.100000, 0.100000, 0.100000, 0.100000, 0.100000, 0.100000, 0.100000, 0.100000, 0.100000, 0.100000, 0.100000, 0.100000, 0.100000, 0.100000, 0.100000, 0.100000, 0.100000, 0.100000, 0.100000, 0.100000, 0.100000, 0.100000, 0.100000, 0.100000, 0.100000, 0.100000, 0.100000, 0.100000, 0.100000, 0.100000, 0.100000, 0.100000, 0.100000, 0.100000, 0.100000, 0.100000, 0.100000, 0.100000,
 0.100000
]
transparency [
 0.000000, 0.000000, 0.000000, 0.000000, 0.000000, 0.000000, 0.000000, 0.000000, 0.000000, 0.000000,
 0.000000, 0.000000, 0.000000, 0.000000, 0.000000, 0.000000, 0.000000, 0.000000, 0.000000, 0.000000, 0.000000, 0.000000, 0.000000, 0.000000, 0.000000, 0.000000, 0.000000, 0.000000, 0.000000, 0.000000,
 0.000000, 0.000000, 0.000000, 0.000000, 0.000000, 0.000000, 0.000000, 0.000000, 0.000000, 0.000000, 0.000000, 0.000000, 0.000000, 0.000000, 0.000000, 0.000000, 0.000000, 0.000000, 0.000000, 0.000000, 0.000000, 0.000000, 0.000000, 0.000000, 0.000000, 0.000000, 0.000000, 0.000000, 0.000000, 0.000000,
 0.000000, 0.000000, 0.000000, 0.000000, 0.000000, 0.000000, 0.000000, 0.000000, 0.000000, 0.000000, 0.000000, 0.000000, 0.000000, 0.000000, 0.000000, 0.000000, 0.000000, 0.000000, 0.000000, 0.000000, 0.000000, 0.000000, 0.000000, 0.000000, 0.000000, 0.000000, 0.000000, 0.000000, 0.000000, 0.000000, 0.000000, 0.000000, 0.000000, 0.000000, 0.000000, 0.000000, 0.000000, 0.000000, 0.000000, 0.000000,
 0.000000, 0.000000, 0.000000, 0.000000, 0.000000, 0.000000, 0.000000, 0.000000, 0.000000, 0.000000, 0.000000, 0.000000, 0.000000, 0.000000, 0.000000, 0.000000, 0.000000, 0.000000, 0.000000, 0.000000, 0.000000, 0.000000, 0.000000, 0.000000, 0.000000, 0.000000, 0.000000, 0.000000, 0.000000, 0.000000, 0.000000, 0.000000, 0.000000, 0.000000, 0.000000, 0.000000, 0.000000, 0.000000, 0.000000, 0.000000, 0.000000, 0.000000, 0.000000, 0.000000, 0.000000, 0.000000, 0.000000, 0.000000, 0.000000, 0.000000,
 0.000000, 0.000000, 0.000000, 0.000000, 0.000000, 0.000000, 0.000000, 0.000000, 0.000000, 0.000000, 0.000000, 0.000000, 0.000000, 0.000000, 0.000000, 0.000000, 0.000000, 0.000000, 0.000000, 0.000000, 0.000000, 0.000000, 0.000000, 0.000000, 0.000000, 0.000000, 0.000000, 0.000000, 0.000000, 0.000000, 0.000000, 0.000000, 0.000000, 0.000000, 0.000000, 0.000000, 0.000000, 0.000000, 0.000000, 0.000000, 0.000000, 0.000000, 0.000000, 0.000000, 0.000000, 0.000000, 0.000000, 0.000000, 0.000000, 0.000000, 0.000000, 0.000000, 0.000000, 0.000000, 0.000000, 0.000000, 0.000000, 0.000000, 0.000000, 0.000000,
 0.000000, 0.000000, 0.000000, 0.000000, 0.000000, 0.000000, 0.000000, 0.000000, 0.000000, 0.000000, 0.000000, 0.000000, 0.000000, 0.000000, 0.000000, 0.000000, 0.000000, 0.000000, 0.000000, 0.000000, 0.000000, 0.000000, 0.000000, 0.000000, 0.000000, 0.000000, 0.000000, 0.000000, 0.000000, 0.000000, 0.000000, 0.000000, 0.000000, 0.000000, 0.000000, 0.000000, 0.000000, 0.000000, 0.000000, 0.000000, 0.000000, 0.000000, 0.000000, 0.000000, 0.000000, 0.000000, 0.000000, 0.000000, 0.000000, 0.000000, 0.000000, 0.000000, 0.000000, 0.000000, 0.000000, 0.000000, 0.000000, 0.000000, 0.000000, 0.000000, 0.000000, 0.000000, 0.000000, 0.000000, 0.000000, 0.000000, 0.000000, 0.000000, 0.000000, 0.000000,
 0.000000, 0.000000, 0.000000, 0.000000, 0.000000, 0.000000, 0.000000, 0.000000, 0.000000, 0.000000, 0.000000, 0.000000, 0.000000, 0.000000, 0.000000, 0.000000, 0.000000, 0.000000, 0.000000, 0.000000, 0.000000, 0.000000, 0.000000, 0.000000, 0.000000, 0.000000, 0.000000, 0.000000, 0.000000, 0.000000, 0.000000, 0.000000, 0.000000, 0.000000, 0.000000, 0.000000, 0.000000, 0.000000, 0.000000, 0.000000, 0.000000, 0.000000, 0.000000, 0.000000, 0.000000, 0.000000, 0.000000, 0.000000, 0.000000, 0.000000, 0.000000, 0.000000, 0.000000, 0.000000, 0.000000, 0.000000, 0.000000, 0.000000, 0.000000, 0.000000, 0.000000, 0.000000, 0.000000, 0.000000, 0.000000, 0.000000, 0.000000, 0.000000, 0.000000, 0.000000, 0.000000, 0.000000, 0.000000, 0.000000, 0.000000, 0.000000, 0.000000, 0.000000, 0.000000, 0.000000,
 0.000000, 0.000000, 0.000000, 0.000000, 0.000000, 0.000000, 0.000000, 0.000000, 0.000000, 0.000000, 0.000000, 0.000000, 0.000000, 0.000000, 0.000000, 0.000000, 0.000000, 0.000000, 0.000000, 0.000000, 0.000000, 0.000000, 0.000000, 0.000000, 0.000000, 0.000000, 0.000000, 0.000000, 0.000000, 0.000000, 0.000000, 0.000000, 0.000000, 0.000000, 0.000000, 0.000000, 0.000000, 0.000000, 0.000000, 0.000000, 0.000000, 0.000000, 0.000000, 0.000000, 0.000000, 0.000000, 0.000000, 0.000000, 0.000000, 0.000000, 0.000000, 0.000000, 0.000000, 0.000000, 0.000000, 0.000000, 0.000000, 0.000000, 0.000000, 0.000000, 0.000000, 0.000000, 0.000000, 0.000000, 0.000000, 0.000000, 0.000000, 0.000000, 0.000000, 0.000000, 0.000000, 0.000000, 0.000000, 0.000000, 0.000000, 0.000000, 0.000000, 0.000000, 0.000000, 0.000000, 0.000000, 0.000000, 0.000000, 0.000000, 0.000000, 0.000000, 0.000000, 0.000000, 0.000000, 0.000000,
 0.000000, 0.000000, 0.000000, 0.000000, 0.000000, 0.000000, 0.000000, 0.000000, 0.000000, 0.000000, 0.000000, 0.000000, 0.000000, 0.000000, 0.000000, 0.000000, 0.000000, 0.000000, 0.000000, 0.000000, 0.000000, 0.000000, 0.000000, 0.000000, 0.000000, 0.000000, 0.000000, 0.000000, 0.000000, 0.000000, 0.000000, 0.000000, 0.000000, 0.000000, 0.000000, 0.000000, 0.000000, 0.000000, 0.000000, 0.000000, 0.000000, 0.000000, 0.000000, 0.000000, 0.000000, 0.000000, 0.000000, 0.000000, 0.000000, 0.000000, 0.000000, 0.000000, 0.000000, 0.000000, 0.000000, 0.000000, 0.000000, 0.000000, 0.000000, 0.000000, 0.000000, 0.000000, 0.000000, 0.000000, 0.000000, 0.000000, 0.000000, 0.000000, 0.000000, 0.000000, 0.000000, 0.000000, 0.000000, 0.000000, 0.000000, 0.000000, 0.000000, 0.000000, 0.000000, 0.000000, 0.000000, 0.000000, 0.000000, 0.000000, 0.000000, 0.000000, 0.000000, 0.000000, 0.000000, 0.000000, 0.000000, 0.000000, 0.000000, 0.000000, 0.000000, 0.000000, 0.000000, 0.000000, 0.000000, 0.000000,
 0.000000, 0.000000, 0.000000, 0.000000, 0.000000, 0.000000, 0.000000, 0.000000, 0.000000, 0.000000, 0.000000, 0.000000, 0.000000, 0.000000, 0.000000, 0.000000, 0.000000, 0.000000, 0.000000, 0.000000, 0.000000, 0.000000, 0.000000, 0.000000, 0.000000, 0.000000, 0.000000, 0.000000, 0.000000, 0.000000, 0.000000, 0.000000, 0.000000, 0.000000, 0.000000, 0.000000, 0.000000, 0.000000, 0.000000, 0.000000, 0.000000, 0.000000, 0.000000, 0.000000, 0.000000, 0.000000, 0.000000, 0.000000, 0.000000, 0.000000, 0.000000, 0.000000, 0.000000, 0.000000, 0.000000, 0.000000, 0.000000, 0.000000, 0.000000, 0.000000, 0.000000, 0.000000, 0.000000, 0.000000, 0.000000, 0.000000, 0.000000, 0.000000, 0.000000, 0.000000, 0.000000, 0.000000, 0.000000, 0.000000, 0.000000, 0.000000, 0.000000, 0.000000, 0.000000, 0.000000, 0.000000, 0.000000, 0.000000, 0.000000, 0.000000, 0.000000, 0.000000, 0.000000, 0.000000, 0.000000, 0.000000, 0.000000, 0.000000, 0.000000, 0.000000, 0.000000, 0.000000, 0.000000, 0.000000, 0.000000, 0.000000, 0.000000, 0.000000, 0.000000, 0.000000, 0.000000, 0.000000, 0.000000, 0.000000, 0.000000,
 0.000000, 0.000000, 0.000000, 0.000000, 0.000000, 0.000000, 0.000000, 0.000000, 0.000000, 0.000000, 0.000000, 0.000000, 0.000000, 0.000000, 0.000000, 0.000000, 0.000000, 0.000000, 0.000000, 0.000000, 0.000000, 0.000000, 0.000000, 0.000000, 0.000000, 0.000000, 0.000000, 0.000000, 0.000000, 0.000000, 0.000000, 0.000000, 0.000000, 0.000000, 0.000000, 0.000000, 0.000000, 0.000000, 0.000000, 0.000000, 0.000000, 0.000000, 0.000000, 0.000000, 0.000000, 0.000000, 0.000000, 0.000000, 0.000000, 0.000000, 0.000000, 0.000000, 0.000000, 0.000000, 0.000000, 0.000000, 0.000000, 0.000000, 0.000000, 0.000000, 0.000000, 0.000000, 0.000000, 0.000000, 0.000000, 0.000000, 0.000000, 0.000000, 0.000000, 0.000000, 0.000000, 0.000000, 0.000000, 0.000000, 0.000000, 0.000000, 0.000000, 0.000000, 0.000000, 0.000000, 0.000000, 0.000000, 0.000000, 0.000000, 0.000000, 0.000000, 0.000000, 0.000000, 0.000000, 0.000000, 0.000000, 0.000000, 0.000000, 0.000000, 0.000000, 0.000000, 0.000000, 0.000000, 0.000000, 0.000000, 0.000000, 0.000000, 0.000000, 0.000000, 0.000000, 0.000000, 0.000000, 0.000000, 0.000000, 0.000000, 0.000000, 0.000000, 0.000000, 0.000000, 0.000000, 0.000000, 0.000000, 0.000000, 0.000000, 0.000000,
 0.000000, 0.000000, 0.000000, 0.000000, 0.000000, 0.000000, 0.000000, 0.000000, 0.000000, 0.000000, 0.000000, 0.000000, 0.000000, 0.000000, 0.000000, 0.000000, 0.000000, 0.000000, 0.000000, 0.000000, 0.000000, 0.000000, 0.000000, 0.000000, 0.000000, 0.000000, 0.000000, 0.000000, 0.000000, 0.000000, 0.000000, 0.000000, 0.000000, 0.000000, 0.000000, 0.000000, 0.000000, 0.000000, 0.000000, 0.000000, 0.000000, 0.000000, 0.000000, 0.000000, 0.000000, 0.000000, 0.000000, 0.000000, 0.000000, 0.000000, 0.000000, 0.000000, 0.000000, 0.000000, 0.000000, 0.000000, 0.000000, 0.000000, 0.000000, 0.000000, 0.000000, 0.000000, 0.000000, 0.000000, 0.000000, 0.000000, 0.000000, 0.000000, 0.000000, 0.000000, 0.000000, 0.000000, 0.000000, 0.000000, 0.000000, 0.000000, 0.000000, 0.000000, 0.000000, 0.000000, 0.000000, 0.000000, 0.000000, 0.000000, 0.000000, 0.000000, 0.000000, 0.000000, 0.000000, 0.000000, 0.000000, 0.000000, 0.000000, 0.000000, 0.000000, 0.000000, 0.000000, 0.000000, 0.000000, 0.000000, 0.000000, 0.000000, 0.000000, 0.000000, 0.000000, 0.000000, 0.000000, 0.000000, 0.000000, 0.000000, 0.000000, 0.000000, 0.000000, 0.000000, 0.000000, 0.000000, 0.000000, 0.000000, 0.000000, 0.000000, 0.000000, 0.000000, 0.000000, 0.000000, 0.000000, 0.000000, 0.000000, 0.000000, 0.000000, 0.000000,
 0.000000, 0.000000, 0.000000, 0.000000, 0.000000, 0.000000, 0.000000, 0.000000, 0.000000, 0.000000, 0.000000, 0.000000, 0.000000, 0.000000, 0.000000, 0.000000, 0.000000, 0.000000, 0.000000, 0.000000, 0.000000, 0.000000, 0.000000, 0.000000, 0.000000, 0.000000, 0.000000, 0.000000, 0.000000, 0.000000, 0.000000, 0.000000, 0.000000, 0.000000, 0.000000, 0.000000, 0.000000, 0.000000, 0.000000, 0.000000, 0.000000, 0.000000, 0.000000, 0.000000, 0.000000, 0.000000, 0.000000, 0.000000, 0.000000, 0.000000, 0.000000, 0.000000, 0.000000, 0.000000, 0.000000, 0.000000, 0.000000, 0.000000, 0.000000, 0.000000, 0.000000, 0.000000, 0.000000, 0.000000, 0.000000, 0.000000, 0.000000, 0.000000, 0.000000, 0.000000, 0.000000, 0.000000, 0.000000, 0.000000, 0.000000, 0.000000, 0.000000, 0.000000, 0.000000, 0.000000, 0.000000, 0.000000, 0.000000, 0.000000, 0.000000, 0.000000, 0.000000, 0.000000, 0.000000, 0.000000, 0.000000, 0.000000, 0.000000, 0.000000, 0.000000, 0.000000, 0.000000, 0.000000, 0.000000, 0.000000, 0.000000, 0.000000, 0.000000, 0.000000, 0.000000, 0.000000, 0.000000, 0.000000, 0.000000, 0.000000, 0.000000, 0.000000, 0.000000, 0.000000, 0.000000, 0.000000, 0.000000, 0.000000, 0.000000, 0.000000, 0.000000, 0.000000, 0.000000, 0.000000, 0.000000, 0.000000, 0.000000, 0.000000, 0.000000, 0.000000, 0.000000, 0.000000, 0.000000, 0.000000, 0.000000, 0.000000, 0.000000, 0.000000, 0.000000, 0.000000,
 0.000000
]
}
Coordinate3 {
point [
 -0.003120 -0.000330 -0.002060, -0.003120 -0.000330 -0.001700, -0.003120 -0.000330 -0.000790, -0.003120 -0.000330 -0.000430, -0.003120 -0.000330 0.000430,
 -0.003120 -0.000330 0.000790, -0.003120 -0.000330 0.001700, -0.003120 -0.000330 0.002060, -0.003120 0.000000 -0.002060, -0.003120 0.000000 -0.001700,
 -0.003120 0.000000 -0.000790, -0.003120 0.000000 -0.000430, -0.003120 0.000000 0.000430, -0.003120 0.000000 0.000790, -0.003120 0.000000 0.001700,
 -0.003120 0.000000 0.002060, -0.003014 -0.000330 -0.002060, -0.003014 -0.000330 -0.001700, -0.003014 -0.000330 -0.000790, -0.003014 -0.000330 -0.000430,
 -0.003014 -0.000330 0.000430, -0.003014 -0.000330 0.000790, -0.003014 -0.000330 0.001700, -0.003014 -0.000330 0.002060, -0.003014 0.000000 -0.002060,
 -0.003014 0.000000 -0.001700, -0.003014 0.000000 -0.000790, -0.003014 0.000000 -0.000430, -0.003014 0.000000 0.000430, -0.003014 0.000000 0.000790,
 -0.003014 0.000000 0.001700, -0.003014 0.000000 0.002060, -0.002995 -0.000280 -0.002500, -0.002995 -0.000280 -0.002064, -0.002995 -0.000280 -0.001696,
 -0.002995 -0.000280 -0.000794, -0.002995 -0.000280 -0.000426, -0.002995 -0.000280 0.000426, -0.002995 -0.000280 0.000794, -0.002995 -0.000280 0.001696,
 -0.002995 -0.000280 0.002064, -0.002995 -0.000280 0.002500, -0.002995 0.000000 -0.002500, -0.002995 0.000000 -0.002064, -0.002995 0.000000 -0.001696,
 -0.002995 0.000000 -0.000794, -0.002995 0.000000 -0.000426, -0.002995 0.000000 0.000426, -0.002995 0.000000 0.000794, -0.002995 0.000000 0.001696,
 -0.002995 0.000000 0.002064, -0.002995 0.000000 0.002500, -0.002995 -0.000330 -0.001696, -0.002995 -0.000330 0.001696, -0.002995 -0.000330 0.002064,
 -0.002995 -0.000280 -0.001696, -0.002995 -0.000280 0.001696, -0.002995 -0.000280 0.002064, -0.002989 -0.000330 -0.002067, -0.002989 -0.000330 -0.000797,
 -0.002989 -0.000330 -0.000423, -0.002989 -0.000330 0.000423, -0.002989 -0.000330 0.000797, -0.002989 -0.000280 -0.002067, -0.002989 -0.000280 -0.000797,
 -0.002989 -0.000280 -0.000423, -0.002989 -0.000280 0.000423, -0.002989 -0.000280 0.000797, -0.002979 -0.000330 -0.001685, -0.002979 -0.000330 0.001685,
 -0.002979 -0.000330 0.002075, -0.002979 -0.000280 -0.001685, -0.002979 -0.000280 0.001685, -0.002979 -0.000280 0.002075, -0.002971 -0.000330 -0.002085,
 -0.002971 -0.000330 -0.000815, -0.002971 -0.000330 -0.000405, -0.002971 -0.000330 0.000405, -0.002971 -0.000330 0.000815, -0.002971 -0.000280 -0.002085,
 -0.002971 -0.000280 -0.000815, -0.002971 -0.000280 -0.000405, -0.002971 -0.000280 0.000405, -0.002971 -0.000280 0.000815, -0.002968 -0.000330 -0.001669,
 -0.002968 -0.000330 0.001669, -0.002968 -0.000330 0.002091, -0.002968 -0.000280 -0.001669, -0.002968 -0.000280 0.001669, -0.002968 -0.000280 0.002091,
 -0.002964 -0.000330 -0.002135, -0.002964 -0.000330 -0.002110, -0.002964 -0.000330 -0.001650, -0.002964 -0.000330 -0.001625, -0.002964 -0.000330 -0.000865,
 -0.002964 -0.000330 -0.000840, -0.002964 -0.000330 -0.000380, -0.002964 -0.000330 -0.000355, -0.002964 -0.000330 0.000355, -0.002964 -0.000330 0.000380,
 -0.002964 -0.000330 0.000840, -0.002964 -0.000330 0.000865, -0.002964 -0.000330 0.001625, -0.002964 -0.000330 0.001650, -0.002964 -0.000330 0.002110,
 -0.002964 -0.000330 0.002135, -0.002964 -0.000280 -0.002135, -0.002964 -0.000280 -0.002110, -0.002964 -0.000280 -0.001650, -0.002964 -0.000280 -0.001625,
 -0.002964 -0.000280 -0.000865, -0.002964 -0.000280 -0.000840, -0.002964 -0.000280 -0.000380, -0.002964 -0.000280 -0.000355, -0.002964 -0.000280 0.000355,
 -0.002964 -0.000280 0.000380, -0.002964 -0.000280 0.000840, -0.002964 -0.000280 0.000865, -0.002964 -0.000280 0.001625, -0.002964 -0.000280 0.001650,
 -0.002964 -0.000280 0.002110, -0.002964 -0.000280 0.002135, -0.002827 0.000790 -0.002332, -0.002827 0.000790 0.002332, -0.002410 -0.000330 -0.002135,
 -0.002410 -0.000330 -0.001880, -0.002410 -0.000330 -0.001625, -0.002410 -0.000330 -0.000865, -0.002410 -0.000330 -0.000355, -0.002410 -0.000330 0.000355,
 -0.002410 -0.000330 0.000865, -0.002410 -0.000330 0.001625, -0.002410 -0.000330 0.001880, -0.002410 -0.000330 0.002135, -0.002410 -0.000280 -0.002135,
 -0.002410 -0.000280 -0.001880, -0.002410 -0.000280 -0.001625, -0.002410 -0.000280 -0.000865, -0.002410 -0.000280 -0.000355, -0.002410 -0.000280 0.000355,
 -0.002410 -0.000280 0.000865, -0.002410 -0.000280 0.001625, -0.002410 -0.000280 0.001880, -0.002410 -0.000280 0.002135, 0.000450 -0.000330 -0.002056,
 0.000450 -0.000330 -0.001880, 0.000450 -0.000330 0.001880, 0.000450 -0.000330 0.002056, 0.000450 -0.000280 -0.002056, 0.000450 -0.000280 -0.001880,
 0.000450 -0.000280 0.001880, 0.000450 -0.000280 0.002056, 0.000525 -0.000330 -0.002625, 0.000525 -0.000330 -0.002398, 0.000525 -0.000330 0.002398,
 0.000525 -0.000330 0.002625, 0.000525 -0.000280 -0.002500, 0.000525 -0.000280 -0.002398, 0.000525 -0.000280 0.002398, 0.000525 -0.000280 0.002500,
 0.000525 0.000000 -0.002625, 0.000525 0.000000 -0.002500, 0.000525 0.000000 0.002500, 0.000525 0.000000 0.002625, 0.000885 -0.000330 -0.002625,
 0.000885 -0.000330 -0.002398, 0.000885 -0.000330 0.002398, 0.000885 -0.000330 0.002625, 0.000885 -0.000280 -0.002500, 0.000885 -0.000280 -0.002398,
 0.000885 -0.000280 0.002398, 0.000885 -0.000280 0.002500, 0.000885 0.000000 -0.002625, 0.000885 0.000000 -0.002500, 0.000885 0.000000 0.002500,
 0.000885 0.000000 0.002625, 0.000960 -0.000330 -0.002056, 0.000960 -0.000330 -0.001990, 0.000960 -0.000330 0.001990, 0.000960 -0.000330 0.002056,
 0.000960 -0.000280 -0.002056, 0.000960 -0.000280 -0.001990, 0.000960 -0.000280 0.001990, 0.000960 -0.000280 0.002056, 0.001430 -0.000330 -0.001990,
 0.001430 -0.000330 0.001990, 0.001430 -0.000280 -0.001990, 0.001430 -0.000280 0.001990, 0.002210 0.000770 0.001908, 0.002210 0.000790 0.001908,
 0.002239 0.000770 0.001797, 0.002239 0.000770 0.002019, 0.002239 0.000790 0.001797, 0.002239 0.000790 0.002019, 0.002321 0.000770 0.001716,
 0.002321 0.000770 0.002100, 0.002321 0.000790 0.001716, 0.002321 0.000790 0.002100, 0.002410 -0.000330 -0.002135, 0.002410 -0.000330 -0.001625,
 0.002410 -0.000330 -0.000865, 0.002410 -0.000330 -0.000355, 0.002410 -0.000330 0.000355, 0.002410 -0.000330 0.000865, 0.002410 -0.000330 0.001625,
 0.002410 -0.000330 0.002135, 0.002410 -0.000280 -0.002135, 0.002410 -0.000280 -0.001625, 0.002410 -0.000280 -0.000865, 0.002410 -0.000280 -0.000355,
 0.002410 -0.000280 0.000355, 0.002410 -0.000280 0.000865, 0.002410 -0.000280 0.001625, 0.002410 -0.000280 0.002135, 0.002431 0.000770 0.001686,
 0.002431 0.000770 0.001908, 0.002431 0.000770 0.002130, 0.002431 0.000790 0.001686, 0.002431 0.000790 0.002130, 0.002542 0.000770 0.001716,
 0.002542 0.000770 0.002100, 0.002542 0.000790 0.001716, 0.002542 0.000790 0.002100, 0.002623 0.000770 0.001797, 0.002623 0.000770 0.002019,
 0.002623 0.000790 0.001797, 0.002623 0.000790 0.002019, 0.002653 0.000770 0.001908, 0.002653 0.000790 0.001908, 0.002827 0.000790 -0.002332,
 0.002827 0.000790 0.002332, 0.002964 -0.000330 -0.002135, 0.002964 -0.000330 -0.002110, 0.002964 -0.000330 -0.001650, 0.002964 -0.000330 -0.001625,
 0.002964 -0.000330 -0.000865, 0.002964 -0.000330 -0.000840, 0.002964 -0.000330 -0.000380, 0.002964 -0.000330 -0.000355, 0.002964 -0.000330 0.000355,
 0.002964 -0.000330 0.000380, 0.002964 -0.000330 0.000840, 0.002964 -0.000330 0.000865, 0.002964 -0.000330 0.001625, 0.002964 -0.000330 0.001650,
 0.002964 -0.000330 0.002110, 0.002964 -0.000330 0.002135, 0.002964 -0.000280 -0.002135, 0.002964 -0.000280 -0.002110, 0.002964 -0.000280 -0.001650,
 0.002964 -0.000280 -0.001625, 0.002964 -0.000280 -0.000865, 0.002964 -0.000280 -0.000840, 0.002964 -0.000280 -0.000380, 0.002964 -0.000280 -0.000355,
 0.002964 -0.000280 0.000355, 0.002964 -0.000280 0.000380, 0.002964 -0.000280 0.000840, 0.002964 -0.000280 0.000865, 0.002964 -0.000280 0.001625,
 0.002964 -0.000280 0.001650, 0.002964 -0.000280 0.002110, 0.002964 -0.000280 0.002135, 0.002968 -0.000330 -0.002091, 0.002968 -0.000330 -0.001669,
 0.002968 -0.000330 0.001669, 0.002968 -0.000330 0.002091, 0.002968 -0.000280 -0.002091, 0.002968 -0.000280 -0.001669, 0.002968 -0.000280 0.001669,
 0.002968 -0.000280 0.002091, 0.002971 -0.000330 -0.000815, 0.002971 -0.000330 -0.000405, 0.002971 -0.000330 0.000405, 0.002971 -0.000330 0.000815,
 0.002971 -0.000280 -0.000815, 0.002971 -0.000280 -0.000405, 0.002971 -0.000280 0.000405, 0.002971 -0.000280 0.000815, 0.002979 -0.000330 -0.002075,
 0.002979 -0.000330 -0.001685, 0.002979 -0.000330 0.001685, 0.002979 -0.000330 0.002075, 0.002979 -0.000280 -0.002075, 0.002979 -0.000280 -0.001685,
 0.002979 -0.000280 0.001685, 0.002979 -0.000280 0.002075, 0.002989 -0.000330 -0.000797, 0.002989 -0.000330 -0.000423, 0.002989 -0.000330 0.000423,
 0.002989 -0.000330 0.000797, 0.002989 -0.000280 -0.000797, 0.002989 -0.000280 -0.000423, 0.002989 -0.000280 0.000423, 0.002989 -0.000280 0.000797,
 0.002995 -0.000330 -0.002064, 0.002995 -0.000330 -0.001696, 0.002995 -0.000330 0.001696, 0.002995 -0.000330 0.002064, 0.002995 -0.000280 -0.002064,
 0.002995 -0.000280 -0.001696, 0.002995 -0.000280 0.001696, 0.002995 -0.000280 0.002064, 0.002995 -0.000280 -0.002500, 0.002995 -0.000280 -0.002064,
 0.002995 -0.000280 -0.001696, 0.002995 -0.000280 -0.000794, 0.002995 -0.000280 -0.000426, 0.002995 -0.000280 0.000426, 0.002995 -0.000280 0.000794,
 0.002995 -0.000280 0.001696, 0.002995 -0.000280 0.002064, 0.002995 -0.000280 0.002500, 0.002995 0.000000 -0.002500, 0.002995 0.000000 -0.002064,
 0.002995 0.000000 -0.001696, 0.002995 0.000000 -0.000794, 0.002995 0.000000 -0.000426, 0.002995 0.000000 0.000426, 0.002995 0.000000 0.000794,
 0.002995 0.000000 0.001696, 0.002995 0.000000 0.002064, 0.002995 0.000000 0.002500, 0.003014 -0.000330 -0.002060, 0.003014 -0.000330 -0.001700,
 0.003014 -0.000330 -0.000790, 0.003014 -0.000330 -0.000430, 0.003014 -0.000330 0.000430, 0.003014 -0.000330 0.000790, 0.003014 -0.000330 0.001700,
 0.003014 -0.000330 0.002060, 0.003014 0.000000 -0.002060, 0.003014 0.000000 -0.001700, 0.003014 0.000000 -0.000790, 0.003014 0.000000 -0.000430,
 0.003014 0.000000 0.000430, 0.003014 0.000000 0.000790, 0.003014 0.000000 0.001700, 0.003014 0.000000 0.002060, 0.003120 -0.000330 -0.002060,
 0.003120 -0.000330 -0.001700, 0.003120 -0.000330 -0.000790, 0.003120 -0.000330 -0.000430, 0.003120 -0.000330 0.000430, 0.003120 -0.000330 0.000790,
 0.003120 -0.000330 0.001700, 0.003120 -0.000330 0.002060, 0.003120 0.000000 -0.002060, 0.003120 0.000000 -0.001700, 0.003120 0.000000 -0.000790,
 0.003120 0.000000 -0.000430, 0.003120 0.000000 0.000430, 0.003120 0.000000 0.000790, 0.003120 0.000000 0.001700, 0.003120 0.000000 0.002060
]
}
IndexedFaceSet {
coordIndex [
 278, 294, 257, -1, 257, 294, 309, -1, 257, 309, 258, -1,
 258, 309, 310, -1, 207, 250, 251, -1, 213, 187, 212, -1,
 212, 187, 186, -1, 261, 270, 286, -1, 276, 292, 253, -1,
 253, 292, 307, -1, 253, 307, 254, -1, 254, 307, 308, -1,
 182, 187, 183, -1, 183, 187, 213, -1, 183, 213, 170, -1,
 286, 302, 261, -1, 261, 302, 311, -1, 261, 311, 262, -1,
 262, 311, 312, -1, 262, 312, 213, -1, 213, 312, 171, -1,
 213, 171, 170, -1, 249, 268, 284, -1, 283, 267, 299, -1,
 299, 267, 248, -1, 299, 248, 304, -1, 304, 248, 247, -1,
 304, 247, 303, -1, 303, 247, 206, -1, 303, 206, 168, -1,
 168, 206, 169, -1, 291, 275, 306, -1, 306, 275, 252, -1,
 186, 181, 180, -1, 252, 251, 306, -1, 306, 251, 250, -1,
 306, 250, 305, -1, 305, 250, 249, -1, 305, 249, 300, -1,
 300, 249, 284, -1, 308, 293, 277, -1, 186, 208, 209, -1,
 259, 212, 211, -1, 211, 212, 186, -1, 211, 186, 210, -1,
 210, 186, 209, -1, 210, 209, 255, -1, 251, 208, 207, -1,
 207, 208, 186, -1, 207, 186, 206, -1, 206, 186, 180, -1,
 206, 180, 169, -1, 285, 269, 301, -1, 301, 269, 260, -1,
 301, 260, 310, -1, 310, 260, 259, -1, 310, 259, 258, -1,
 258, 259, 211, -1, 209, 254, 255, -1, 255, 254, 308, -1,
 255, 308, 256, -1, 256, 308, 277, -1, 306, 305, 316, -1,
 316, 305, 315, -1, 317, 318, 307, -1, 307, 318, 308, -1,
 319, 320, 309, -1, 309, 320, 310, -1, 321, 322, 311, -1,
 311, 322, 312, -1, 113, 37, 36, -1, 65, 81, 36, -1,
 36, 81, 112, -1, 36, 112, 113, -1, 82, 66, 115, -1,
 115, 66, 37, -1, 115, 37, 114, -1, 114, 37, 113, -1,
 114, 113, 139, -1, 139, 113, 138, -1, 71, 87, 55, -1,
 55, 87, 108, -1, 55, 108, 34, -1, 34, 108, 109, -1,
 34, 109, 35, -1, 80, 64, 111, -1, 111, 64, 35, -1,
 111, 35, 110, -1, 110, 35, 109, -1, 110, 109, 137, -1,
 137, 109, 136, -1, 149, 135, 148, -1, 148, 135, 134, -1,
 148, 134, 157, -1, 79, 63, 107, -1, 107, 63, 33, -1,
 107, 33, 106, -1, 106, 33, 32, -1, 106, 32, 134, -1,
 134, 32, 156, -1, 134, 156, 157, -1, 142, 150, 143, -1,
 143, 150, 151, -1, 143, 151, 158, -1, 73, 89, 57, -1,
 57, 89, 120, -1, 57, 120, 40, -1, 40, 120, 121, -1,
 40, 121, 41, -1, 41, 121, 143, -1, 41, 143, 159, -1,
 159, 143, 158, -1, 117, 39, 38, -1, 67, 83, 38, -1,
 38, 83, 116, -1, 38, 116, 117, -1, 119, 88, 72, -1,
 140, 141, 117, -1, 117, 141, 118, -1, 117, 118, 39, -1,
 39, 118, 119, -1, 39, 119, 56, -1, 56, 119, 72, -1,
 38, 39, 48, -1, 48, 39, 49, -1, 47, 46, 37, -1,
 37, 46, 36, -1, 45, 44, 35, -1, 35, 44, 34, -1,
 43, 42, 33, -1, 33, 42, 32, -1, 40, 41, 50, -1,
 50, 41, 51, -1, 173, 313, 168, -1, 168, 313, 303, -1,
 162, 51, 159, -1, 159, 51, 41, -1, 199, 234, 207, -1,
 207, 234, 250, -1, 198, 199, 206, -1, 206, 199, 207, -1,
 247, 231, 206, -1, 206, 231, 198, -1, 248, 232, 247, -1,
 247, 232, 231, -1, 234, 233, 250, -1, 250, 233, 249, -1,
 314, 315, 332, -1, 348, 347, 332, -1, 332, 347, 331, -1,
 332, 331, 314, -1, 232, 248, 263, -1, 263, 248, 267, -1,
 263, 267, 279, -1, 279, 267, 283, -1, 279, 283, 295, -1,
 295, 283, 299, -1, 295, 299, 323, -1, 323, 299, 304, -1,
 323, 304, 331, -1, 331, 304, 314, -1, 339, 323, 347, -1,
 347, 323, 331, -1, 340, 339, 348, -1, 348, 339, 347, -1,
 324, 340, 332, -1, 332, 340, 348, -1, 249, 233, 268, -1,
 268, 233, 264, -1, 268, 264, 284, -1, 284, 264, 280, -1,
 284, 280, 300, -1, 300, 280, 296, -1, 300, 296, 305, -1,
 305, 296, 324, -1, 305, 324, 315, -1, 315, 324, 332, -1,
 233, 234, 199, -1, 198, 231, 232, -1, 233, 199, 264, -1,
 264, 199, 198, -1, 264, 198, 280, -1, 280, 198, 232, -1,
 280, 232, 296, -1, 296, 232, 263, -1, 296, 263, 279, -1,
 323, 339, 340, -1, 279, 295, 296, -1, 296, 295, 323, -1,
 296, 323, 324, -1, 324, 323, 340, -1, 303, 313, 304, -1,
 304, 313, 314, -1, 42, 43, 122, -1, 122, 43, 44, -1,
 44, 45, 122, -1, 122, 45, 46, -1, 122, 46, 123, -1,
 123, 46, 47, -1, 123, 47, 48, -1, 48, 49, 123, -1,
 123, 49, 50, -1, 123, 50, 51, -1, 230, 123, 51, -1,
 51, 162, 230, -1, 230, 162, 174, -1, 230, 174, 322, -1,
 322, 321, 230, -1, 230, 321, 320, -1, 316, 315, 229, -1,
 229, 315, 314, -1, 229, 314, 313, -1, 320, 319, 230, -1,
 230, 319, 318, -1, 230, 318, 229, -1, 229, 318, 317, -1,
 229, 317, 316, -1, 42, 122, 161, -1, 161, 122, 229, -1,
 161, 229, 173, -1, 173, 229, 313, -1, 197, 123, 218, -1,
 218, 123, 230, -1, 218, 230, 222, -1, 197, 193, 123, -1,
 123, 193, 189, -1, 123, 189, 122, -1, 189, 192, 122, -1,
 122, 192, 196, -1, 122, 196, 229, -1, 229, 196, 217, -1,
 229, 217, 221, -1, 221, 225, 229, -1, 229, 225, 228, -1,
 229, 228, 230, -1, 230, 228, 226, -1, 230, 226, 222, -1,
 32, 42, 156, -1, 156, 42, 161, -1, 312, 322, 171, -1,
 171, 322, 174, -1, 118, 102, 119, -1, 119, 102, 103, -1,
 141, 131, 118, -1, 118, 131, 102, -1, 140, 130, 141, -1,
 141, 130, 131, -1, 101, 130, 117, -1, 117, 130, 140, -1,
 100, 101, 116, -1, 116, 101, 117, -1, 114, 98, 115, -1,
 115, 98, 99, -1, 139, 129, 114, -1, 114, 129, 98, -1,
 138, 128, 139, -1, 139, 128, 129, -1, 97, 128, 113, -1,
 113, 128, 138, -1, 96, 97, 112, -1, 112, 97, 113, -1,
 110, 94, 111, -1, 111, 94, 95, -1, 137, 127, 110, -1,
 110, 127, 94, -1, 126, 127, 136, -1, 136, 127, 137, -1,
 93, 126, 109, -1, 109, 126, 136, -1, 92, 93, 108, -1,
 108, 93, 109, -1, 106, 90, 107, -1, 107, 90, 91, -1,
 134, 124, 106, -1, 106, 124, 90, -1, 135, 125, 134, -1,
 134, 125, 124, -1, 149, 145, 135, -1, 135, 145, 125, -1,
 144, 145, 148, -1, 148, 145, 149, -1, 157, 153, 148, -1,
 148, 153, 144, -1, 176, 165, 180, -1, 180, 165, 169, -1,
 181, 177, 180, -1, 180, 177, 176, -1, 186, 184, 181, -1,
 181, 184, 177, -1, 185, 184, 187, -1, 187, 184, 186, -1,
 178, 185, 182, -1, 182, 185, 187, -1, 179, 178, 183, -1,
 183, 178, 182, -1, 170, 166, 183, -1, 183, 166, 179, -1,
 147, 154, 151, -1, 151, 154, 158, -1, 150, 146, 151, -1,
 151, 146, 147, -1, 132, 146, 142, -1, 142, 146, 150, -1,
 133, 132, 143, -1, 143, 132, 142, -1, 105, 133, 121, -1,
 121, 133, 143, -1, 104, 105, 120, -1, 120, 105, 121, -1,
 100, 116, 78, -1, 78, 116, 83, -1, 78, 83, 62, -1,
 62, 83, 67, -1, 62, 67, 21, -1, 21, 67, 38, -1,
 21, 38, 29, -1, 29, 38, 48, -1, 115, 99, 82, -1,
 82, 99, 77, -1, 82, 77, 66, -1, 66, 77, 61, -1,
 66, 61, 37, -1, 37, 61, 20, -1, 37, 20, 47, -1,
 47, 20, 28, -1, 96, 112, 76, -1, 76, 112, 81, -1,
 76, 81, 60, -1, 60, 81, 65, -1, 60, 65, 19, -1,
 19, 65, 36, -1, 19, 36, 27, -1, 27, 36, 46, -1,
 111, 95, 80, -1, 80, 95, 75, -1, 80, 75, 64, -1,
 64, 75, 59, -1, 64, 59, 35, -1, 35, 59, 18, -1,
 35, 18, 45, -1, 45, 18, 26, -1, 92, 108, 84, -1,
 84, 108, 87, -1, 84, 87, 68, -1, 68, 87, 71, -1,
 68, 71, 52, -1, 52, 71, 55, -1, 52, 55, 17, -1,
 17, 55, 34, -1, 17, 34, 25, -1, 25, 34, 44, -1,
 107, 91, 79, -1, 79, 91, 74, -1, 79, 74, 63, -1,
 63, 74, 58, -1, 63, 58, 33, -1, 33, 58, 16, -1,
 33, 16, 43, -1, 43, 16, 24, -1, 104, 120, 86, -1,
 86, 120, 89, -1, 86, 89, 70, -1, 70, 89, 73, -1,
 70, 73, 54, -1, 54, 73, 57, -1, 54, 57, 23, -1,
 23, 57, 40, -1, 23, 40, 31, -1, 31, 40, 50, -1,
 119, 103, 88, -1, 88, 103, 85, -1, 88, 85, 72, -1,
 72, 85, 69, -1, 72, 69, 56, -1, 56, 69, 53, -1,
 56, 53, 39, -1, 39, 53, 22, -1, 39, 22, 49, -1,
 49, 22, 30, -1, 161, 160, 156, -1, 156, 160, 152, -1,
 156, 152, 157, -1, 157, 152, 153, -1, 169, 165, 168, -1,
 168, 165, 164, -1, 168, 164, 173, -1, 173, 164, 172, -1,
 174, 175, 171, -1, 171, 175, 167, -1, 171, 167, 170, -1,
 170, 167, 166, -1, 158, 154, 159, -1, 159, 154, 155, -1,
 159, 155, 162, -1, 162, 155, 163, -1, 14, 15, 30, -1,
 30, 15, 31, -1, 30, 31, 49, -1, 49, 31, 50, -1,
 12, 13, 28, -1, 28, 13, 29, -1, 28, 29, 47, -1,
 47, 29, 48, -1, 10, 11, 26, -1, 26, 11, 27, -1,
 26, 27, 45, -1, 45, 27, 46, -1, 8, 9, 24, -1,
 24, 9, 25, -1, 24, 25, 43, -1, 43, 25, 44, -1,
 173, 172, 161, -1, 161, 172, 160, -1, 5, 21, 13, -1,
 13, 21, 29, -1, 4, 5, 12, -1, 12, 5, 13, -1,
 20, 4, 28, -1, 28, 4, 12, -1, 3, 19, 11, -1,
 11, 19, 27, -1, 2, 3, 10, -1, 10, 3, 11, -1,
 18, 2, 26, -1, 26, 2, 10, -1, 1, 17, 9, -1,
 9, 17, 25, -1, 0, 1, 8, -1, 8, 1, 9, -1,
 16, 0, 24, -1, 24, 0, 8, -1, 164, 152, 172, -1,
 172, 152, 160, -1, 155, 167, 163, -1, 163, 167, 175, -1,
 7, 23, 15, -1, 15, 23, 31, -1, 6, 7, 14, -1,
 14, 7, 15, -1, 22, 6, 30, -1, 30, 6, 14, -1,
 129, 128, 145, -1, 131, 146, 132, -1, 167, 155, 166, -1,
 166, 155, 154, -1, 166, 154, 179, -1, 179, 154, 147, -1,
 179, 147, 178, -1, 178, 147, 146, -1, 146, 131, 145, -1,
 145, 131, 130, -1, 145, 130, 129, -1, 185, 178, 184, -1,
 184, 178, 146, -1, 184, 146, 177, -1, 177, 146, 145, -1,
 177, 145, 176, -1, 176, 145, 144, -1, 176, 144, 165, -1,
 165, 144, 153, -1, 165, 153, 164, -1, 164, 153, 152, -1,
 133, 105, 104, -1, 69, 85, 132, -1, 85, 103, 132, -1,
 132, 103, 102, -1, 132, 102, 131, -1, 128, 97, 96, -1,
 132, 133, 69, -1, 69, 133, 104, -1, 69, 104, 53, -1,
 53, 104, 86, -1, 53, 86, 70, -1, 59, 75, 127, -1,
 127, 75, 95, -1, 127, 95, 94, -1, 93, 125, 126, -1,
 126, 125, 145, -1, 126, 145, 127, -1, 127, 145, 128, -1,
 78, 130, 100, -1, 100, 130, 101, -1, 78, 61, 130, -1,
 130, 61, 77, -1, 130, 77, 129, -1, 129, 77, 99, -1,
 129, 99, 98, -1, 128, 96, 127, -1, 127, 96, 76, -1,
 127, 76, 59, -1, 23, 7, 6, -1, 70, 54, 53, -1,
 53, 54, 23, -1, 53, 23, 22, -1, 22, 23, 6, -1,
 21, 5, 4, -1, 19, 3, 2, -1, 74, 92, 58, -1,
 58, 92, 84, -1, 93, 92, 125, -1, 125, 92, 74, -1,
 125, 74, 124, -1, 124, 74, 91, -1, 124, 91, 90, -1,
 78, 62, 61, -1, 61, 62, 21, -1, 61, 21, 20, -1,
 20, 21, 4, -1, 76, 60, 59, -1, 59, 60, 19, -1,
 59, 19, 18, -1, 18, 19, 2, -1, 1, 0, 17, -1,
 17, 0, 16, -1, 17, 16, 52, -1, 52, 16, 58, -1,
 52, 58, 68, -1, 68, 58, 84, -1, 162, 163, 174, -1,
 174, 163, 175, -1, 262, 246, 261, -1, 261, 246, 245, -1,
 213, 205, 262, -1, 262, 205, 246, -1, 212, 204, 213, -1,
 213, 204, 205, -1, 243, 204, 259, -1, 259, 204, 212, -1,
 244, 243, 260, -1, 260, 243, 259, -1, 320, 321, 338, -1,
 354, 353, 338, -1, 338, 353, 337, -1, 338, 337, 320, -1,
 244, 260, 265, -1, 265, 260, 269, -1, 265, 269, 281, -1,
 281, 269, 285, -1, 281, 285, 297, -1, 297, 285, 301, -1,
 297, 301, 329, -1, 329, 301, 310, -1, 329, 310, 337, -1,
 337, 310, 320, -1, 261, 245, 270, -1, 270, 245, 266, -1,
 270, 266, 286, -1, 286, 266, 282, -1, 286, 282, 302, -1,
 302, 282, 298, -1, 302, 298, 311, -1, 311, 298, 330, -1,
 311, 330, 321, -1, 321, 330, 338, -1, 345, 329, 353, -1,
 353, 329, 337, -1, 346, 345, 354, -1, 354, 345, 353, -1,
 330, 346, 338, -1, 338, 346, 354, -1, 245, 246, 205, -1,
 205, 265, 281, -1, 265, 205, 244, -1, 244, 205, 204, -1,
 244, 204, 243, -1, 298, 282, 281, -1, 281, 282, 205, -1,
 205, 282, 266, -1, 205, 266, 245, -1, 329, 345, 346, -1,
 281, 297, 298, -1, 298, 297, 329, -1, 298, 329, 330, -1,
 330, 329, 346, -1, 258, 242, 257, -1, 257, 242, 241, -1,
 211, 203, 258, -1, 258, 203, 242, -1, 210, 202, 211, -1,
 211, 202, 203, -1, 239, 202, 255, -1, 255, 202, 210, -1,
 240, 239, 256, -1, 256, 239, 255, -1, 240, 256, 273, -1,
 273, 256, 277, -1, 273, 277, 289, -1, 289, 277, 293, -1,
 289, 293, 327, -1, 327, 293, 308, -1, 327, 308, 335, -1,
 335, 308, 318, -1, 257, 241, 278, -1, 278, 241, 274, -1,
 278, 274, 294, -1, 294, 274, 290, -1, 294, 290, 309, -1,
 309, 290, 328, -1, 309, 328, 319, -1, 319, 328, 336, -1,
 318, 319, 336, -1, 352, 351, 336, -1, 336, 351, 335, -1,
 336, 335, 318, -1, 343, 327, 351, -1, 351, 327, 335, -1,
 344, 343, 352, -1, 352, 343, 351, -1, 328, 344, 336, -1,
 336, 344, 352, -1, 241, 242, 203, -1, 273, 289, 203, -1,
 273, 203, 240, -1, 240, 203, 202, -1, 240, 202, 239, -1,
 343, 344, 327, -1, 327, 344, 328, -1, 327, 328, 289, -1,
 289, 328, 290, -1, 289, 290, 203, -1, 203, 290, 274, -1,
 203, 274, 241, -1, 209, 201, 254, -1, 254, 201, 238, -1,
 208, 200, 209, -1, 209, 200, 201, -1, 235, 200, 251, -1,
 251, 200, 208, -1, 236, 235, 252, -1, 252, 235, 251, -1,
 254, 238, 253, -1, 253, 238, 237, -1, 316, 317, 334, -1,
 350, 349, 334, -1, 334, 349, 333, -1, 334, 333, 316, -1,
 236, 252, 271, -1, 271, 252, 275, -1, 271, 275, 287, -1,
 287, 275, 291, -1, 287, 291, 325, -1, 325, 291, 306, -1,
 325, 306, 333, -1, 333, 306, 316, -1, 253, 237, 276, -1,
 276, 237, 272, -1, 276, 272, 292, -1, 292, 272, 288, -1,
 292, 288, 307, -1, 307, 288, 326, -1, 307, 326, 317, -1,
 317, 326, 334, -1, 341, 325, 349, -1, 349, 325, 333, -1,
 342, 341, 350, -1, 350, 341, 349, -1, 326, 342, 334, -1,
 334, 342, 350, -1, 200, 288, 272, -1, 200, 272, 201, -1,
 201, 272, 237, -1, 201, 237, 238, -1, 341, 342, 325, -1,
 325, 342, 326, -1, 325, 326, 287, -1, 287, 326, 288, -1,
 287, 288, 271, -1, 271, 288, 200, -1, 271, 200, 236, -1,
 236, 200, 235, -1, 216, 218, 220, -1, 220, 218, 222, -1,
 220, 222, 224, -1, 224, 222, 226, -1, 224, 226, 227, -1,
 227, 226, 228, -1, 227, 228, 223, -1, 223, 228, 225, -1,
 223, 225, 219, -1, 219, 225, 221, -1, 219, 221, 214, -1,
 214, 221, 217, -1, 214, 217, 194, -1, 194, 217, 196, -1,
 194, 196, 190, -1, 190, 196, 192, -1, 190, 192, 188, -1,
 188, 192, 189, -1, 188, 189, 191, -1, 191, 189, 193, -1,
 191, 193, 195, -1, 195, 193, 197, -1, 195, 197, 216, -1,
 216, 197, 218, -1, 191, 195, 215, -1, 215, 195, 216, -1,
 215, 216, 220, -1, 194, 190, 215, -1, 215, 190, 188, -1,
 215, 188, 191, -1, 223, 219, 215, -1, 215, 219, 214, -1,
 215, 214, 194, -1, 220, 224, 215, -1, 215, 224, 227, -1,
 215, 227, 223, -1
]
materialIndex [
 1, 1, 1, 1, 1, 1, 1, 1, 1, 1, 1, 1, 1, 1, 1, 1, 1, 1, 1, 1, 1, 1, 1, 1, 1, 1, 1, 1, 1, 1, 1, 1, 1, 1, 1, 1, 1, 1, 1, 1, 1, 1, 1, 1, 1, 1, 1, 1, 1, 1, 1, 1, 1, 1, 1, 1, 1, 1, 1, 1, 1, 1, 2, 2, 3, 3,
 4, 4, 5, 5, 6, 6, 6, 6, 6, 6, 6, 6, 6, 6,
 7, 7, 7, 7, 7, 7, 7, 7, 7, 7, 7, 8, 8, 8, 8, 8, 8, 8, 8, 8, 8, 9, 9, 9, 9, 9, 9, 9, 9, 9, 9, 9,
 10, 10, 10, 10, 10, 10, 10, 10, 10, 10, 10, 11, 11, 12, 12,
 13, 13, 14, 14, 15, 15,
 16, 16, 17, 17, 18, 18,
 19, 19, 20, 20, 21, 21,
 22, 22, 23, 23, 23, 23, 24, 24, 24, 24, 24, 24, 24, 24, 24, 24,
 25, 25, 26, 26, 27, 27,
 28, 28, 28, 28, 28, 28, 28, 28, 28, 28, 29, 29, 29, 29, 29, 29, 29, 29, 29, 29, 29, 29, 29, 29, 30, 30,
 31, 31, 31, 31, 31, 31, 31, 31, 31, 31, 32, 32, 32, 32, 33, 33, 33, 33, 33, 33, 33, 33, 33, 33,
 34, 34, 34, 34, 35, 35, 35, 35, 35, 35, 35, 35, 35, 35, 35, 35, 35, 35, 35, 35, 36, 36,
 37, 37, 38, 38, 39, 39,
 40, 40, 41, 41, 42, 42,
 43, 43, 44, 44, 45, 45,
 46, 46, 47, 47, 48, 48,
 49, 49, 50, 50, 51, 51,
 52, 52, 53, 53, 54, 54,
 55, 55, 56, 56, 57, 57,
 58, 58, 59, 59, 60, 60,
 61, 61, 62, 62, 63, 63,
 64, 64, 65, 65, 66, 66,
 67, 67, 68, 68, 69, 69,
 70, 70, 71, 71, 72, 72, 72, 72, 72, 72, 72, 72,
 73, 73, 73, 73, 73, 73, 73, 73, 74, 74, 74, 74, 74, 74, 74, 74, 75, 75, 75, 75, 75, 75, 75, 75,
 76, 76, 76, 76, 76, 76, 76, 76, 76, 76, 77, 77, 77, 77, 77, 77, 77, 77, 78, 78, 78, 78, 78, 78, 78, 78, 78, 78,
 79, 79, 79, 79, 79, 79, 79, 79, 79, 79, 80, 80, 80, 80, 81, 81, 81, 81,
 82, 82, 82, 82, 83, 83, 83, 83, 84, 84, 84, 84,
 85, 85, 85, 85, 86, 86, 86, 86, 87, 87, 87, 87,
 88, 88, 89, 89, 90, 90,
 91, 91, 92, 92, 93, 93,
 94, 94, 95, 95, 96, 96,
 97, 97, 98, 98, 99, 99,
 100, 100, 101, 101, 102, 102,
 103, 103, 103, 103, 103, 103, 103, 103, 103, 103, 103, 103, 103, 103, 103, 103, 103, 103, 103, 103, 103, 103, 103, 103, 103, 103, 103, 103, 103, 103, 103, 103, 103, 103, 103, 103, 103, 103, 103, 103, 103, 103, 103, 103, 103, 103, 103, 103, 103, 103, 103, 103, 103, 103, 103, 103, 103, 103, 103, 103, 103, 103, 103, 103, 103, 103, 103, 103, 103, 103, 103, 103, 103, 103, 103, 103, 103, 104, 104, 105, 105,
 106, 106, 107, 107, 108, 108,
 109, 109, 110, 110, 110, 110, 111, 111, 111, 111, 111, 111, 111, 111, 111, 111,
 112, 112, 112, 112, 112, 112, 112, 112, 112, 112, 113, 113, 114, 114,
 115, 115, 116, 116, 116, 116, 116, 116, 116, 116, 116, 116, 116, 116, 116, 116, 117, 117,
 118, 118, 119, 119, 120, 120,
 121, 121, 122, 122, 122, 122, 122, 122, 122, 122, 123, 123, 123, 123, 123, 123, 123, 123,
 124, 124, 124, 124, 125, 125, 126, 126,
 127, 127, 128, 128, 128, 128, 128, 128, 128, 128, 128, 128, 128, 128, 129, 129,
 130, 130, 131, 131, 132, 132,
 133, 133, 134, 134, 134, 134, 135, 135, 135, 135, 135, 135, 135, 135,
 136, 136, 136, 136, 136, 136, 136, 136, 137, 137, 138, 138,
 139, 139, 140, 140, 140, 140, 140, 140, 140, 140, 140, 140, 140, 140, 0, 0, 0, 0, 0, 0, 0, 0, 0, 0, 0, 0, 0, 0, 0, 0, 0, 0, 0, 0, 0, 0, 0, 0,
 0, 0, 0, 0, 0, 0, 0, 0, 0, 0, 0, 0,
]
}
}
