(footprint "BGA6C50P2X3_96X146X62N" (version 20211014) (generator pcbnew)
  (layer "F.Cu")
  (tedit 62A138C0)
  (attr through_hole)
  (fp_text reference "REF**" (at -0.040025 -1.770515) (layer "F.SilkS")
    (effects (font (size 0.78763 0.78763) (thickness 0.15)))
    (tstamp 41ddeec3-e13b-4cc5-abd9-3731817b40ab)
  )
  (fp_text value "BGA6C50P2X3_96X146X62N" (at 8.47311 2.043165) (layer "F.Fab")
    (effects (font (size 0.788622 0.788622) (thickness 0.15)))
    (tstamp 7e67d4f0-aaf3-4ea8-8652-94f44c36a24b)
  )
  (fp_line (start -0.28 0.81) (end -0.56 0.81) (layer "F.SilkS") (width 0.127) (tstamp 12158bb3-136a-4c14-bc28-48afb2e341e2))
  (fp_line (start -0.56 0.53) (end -0.56 0.81) (layer "F.SilkS") (width 0.127) (tstamp 181e8987-869e-4e9a-a4b6-77804faafbee))
  (fp_line (start 0.56 -0.81) (end 0.56 -0.53) (layer "F.SilkS") (width 0.127) (tstamp 2095fbce-c3b9-4e6b-93f9-f85f4ad1d136))
  (fp_line (start 0.56 0.81) (end 0.28 0.81) (layer "F.SilkS") (width 0.127) (tstamp 239e0141-b823-450c-be1f-22c8101e8137))
  (fp_line (start 0.56 -0.81) (end 0.28 -0.81) (layer "F.SilkS") (width 0.127) (tstamp 6954fe3b-7db3-4e2a-9377-c69a7e49d7f4))
  (fp_line (start -0.56 -0.81) (end -0.56 -0.53) (layer "F.SilkS") (width 0.127) (tstamp 6e5fe5d7-1356-4204-bc80-cb636619be6f))
  (fp_line (start -0.28 -0.81) (end -0.56 -0.81) (layer "F.SilkS") (width 0.127) (tstamp a13dca2e-4102-44d5-a882-a8bd6eb56552))
  (fp_line (start 0.56 0.53) (end 0.56 0.81) (layer "F.SilkS") (width 0.127) (tstamp be6d60b0-bcb8-4882-ab8d-0dead7dd0a07))
  (fp_circle (center -0.8 -0.5) (end -0.75 -0.5) (layer "F.SilkS") (width 0.1) (fill none) (tstamp 84cb3245-013f-41ff-b90b-b2be66ca6a28))
  (fp_line (start 0.75 1) (end -0.75 1) (layer "F.CrtYd") (width 0.05) (tstamp 19944671-d5be-415e-a0b8-afcce3f354d7))
  (fp_line (start -0.75 1) (end -0.75 -1) (layer "F.CrtYd") (width 0.05) (tstamp 529b1ba4-01d5-4923-b435-f28170877688))
  (fp_line (start 0.75 -1) (end 0.75 1) (layer "F.CrtYd") (width 0.05) (tstamp 66ffd986-948b-4cfa-abb6-bb44efe0e5af))
  (fp_line (start -0.75 -1) (end 0.75 -1) (layer "F.CrtYd") (width 0.05) (tstamp 9079a138-fc34-4eef-bbb3-17080754e191))
  (fp_line (start -0.5 0.75) (end -0.5 -0.75) (layer "F.Fab") (width 0.127) (tstamp 6f41d574-14e6-416a-a866-7415872fd2dc))
  (fp_line (start -0.5 -0.75) (end 0.5 -0.75) (layer "F.Fab") (width 0.127) (tstamp 82826489-d0d3-4ae7-8b31-bc96e50e1452))
  (fp_line (start 0.5 -0.75) (end 0.5 0.75) (layer "F.Fab") (width 0.127) (tstamp 9d0639e2-0949-491b-9224-27cea9ccc076))
  (fp_line (start 0.5 0.75) (end -0.5 0.75) (layer "F.Fab") (width 0.127) (tstamp de00a642-1234-4ae6-a8b4-86106ba8ffa0))
  (fp_circle (center -0.8 -0.5) (end -0.75 -0.5) (layer "F.Fab") (width 0.1) (fill none) (tstamp 8c3cc036-d554-44fe-bf74-96af39f0dfca))
  (pad "A1" smd circle (at -0.25 -0.5) (size 0.25 0.25) (layers "F.Cu" "F.Paste" "F.Mask") (tstamp 9e51051c-bae4-4e00-ba38-f0bf1b850fb5))
  (pad "A2" smd circle (at 0.25 -0.5) (size 0.25 0.25) (layers "F.Cu" "F.Paste" "F.Mask") (tstamp 2828ce61-6b1b-4490-b457-61c76e169284))
  (pad "B1" smd circle (at -0.25 0) (size 0.25 0.25) (layers "F.Cu" "F.Paste" "F.Mask") (tstamp a43bed1d-e1c5-444a-a665-766d0a4cf9b8))
  (pad "B2" smd circle (at 0.25 0) (size 0.25 0.25) (layers "F.Cu" "F.Paste" "F.Mask") (tstamp a21411c8-fe15-41bc-ab53-f39a5808a66b))
  (pad "C1" smd circle (at -0.25 0.5) (size 0.25 0.25) (layers "F.Cu" "F.Paste" "F.Mask") (tstamp 8d745a71-e0c9-4cea-a867-a7da6e303798))
  (pad "C2" smd circle (at 0.25 0.5) (size 0.25 0.25) (layers "F.Cu" "F.Paste" "F.Mask") (tstamp 17e76af0-0911-41b6-a474-d650144ca9d5))
  (model "${KIPRJMOD}/shapes3D/FPF1320UCX.step"
    (offset (xyz 0 0 0))
    (scale (xyz 1 1 1))
    (rotate (xyz -90 0 0))
  )
)
