(footprint "KF141R-2.54-4P" (version 20211014) (generator pcbnew)
  (layer "F.Cu")
  (tedit 0)
  (attr through_hole)
  (fp_text reference "REF**" (at 0.9 -5.1 unlocked) (layer "F.SilkS")
    (effects (font (size 1 1) (thickness 0.15)))
    (tstamp c041cc96-6dc2-4d14-b668-ebfde48090e2)
  )
  (fp_text value "KF141R-2.54-4P" (at 1.58 -6.58 unlocked) (layer "F.Fab")
    (effects (font (size 1 1) (thickness 0.15)))
    (tstamp a77d0512-0fb5-4c24-ac34-352eddb452e6)
  )
  (fp_text user "${REFERENCE}" (at 5.7 -5.1 unlocked) (layer "F.Fab")
    (effects (font (size 1 1) (thickness 0.15)))
    (tstamp 8cc8a851-8f28-424d-b648-ac6ac09116d7)
  )
  (fp_line (start 4.279 10.394) (end 4.279 8.894) (layer "F.SilkS") (width 0.12) (tstamp 0daa31da-2e8e-4b61-b092-5a38c61e2a36))
  (fp_line (start -0.801 8.894) (end 0.199 7.894) (layer "F.SilkS") (width 0.12) (tstamp 12404e8a-2973-4efd-9547-ca1f2fa674b9))
  (fp_line (start 2.779 10.394) (end 1.779 10.394) (layer "F.SilkS") (width 0.12) (tstamp 1fe61170-31fb-4ce1-bf3d-6ea2bf219a08))
  (fp_line (start 7.62 7.894) (end 7.62 10.394) (layer "F.SilkS") (width 0.12) (tstamp 238a8be0-9871-46a9-a344-d32590ffe321))
  (fp_line (start 6.62 8.894) (end 7.62 7.894) (layer "F.SilkS") (width 0.12) (tstamp 2e6cb999-54a2-4a2a-862b-f728fc6b6996))
  (fp_line (start -1.005 7.66) (end 11.75 7.66) (layer "F.SilkS") (width 0.1) (tstamp 30fad5b7-a120-4daa-b99f-1675c4333fca))
  (fp_line (start 1.779 8.894) (end 2.779 7.894) (layer "F.SilkS") (width 0.12) (tstamp 45daffd5-68e1-4340-bd3e-50d18dd1cef7))
  (fp_line (start 11.75 7.66) (end 11.75 -2.994) (layer "F.SilkS") (width 0.1) (tstamp 4a16408b-7b2b-4815-87ce-39442323c061))
  (fp_line (start 11.75 10.824) (end -1.005 10.824) (layer "F.SilkS") (width 0.1) (tstamp 4f533061-24ad-445a-bdd7-8eee8f2f4000))
  (fp_line (start 0.199 10.394) (end -0.801 10.394) (layer "F.SilkS") (width 0.12) (tstamp 5534f8dd-3048-4dcb-98b3-2280597801bc))
  (fp_line (start 5.279 7.894) (end 5.279 10.394) (layer "F.SilkS") (width 0.12) (tstamp 5da9604b-34a0-486c-92e6-793fe03a2d75))
  (fp_line (start -1.005 -2.994) (end -1.005 7.66) (layer "F.SilkS") (width 0.1) (tstamp 67499d7f-e078-44fb-8c7d-1f053c366239))
  (fp_line (start 5.279 10.394) (end 4.279 10.394) (layer "F.SilkS") (width 0.12) (tstamp 71a9879b-4922-4902-9c12-e95d534409d9))
  (fp_line (start -1.005 7.66) (end -1.005 10.824) (layer "F.SilkS") (width 0.1) (tstamp 73e4d4bf-0185-4a2a-815a-b7cce1ab5243))
  (fp_line (start 4.279 8.894) (end 5.279 7.894) (layer "F.SilkS") (width 0.12) (tstamp 7a4714b3-25e9-4506-9e8c-05f5994fbf88))
  (fp_line (start 11.75 7.66) (end 11.75 10.824) (layer "F.SilkS") (width 0.1) (tstamp 7f5c746e-04d7-402c-bb0a-e463d6345bab))
  (fp_line (start -0.801 10.394) (end -0.801 8.894) (layer "F.SilkS") (width 0.12) (tstamp 8e8db092-4363-4001-a89b-087f9b01f7b4))
  (fp_line (start 0.199 7.894) (end 0.199 10.394) (layer "F.SilkS") (width 0.12) (tstamp 8e9b405b-19f9-48c7-8ade-09facf92e0e7))
  (fp_line (start 1.779 10.394) (end 1.779 8.894) (layer "F.SilkS") (width 0.12) (tstamp 91f96b53-7a94-4ccf-9506-a0971c876c3e))
  (fp_line (start 6.62 10.394) (end 6.62 8.894) (layer "F.SilkS") (width 0.12) (tstamp ca6bce0e-207a-401b-9a5d-ec4d48e47111))
  (fp_line (start 2.779 7.894) (end 2.779 10.394) (layer "F.SilkS") (width 0.12) (tstamp d00c23fd-5160-4282-9dee-6e8bb7bc2d3c))
  (fp_line (start 7.62 10.394) (end 6.62 10.394) (layer "F.SilkS") (width 0.12) (tstamp e78a4bbf-ab02-4d8c-a1eb-0a3e05c7f2ed))
  (fp_line (start 11.75 -2.994) (end -1.005 -2.994) (layer "F.SilkS") (width 0.1) (tstamp eb9e17e2-a7db-4300-8ada-6ce0755f6cd5))
  (fp_line (start 12.75 -3.95) (end -2.005 -3.95) (layer "F.CrtYd") (width 0.05) (tstamp 4ef959f7-8978-4596-8d64-39417e5e5eef))
  (fp_line (start -2.005 -3.95) (end -2.005 11.8) (layer "F.CrtYd") (width 0.05) (tstamp 6446d5e1-c96e-4369-8648-afbaa70df4c0))
  (fp_line (start 12.75 11.8) (end 12.75 -3.95) (layer "F.CrtYd") (width 0.05) (tstamp 6d381569-3723-4aea-9238-e44e5fafd593))
  (fp_line (start -2.005 11.8) (end 12.75 11.8) (layer "F.CrtYd") (width 0.05) (tstamp f4fcd056-7365-417c-b8e2-92d6f3d3ba38))
  (pad "1" thru_hole rect (at 0 0) (size 1.7 3) (drill 1.25) (layers *.Cu *.Mask) (tstamp 98a45044-5c02-4eeb-a5c9-48268f90656e))
  (pad "1" thru_hole oval (at 0 5.08) (size 1.7 3) (drill 1.25) (layers *.Cu *.Mask) (tstamp be50ab27-1892-428d-8624-d062bc429c1f))
  (pad "2" thru_hole oval (at 2.54 0) (size 1.7 3) (drill 1.25) (layers *.Cu *.Mask) (tstamp 4a13d5c1-d14a-4fb6-b0d3-36ca0cfcb8f3))
  (pad "2" thru_hole oval (at 2.54 5.08) (size 1.7 3) (drill 1.25) (layers *.Cu *.Mask) (tstamp e48243a3-1c60-4748-bc52-89f11fc0c22a))
  (pad "3" thru_hole oval (at 5.08 0) (size 1.7 3) (drill 1.25) (layers *.Cu *.Mask) (tstamp caa51140-e0d1-4adb-9b2b-d524b1d8b54b))
  (pad "3" thru_hole oval (at 5.08 5.08) (size 1.7 3) (drill 1.25) (layers *.Cu *.Mask) (tstamp fbaf77a9-373c-4653-a510-20abc0224574))
  (pad "4" thru_hole oval (at 7.62 0) (size 1.7 3) (drill 1.25) (layers *.Cu *.Mask) (tstamp 8cd93d10-9c7c-4778-b930-00768922da70))
  (pad "4" thru_hole oval (at 7.62 5.08) (size 1.7 3) (drill 1.25) (layers *.Cu *.Mask) (tstamp e7a98c94-d566-4e6d-8992-1f4195db4bf8))
)
