
(module MOLEX_503398-1892 (layer F.Cu) (tedit 62804A3D)
  (descr "")
  (fp_text reference REF** (at -3.907665 -8.415745 0) (layer F.SilkS)
    (effects (font (size 1.00068503937 1.00068503937) (thickness 0.15)))
  )
  (fp_text value MOLEX_503398-1892 (at 3.719055 8.349145 0) (layer F.Fab)
    (effects (font (size 1.00109448819 1.00109448819) (thickness 0.15)))
  )
  (pad 1 smd rect (at -2.38 -5.625) (size 0.7 1.1) (layers F.Cu F.Mask F.Paste))
  (pad 2 smd rect (at -1.28 -5.625) (size 0.7 1.1) (layers F.Cu F.Mask F.Paste))
  (pad 3 smd rect (at -0.18 -5.625) (size 0.7 1.1) (layers F.Cu F.Mask F.Paste))
  (pad 4 smd rect (at 0.92 -5.625) (size 0.7 1.1) (layers F.Cu F.Mask F.Paste))
  (pad 5 smd rect (at 2.02 -5.625) (size 0.7 1.1) (layers F.Cu F.Mask F.Paste))
  (pad 6 smd rect (at 3.12 -5.625) (size 0.7 1.1) (layers F.Cu F.Mask F.Paste))
  (pad 7 smd rect (at 4.22 -5.625) (size 0.7 1.1) (layers F.Cu F.Mask F.Paste))
  (pad 8 smd rect (at 5.32 -5.625) (size 0.7 1.1) (layers F.Cu F.Mask F.Paste))
  (pad P1 smd rect (at -6.26 -5.61) (size 1.14 1.83) (layers F.Cu F.Mask F.Paste))
  (pad P2 smd rect (at 6.4 -5.125) (size 0.86 2.8) (layers F.Cu F.Mask F.Paste))
  (pad P3 smd rect (at -6.48 5.64) (size 0.7 3.33) (layers F.Cu F.Mask F.Paste))
  (pad P4 smd rect (at 6.48 5.64) (size 0.7 3.33) (layers F.Cu F.Mask F.Paste))
  (pad 9 smd rect (at -4.17 6.84) (size 0.9 0.93) (layers F.Cu F.Mask F.Paste))
  (pad 10 smd rect (at 0.095 6.915) (size 1.05 0.78) (layers F.Cu F.Mask F.Paste))
  (zone (net 0) (net_name "") (layer F.Cu) (hatch full 0.508)
    (connect_pads (clearance 0))
    (min_thickness 0.01)
    (keepout (tracks not_allowed) (vias not_allowed) (pads not_allowed ) (copperpour not_allowed) (footprints allowed))
    (fill (thermal_gap 0.508) (thermal_bridge_width 0.508))
    (polygon
      (pts
        (xy -5.24526 4.575)
        (xy -4.685 4.575)
        (xy -4.685 6.73818)
        (xy -5.24526 6.73818)
      )
    )
  )
  (zone (net 0) (net_name "") (layer F.Cu) (hatch full 0.508)
    (connect_pads (clearance 0))
    (min_thickness 0.01)
    (keepout (tracks not_allowed) (vias not_allowed) (pads not_allowed ) (copperpour not_allowed) (footprints allowed))
    (fill (thermal_gap 0.508) (thermal_bridge_width 0.508))
    (polygon
      (pts
        (xy -6.83634 -1.125)
        (xy -6.13 -1.125)
        (xy -6.13 1.27618)
        (xy -6.83634 1.27618)
      )
    )
  )
  (zone (net 0) (net_name "") (layer F.Cu) (hatch full 0.508)
    (connect_pads (clearance 0))
    (min_thickness 0.01)
    (keepout (tracks not_allowed) (vias not_allowed) (pads not_allowed ) (copperpour not_allowed) (footprints allowed))
    (fill (thermal_gap 0.508) (thermal_bridge_width 0.508))
    (polygon
      (pts
        (xy -3.22251 6.375)
        (xy -2.67 6.375)
        (xy -2.67 6.9304)
        (xy -3.22251 6.9304)
      )
    )
  )
  (fp_line (start -6.55 -7.025) (end 6.55 -7.025) (layer F.Fab) (width 0.127))
  (fp_line (start 6.55 -7.025) (end 6.55 7.025) (layer F.Fab) (width 0.127))
  (fp_line (start 6.55 7.025) (end -6.55 7.025) (layer F.Fab) (width 0.127))
  (fp_line (start -6.55 7.025) (end -6.55 -7.025) (layer F.Fab) (width 0.127))
  (fp_line (start -6.55 -7.025) (end 6.55 -7.025) (layer F.SilkS) (width 0.127))
  (fp_line (start 0.874 7.025) (end 5.876 7.025) (layer F.SilkS) (width 0.127))
  (fp_line (start -5.876 7.025) (end -4.874 7.025) (layer F.SilkS) (width 0.127))
  (fp_circle (center -2.38 -5.775) (end -2.28 -5.775) (layer F.Fab) (width 0.2))
  (fp_circle (center -2.38 -7.475) (end -2.28 -7.475) (layer F.SilkS) (width 0.2))
  (fp_line (start -7.0 -7.25) (end 7.0 -7.25) (layer F.CrtYd) (width 0.05))
  (fp_line (start 7.0 -7.25) (end 7.0 7.5) (layer F.CrtYd) (width 0.05))
  (fp_line (start 7.0 7.5) (end -7.0 7.5) (layer F.CrtYd) (width 0.05))
  (fp_line (start -7.0 7.5) (end -7.0 -7.25) (layer F.CrtYd) (width 0.05))
  (zone (net 0) (net_name "") (layers *.Cu) (hatch full 0.508)
    (connect_pads (clearance 0))
    (min_thickness 0.0001)
    (keepout (tracks allowed) (vias not_allowed) (pads allowed ) (copperpour allowed) (footprints allowed))
    (fill (thermal_gap 0.508) (thermal_bridge_width 0.508))
    (polygon
      (pts
        (xy -3.17 -3.725)
        (xy -3.17 1.275)
        (xy -3.82 1.275)
        (xy -3.82 3.875)
        (xy 0.57 3.875)
        (xy 0.57 5.125)
        (xy -1.73 5.125)
        (xy -1.73 7.305)
        (xy -0.43 7.305)
        (xy -0.43 6.525)
        (xy 6.13 6.525)
        (xy 6.13 3.975)
        (xy 6.83 3.975)
        (xy 6.83 -3.725)
      )
    )
  )
  (zone (net 0) (net_name "") (layers *.Cu) (hatch full 0.508)
    (connect_pads (clearance 0))
    (min_thickness 0.01)
    (keepout (tracks allowed) (vias not_allowed) (pads allowed ) (copperpour allowed) (footprints allowed))
    (fill (thermal_gap 0.508) (thermal_bridge_width 0.508))
    (polygon
      (pts
        (xy -6.84156 -1.125)
        (xy -6.13 -1.125)
        (xy -6.13 1.27716)
        (xy -6.84156 1.27716)
      )
    )
  )
  (zone (net 0) (net_name "") (layers *.Cu) (hatch full 0.508)
    (connect_pads (clearance 0))
    (min_thickness 0.01)
    (keepout (tracks allowed) (vias not_allowed) (pads allowed ) (copperpour allowed) (footprints allowed))
    (fill (thermal_gap 0.508) (thermal_bridge_width 0.508))
    (polygon
      (pts
        (xy -5.23866 4.575)
        (xy -4.685 4.575)
        (xy -4.685 6.72971)
        (xy -5.23866 6.72971)
      )
    )
  )
  (zone (net 0) (net_name "") (layers *.Cu) (hatch full 0.508)
    (connect_pads (clearance 0))
    (min_thickness 0.01)
    (keepout (tracks allowed) (vias not_allowed) (pads allowed ) (copperpour allowed) (footprints allowed))
    (fill (thermal_gap 0.508) (thermal_bridge_width 0.508))
    (polygon
      (pts
        (xy -3.22541 6.375)
        (xy -2.67 6.375)
        (xy -2.67 6.93664)
        (xy -3.22541 6.93664)
      )
    )
  )
  (zone (net 0) (net_name "") (layer F.Cu) (hatch full 0.508)
    (connect_pads (clearance 0))
    (min_thickness 0.0001)
    (keepout (tracks not_allowed) (vias not_allowed) (pads not_allowed ) (copperpour not_allowed) (footprints allowed))
    (fill (thermal_gap 0.508) (thermal_bridge_width 0.508))
    (polygon
      (pts
        (xy -3.17 -3.725)
        (xy -3.17 1.275)
        (xy -3.82 1.275)
        (xy -3.82 3.875)
        (xy 0.57 3.875)
        (xy 0.57 5.125)
        (xy -1.73 5.125)
        (xy -1.73 7.305)
        (xy -0.43 7.305)
        (xy -0.43 6.525)
        (xy 6.13 6.525)
        (xy 6.13 3.975)
        (xy 6.83 3.975)
        (xy 6.83 -3.725)
      )
    )
  )
  (fp_line (start -6.55 -4.325) (end -6.55 -1.425) (layer F.SilkS) (width 0.127))
  (fp_line (start -6.55 1.575) (end -6.55 3.675) (layer F.SilkS) (width 0.127))
)